tests/complex/vhlib/wave/work.streampipelinecontrol_5_1_f_tc.vcd
$date
  Wed Jun 19 10:58:20 2019
$end
$version
  GHDL v0
$end
$timescale
  1 fs
$end
$scope module standard $end
$upscope $end
$scope module textio $end
$upscope $end
$scope module std_logic_1164 $end
$upscope $end
$scope module numeric_std $end
$upscope $end
$scope module std_logic_misc $end
$upscope $end
$scope module stream_pkg $end
$upscope $end
$scope module math_real $end
$upscope $end
$scope module testcase_pkg $end
$var reg 1 ! test $end
$var reg 1 " tc_model_init $end
$upscope $end
$scope module simdatacomms_pkg $end
$upscope $end
$scope module clockgen_pkg $end
$upscope $end
$scope module streammonitor_pkg $end
$upscope $end
$scope module streamsource_pkg $end
$upscope $end
$scope module streamsink_pkg $end
$upscope $end
$scope module utilint_pkg $end
$upscope $end
$scope module utilram_pkg $end
$upscope $end
$scope module streampipelinecontrol_5_1_f_tc $end
$scope module tv $end
$upscope $end
$scope module tb $end
$var reg 1 # clk $end
$var reg 1 $ reset $end
$var reg 1 % a_valid $end
$var reg 1 & a_ready $end
$var reg 8 ' a_data[7:0] $end
$var reg 1 ( b_valid $end
$var reg 1 ) b_ready $end
$var reg 8 * b_data[7:0] $end
$var reg 1 + pipe_stall $end
$var reg 1 , pipe_insert $end
$var reg 1 - pipe_delete $end
$var reg 6 . pipe_valid[0:5] $end
$var reg 8 / pipe_input[7:0] $end
$comment pipe_regs is not handled $end
$scope module clkgen $end
$var reg 1 0 clk $end
$var reg 1 1 clk_n $end
$var reg 1 2 reset $end
$var reg 1 3 reset_n $end
$var reg 1 4 sync $end
$var reg 1 5 clk_i $end
$upscope $end
$scope module a_source $end
$var reg 1 6 clk $end
$var reg 1 7 reset $end
$var reg 1 8 valid $end
$var reg 1 9 ready $end
$var reg 1 : dvalid $end
$var reg 8 ; data[7:0] $end
$var reg 1 < count[0:0] $end
$var reg 1 = last $end
$var reg 1 > ctrl[0:0] $end
$var reg 1 ? x[0:0] $end
$var reg 1 @ y[0:0] $end
$var reg 1 A z[0:0] $end
$scope module monitor $end
$var reg 1 B clk $end
$var reg 1 C reset $end
$var reg 1 D valid $end
$var reg 1 E ready $end
$var reg 1 F dvalid $end
$var reg 8 G data[7:0] $end
$var reg 1 H count[0:0] $end
$var reg 1 I last $end
$var reg 1 J ctrl[0:0] $end
$var reg 1 K x[0:0] $end
$var reg 1 L y[0:0] $end
$var reg 1 M z[0:0] $end
$upscope $end
$upscope $end
$scope module uut $end
$var reg 1 N clk $end
$var reg 1 O reset $end
$var reg 1 P in_valid $end
$var reg 1 Q in_ready $end
$var reg 8 R in_data[7:0] $end
$var reg 1 S out_valid $end
$var reg 1 T out_ready $end
$var reg 8 U out_data[7:0] $end
$var reg 1 V pipe_stall $end
$var reg 1 W pipe_insert $end
$var reg 1 X pipe_delete $end
$var reg 6 Y pipe_valid[0:5] $end
$var reg 8 Z pipe_input[7:0] $end
$var reg 8 [ pipe_output[7:0] $end
$var reg 1 \ ins_valid $end
$var reg 1 ] ins_ready $end
$var reg 8 ^ ins_data[7:0] $end
$var reg 6 _ pipe_valid_s[0:5] $end
$var reg 1 ` rate_limiter $end
$var reg 5 a fifo_reserved[4:0] $end
$var reg 1 b fifo_push $end
$var reg 1 c out_valid_s $end
$scope module no_input_slice_gen $end
$upscope $end
$scope module output_buffer_inst $end
$var reg 1 d clk $end
$var reg 1 e reset $end
$var reg 1 f in_valid $end
$var reg 1 g in_ready $end
$var reg 8 h in_data[7:0] $end
$var reg 1 i out_valid $end
$var reg 1 j out_ready $end
$var reg 8 k out_data[7:0] $end
$var reg 1 l ins_valid $end
$var reg 1 m ins_ready $end
$var reg 8 n ins_data[7:0] $end
$var reg 1 o outs_valid $end
$var reg 1 p outs_ready $end
$var reg 8 q outs_data[7:0] $end
$scope module input_slice_gen $end
$scope module slice_inst $end
$var reg 1 r clk $end
$var reg 1 s reset $end
$var reg 1 t in_valid $end
$var reg 1 u in_ready $end
$var reg 8 v in_data[7:0] $end
$var reg 1 w out_valid $end
$var reg 1 x out_ready $end
$var reg 8 y out_data[7:0] $end
$var reg 1 z in_ready_s $end
$var reg 1 { out_valid_s $end
$var reg 8 | saved_data[7:0] $end
$var reg 1 } saved_valid $end
$upscope $end
$upscope $end
$scope module fifo_gen $end
$scope module slice_inst $end
$var reg 1 !" in_clk $end
$var reg 1 "" in_reset $end
$var reg 1 #" in_valid $end
$var reg 1 $" in_ready $end
$var reg 8 %" in_data[7:0] $end
$var reg 5 &" in_rptr[4:0] $end
$var reg 5 '" in_wptr[4:0] $end
$var reg 1 (" out_clk $end
$var reg 1 )" out_reset $end
$var reg 1 *" out_valid $end
$var reg 1 +" out_ready $end
$var reg 8 ," out_data[7:0] $end
$var reg 5 -" out_rptr[4:0] $end
$var reg 5 ." out_wptr[4:0] $end
$var reg 5 /" in_rptr_s[4:0] $end
$var reg 5 0" in_wptr_s[4:0] $end
$var reg 5 1" out_rptr_s[4:0] $end
$var reg 5 2" out_wptr_s[4:0] $end
$var reg 1 3" in_full $end
$var reg 1 4" in_next $end
$var reg 1 5" out_nonempty $end
$var reg 1 6" out_next $end
$var reg 8 7" out_readdata[7:0] $end
$var reg 1 8" out_readvalid $end
$var reg 8 9" out_bufdata[7:0] $end
$var reg 1 :" out_bufvalid $end
$scope module wptr_inst $end
$var reg 1 ;" a_clk $end
$var reg 1 <" a_reset $end
$var reg 1 =" a_increment $end
$var reg 5 >" a_counter[4:0] $end
$var reg 1 ?" b_clk $end
$var reg 1 @" b_reset $end
$var reg 5 A" b_counter[4:0] $end
$var reg 5 B" a_counter_s[4:0] $end
$scope module no_xclk $end
$upscope $end
$upscope $end
$scope module ram_inst $end
$var reg 1 C" w_clk $end
$var reg 1 D" w_ena $end
$var reg 4 E" w_addr[3:0] $end
$var reg 8 F" w_data[7:0] $end
$var reg 1 G" r_clk $end
$var reg 1 H" r_ena $end
$var reg 4 I" r_addr[3:0] $end
$var reg 8 J" r_data[7:0] $end
$comment mem is not handled $end
$upscope $end
$scope module rptr_inst $end
$var reg 1 K" a_clk $end
$var reg 1 L" a_reset $end
$var reg 1 M" a_increment $end
$var reg 5 N" a_counter[4:0] $end
$var reg 1 O" b_clk $end
$var reg 1 P" b_reset $end
$var reg 5 Q" b_counter[4:0] $end
$var reg 5 R" a_counter_s[4:0] $end
$scope module no_xclk $end
$upscope $end
$upscope $end
$upscope $end
$upscope $end
$scope module output_slice_gen $end
$scope module slice_inst $end
$var reg 1 S" clk $end
$var reg 1 T" reset $end
$var reg 1 U" in_valid $end
$var reg 1 V" in_ready $end
$var reg 8 W" in_data[7:0] $end
$var reg 1 X" out_valid $end
$var reg 1 Y" out_ready $end
$var reg 8 Z" out_data[7:0] $end
$var reg 1 [" in_ready_s $end
$var reg 1 \" out_valid_s $end
$var reg 8 ]" saved_data[7:0] $end
$var reg 1 ^" saved_valid $end
$upscope $end
$upscope $end
$upscope $end
$upscope $end
$scope module b_sink $end
$var reg 1 _" clk $end
$var reg 1 `" reset $end
$var reg 1 a" valid $end
$var reg 1 b" ready $end
$var reg 1 c" dvalid $end
$var reg 8 d" data[7:0] $end
$var reg 1 e" count[0:0] $end
$var reg 1 f" last $end
$var reg 1 g" ctrl[0:0] $end
$var reg 1 h" x[0:0] $end
$var reg 1 i" y[0:0] $end
$var reg 1 j" z[0:0] $end
$scope module monitor $end
$var reg 1 k" clk $end
$var reg 1 l" reset $end
$var reg 1 m" valid $end
$var reg 1 n" ready $end
$var reg 1 o" dvalid $end
$var reg 8 p" data[7:0] $end
$var reg 1 q" count[0:0] $end
$var reg 1 r" last $end
$var reg 1 s" ctrl[0:0] $end
$var reg 1 t" x[0:0] $end
$var reg 1 u" y[0:0] $end
$var reg 1 v" z[0:0] $end
$upscope $end
$upscope $end
$upscope $end
$upscope $end
$enddefinitions $end
#0
1!
1"
0#
1$
U%
U&
bUUUUUUUU '
U(
U)
bUUUUUUUU *
0+
0,
0-
bUUUUUU .
bUUUUUUUU /
00
11
12
03
04
05
06
17
U8
U9
U:
bUUUUUUUU ;
bU <
U=
bU >
bU ?
bU @
bU A
0B
1C
UD
UE
UF
bUUUUUUUU G
bU H
UI
bU J
bU K
bU L
bU M
0N
1O
UP
UQ
bUUUUUUUU R
US
UT
bUUUUUUUU U
0V
0W
0X
bUUUUUU Y
bUUUUUUUU Z
bUUUUUUUU [
U\
U]
bUUUUUUUU ^
bUUUUUU _
0`
bUUUUU a
Ub
Uc
0d
1e
Uf
Ug
bUUUUUUUU h
Ui
Uj
bUUUUUUUU k
Ul
Um
bUUUUUUUU n
Uo
Up
bUUUUUUUU q
0r
1s
Ut
Uu
bUUUUUUUU v
Uw
Ux
bUUUUUUUU y
Uz
U{
bUUUUUUUU |
U}
0!"
1""
U#"
U$"
bUUUUUUUU %"
bUUUUU &"
bUUUUU '"
0("
1)"
U*"
U+"
bUUUUUUUU ,"
bUUUUU -"
bUUUUU ."
bUUUUU /"
bUUUUU 0"
bUUUUU 1"
bUUUUU 2"
03"
U4"
05"
06"
bUUUUUUUU 7"
U8"
bUUUUUUUU 9"
U:"
0;"
1<"
U="
bUUUUU >"
0?"
1@"
bUUUUU A"
bUUUUU B"
0C"
UD"
bUUUU E"
bUUUUUUUU F"
0G"
0H"
bUUUU I"
bUUUUUUUU J"
0K"
1L"
0M"
bUUUUU N"
0O"
1P"
bUUUUU Q"
bUUUUU R"
0S"
1T"
UU"
UV"
bUUUUUUUU W"
UX"
UY"
bUUUUUUUU Z"
U["
U\"
bUUUUUUUU ]"
U^"
0_"
1`"
Ua"
Ub"
1c"
bUUUUUUUU d"
b1 e"
1f"
b0 g"
b0 h"
b0 i"
b0 j"
0k"
1l"
Um"
Un"
1o"
bUUUUUUUU p"
b1 q"
1r"
b0 s"
b0 t"
b0 u"
b0 v"
#500000000
#600000000
#1000000000
14
#2000000000
1#
0%
0&
0(
0)
b000000 .
10
01
04
15
16
08
09
U:
bUUUUUUUU ;
bU <
U=
bU >
bU ?
bU @
bU A
1B
0D
0E
1N
0P
0Q
0S
0T
b000000 Y
0\
0]
b000000 _
b00000 a
0b
0c
1d
0f
0g
0i
0j
0l
0m
0o
0p
1r
0t
0u
0w
0x
0z
0{
0}
1!"
0#"
0$"
b00000 &"
b00000 '"
1("
0*"
0+"
b00000 -"
b00000 ."
b00000 /"
b00000 0"
b00000 1"
b00000 2"
04"
08"
0:"
1;"
0="
b00000 >"
1?"
b00000 A"
b00000 B"
1C"
0D"
b0000 E"
1G"
b0000 I"
1K"
b00000 N"
1O"
b00000 Q"
b00000 R"
1S"
0U"
0V"
0X"
0Y"
0["
0\"
0^"
1_"
0a"
0b"
1k"
0m"
0n"
#2005000000
0#
00
11
05
06
0B
0N
0d
0r
0!"
0("
0;"
0?"
0C"
0G"
0K"
0O"
0S"
0_"
0k"
#2010000000
1#
10
01
15
16
1B
1N
1d
1r
1!"
1("
1;"
1?"
1C"
1G"
1K"
1O"
1S"
1_"
1k"
#2015000000
0#
00
11
05
06
0B
0N
0d
0r
0!"
0("
0;"
0?"
0C"
0G"
0K"
0O"
0S"
0_"
0k"
#2020000000
1#
10
01
15
16
1B
1N
1d
1r
1!"
1("
1;"
1?"
1C"
1G"
1K"
1O"
1S"
1_"
1k"
#2025000000
0#
00
11
05
06
0B
0N
0d
0r
0!"
0("
0;"
0?"
0C"
0G"
0K"
0O"
0S"
0_"
0k"
#2030000000
1#
10
01
15
16
1B
1N
1d
1r
1!"
1("
1;"
1?"
1C"
1G"
1K"
1O"
1S"
1_"
1k"
#2035000000
0#
00
11
05
06
0B
0N
0d
0r
0!"
0("
0;"
0?"
0C"
0G"
0K"
0O"
0S"
0_"
0k"
#2040000000
1#
10
01
15
16
1B
1N
1d
1r
1!"
1("
1;"
1?"
1C"
1G"
1K"
1O"
1S"
1_"
1k"
#2045000000
0#
00
11
05
06
0B
0N
0d
0r
0!"
0("
0;"
0?"
0C"
0G"
0K"
0O"
0S"
0_"
0k"
#2050000000
1#
10
01
15
16
1B
1N
1d
1r
1!"
1("
1;"
1?"
1C"
1G"
1K"
1O"
1S"
1_"
1k"
#2055000000
0#
00
11
05
06
0B
0N
0d
0r
0!"
0("
0;"
0?"
0C"
0G"
0K"
0O"
0S"
0_"
0k"
#2060000000
1#
10
01
15
16
1B
1N
1d
1r
1!"
1("
1;"
1?"
1C"
1G"
1K"
1O"
1S"
1_"
1k"
#2065000000
0#
00
11
05
06
0B
0N
0d
0r
0!"
0("
0;"
0?"
0C"
0G"
0K"
0O"
0S"
0_"
0k"
#2070000000
1#
10
01
15
16
1B
1N
1d
1r
1!"
1("
1;"
1?"
1C"
1G"
1K"
1O"
1S"
1_"
1k"
#2075000000
0#
00
11
05
06
0B
0N
0d
0r
0!"
0("
0;"
0?"
0C"
0G"
0K"
0O"
0S"
0_"
0k"
#2080000000
1#
10
01
15
16
1B
1N
1d
1r
1!"
1("
1;"
1?"
1C"
1G"
1K"
1O"
1S"
1_"
1k"
#2085000000
0#
00
11
05
06
0B
0N
0d
0r
0!"
0("
0;"
0?"
0C"
0G"
0K"
0O"
0S"
0_"
0k"
#2090000000
1#
10
01
15
16
1B
1N
1d
1r
1!"
1("
1;"
1?"
1C"
1G"
1K"
1O"
1S"
1_"
1k"
#2095000000
0#
00
11
05
06
0B
0N
0d
0r
0!"
0("
0;"
0?"
0C"
0G"
0K"
0O"
0S"
0_"
0k"
#2100000000
1#
0$
10
01
02
13
15
16
07
1B
0C
1N
0O
1d
0e
1r
0s
1!"
0""
1("
0)"
1;"
0<"
1?"
0@"
1C"
1G"
1K"
0L"
1O"
0P"
1S"
0T"
1_"
0`"
1k"
0l"
#2105000000
Z"
0#
00
11
05
06
0B
0N
0d
0r
0!"
0("
0;"
0?"
0C"
0G"
0K"
0O"
0S"
0_"
0k"
#2110000000
1#
1%
1&
b01010100 '
b100000 .
b01010100 /
10
01
15
16
18
19
1:
b01010100 ;
b1 <
0=
1B
1D
1E
1F
b01010100 G
b1 H
0I
1N
1P
1Q
b01010100 R
b100000 Y
b01010100 Z
1\
1]
b01010100 ^
b100000 _
1d
1g
1p
1r
1u
1z
1!"
1("
1+"
1;"
1?"
1C"
1G"
1K"
1O"
1S"
1V"
1["
1_"
1k"
#2115000000
0#
00
11
05
06
0B
0N
0d
0r
0!"
0("
0;"
0?"
0C"
0G"
0K"
0O"
0S"
0_"
0k"
#2120000000
1#
0%
0&
1,
b110000 .
10
01
15
16
08
09
1B
0D
0E
1N
0P
0Q
1W
b110000 Y
0\
0]
b110000 _
b00001 a
1d
1r
1!"
1("
1;"
1?"
1C"
1G"
1K"
1O"
1S"
1_"
1k"
#2125000000
0#
00
11
05
06
0B
0N
0d
0r
0!"
0("
0;"
0?"
0C"
0G"
0K"
0O"
0S"
0_"
0k"
#2130000000
1#
0&
1)
0,
b011000 .
10
01
15
16
09
1B
0E
1N
0Q
1T
0W
b011000 Y
0]
b011000 _
b00010 a
1d
1j
1r
1!"
1("
1;"
1?"
1C"
1G"
1K"
1O"
1S"
1Y"
1_"
1b"
1k"
1n"
#2135000000
0#
00
11
05
06
0B
0N
0d
0r
0!"
0("
0;"
0?"
0C"
0G"
0K"
0O"
0S"
0_"
0k"
#2140000000
1#
b001100 .
10
01
15
16
1B
1N
b001100 Y
b001100 _
1d
1r
1!"
1("
1;"
1?"
1C"
1G"
1K"
1O"
1S"
1_"
1k"
#2145000000
0#
00
11
05
06
0B
0N
0d
0r
0!"
0("
0;"
0?"
0C"
0G"
0K"
0O"
0S"
0_"
0k"
#2150000000
1#
b000110 .
10
01
15
16
1B
1N
b000110 Y
b000110 _
1d
1r
1!"
1("
1;"
1?"
1C"
1G"
1K"
1O"
1S"
1_"
1k"
#2155000000
0#
00
11
05
06
0B
0N
0d
0r
0!"
0("
0;"
0?"
0C"
0G"
0K"
0O"
0S"
0_"
0k"
#2160000000
1#
1%
1&
b01101000 '
b100011 .
b01101000 /
10
01
15
16
18
19
b01101000 ;
1B
1D
1E
b01101000 G
1N
1P
1Q
b01101000 R
b100011 Y
b01101000 Z
b01010100 [
1\
1]
b01101000 ^
b100011 _
1b
1d
1f
b01010100 h
1r
1t
b01010100 v
1!"
1("
1;"
1?"
1C"
1G"
1K"
1O"
1S"
1_"
1k"
#2165000000
0#
00
11
05
06
0B
0N
0d
0r
0!"
0("
0;"
0?"
0C"
0G"
0K"
0O"
0S"
0_"
0k"
#2170000000
1#
b01100101 '
b110001 .
b01100101 /
10
01
15
16
b01100101 ;
1B
b01100101 G
1N
b01100101 R
b110001 Y
b01100101 Z
b00100001 [
b01100101 ^
b110001 _
b00011 a
1d
b00100001 h
1l
1m
b01010100 n
1r
b00100001 v
1w
1x
b01010100 y
1{
1!"
1#"
1$"
b01010100 %"
1("
14"
1;"
1="
1?"
1C"
1D"
b01010100 F"
1G"
1K"
1O"
1S"
1_"
1k"
#2175000000
0#
00
11
05
06
0B
0N
0d
0r
0!"
0("
0;"
0?"
0C"
0G"
0K"
0O"
0S"
0_"
0k"
#2180000000
1#
b00100000 '
b111000 .
b00100000 /
10
01
15
16
b00100000 ;
1B
b00100000 G
1N
b00100000 R
b111000 Y
b00100000 Z
b01010100 [
b00100000 ^
b111000 _
b00100 a
0b
1d
0f
b01010100 h
b00100001 n
1r
0t
b01010100 v
b00100001 y
1!"
b00100001 %"
b00001 '"
1("
b00001 ."
b00001 0"
b00001 2"
15"
16"
1;"
b00001 >"
1?"
b00001 A"
b00001 B"
1C"
b0001 E"
b00100001 F"
1G"
1H"
1K"
1M"
1O"
1S"
1_"
1k"
#2185000000
0#
00
11
05
06
0B
0N
0d
0r
0!"
0("
0;"
0?"
0C"
0G"
0K"
0O"
0S"
0_"
0k"
#2190000000
1#
b01010001 '
b111100 .
b01010001 /
10
01
15
16
b01010001 ;
1B
b01010001 G
1N
b01010001 R
b111100 Y
b01010001 Z
b01010001 ^
b111100 _
b00101 a
1d
0l
0m
1o
b01010100 q
1r
0w
0x
0{
1!"
0#"
0$"
b00001 &"
b00010 '"
1("
1*"
b01010100 ,"
b00001 -"
b00010 ."
b00001 /"
b00010 0"
b00001 1"
b00010 2"
04"
b01010100 7"
18"
1;"
0="
b00010 >"
1?"
b00010 A"
b00010 B"
1C"
0D"
b0010 E"
1G"
b0001 I"
b01010100 J"
1K"
b00001 N"
1O"
b00001 Q"
b00001 R"
1S"
1U"
b01010100 W"
1_"
1k"
#2195000000
0#
00
11
05
06
0B
0N
0d
0r
0!"
0("
0;"
0?"
0C"
0G"
0K"
0O"
0S"
0_"
0k"
#2200000000
1#
0&
b01110101 '
1(
b01010100 *
1,
b111110 .
b01110101 /
10
01
15
16
09
b01110101 ;
1B
0E
b01110101 G
1N
0Q
b01110101 R
1S
b01010100 U
1W
b111110 Y
b01110101 Z
0]
b01110101 ^
b111110 _
b00110 a
1c
1d
1i
b01010100 k
b00100001 q
1r
1!"
b00010 &"
1("
b00100001 ,"
b00010 -"
b00010 /"
b00010 1"
05"
06"
b00100001 7"
b01010100 9"
1;"
1?"
1C"
1G"
0H"
b0010 I"
b00100001 J"
1K"
0M"
b00010 N"
1O"
b00010 Q"
b00010 R"
1S"
b00100001 W"
1X"
b01010100 Z"
1\"
1_"
1a"
b01010100 d"
1k"
1m"
b01010100 p"
#2205000000
0#
00
11
05
06
0B
0N
0d
0r
0!"
0("
0;"
0?"
0C"
0G"
0K"
0O"
0S"
0_"
0k"
#2210000000
1#
1&
0)
b00100001 *
0,
b111111 .
10
01
15
16
19
1B
1E
1N
1Q
0T
b00100001 U
0W
b111111 Y
b01101000 [
1]
b111111 _
1b
1d
1f
b01101000 h
0j
b00100001 k
0o
bUUUUUUUU q
1r
1t
b01101000 v
1!"
1("
0*"
bUUUUUUUU ,"
bUUUUUUUU 7"
08"
b00100001 9"
1;"
1?"
1C"
1G"
bUUUUUUUU J"
1K"
1O"
1S"
0U"
bUUUUUUUU W"
0Y"
b00100001 Z"
1_"
0b"
b00100001 d"
1k"
0n"
b00100001 p"
#2215000000
0#
00
11
05
06
0B
0N
0d
0r
0!"
0("
0;"
0?"
0C"
0G"
0K"
0O"
0S"
0_"
0k"
#2220000000
1#
0%
0&
b011111 .
10
01
15
16
08
09
1B
0D
0E
1N
0P
0Q
b011111 Y
b01100101 [
0\
0]
b011111 _
b00111 a
1d
b01100101 h
1l
1m
b01101000 n
1r
b01100101 v
1w
1x
b01101000 y
1{
1!"
1#"
1$"
b01101000 %"
1("
14"
1;"
1="
1?"
1C"
1D"
b01101000 F"
1G"
1K"
1O"
1S"
1_"
1k"
#2225000000
0#
00
11
05
06
0B
0N
0d
0r
0!"
0("
0;"
0?"
0C"
0G"
0K"
0O"
0S"
0_"
0k"
#2230000000
1#
1-
b001111 .
10
01
15
16
1B
1N
1X
b001111 Y
b00100000 [
b001111 _
0b
1d
0f
b00100000 h
b01100101 n
1r
0t
b00100000 v
b01100101 y
1!"
b01100101 %"
b00011 '"
1("
b00011 ."
b00011 0"
b00011 2"
15"
16"
1;"
b00011 >"
1?"
b00011 A"
b00011 B"
1C"
b0011 E"
b01100101 F"
1G"
1H"
1K"
1M"
1O"
1S"
1_"
1k"
#2235000000
0#
00
11
05
06
0B
0N
0d
0r
0!"
0("
0;"
0?"
0C"
0G"
0K"
0O"
0S"
0_"
0k"
#2240000000
1#
0-
b000111 .
10
01
15
16
1B
1N
0X
b000111 Y
b01010001 [
b000111 _
b00110 a
1b
1d
1f
b01010001 h
0l
0m
1o
b01101000 q
1r
1t
b01010001 v
0w
0x
0{
1!"
0#"
0$"
b00011 &"
b00100 '"
1("
1*"
b01101000 ,"
b00011 -"
b00100 ."
b00011 /"
b00100 0"
b00011 1"
b00100 2"
04"
b01101000 7"
18"
1;"
0="
b00100 >"
1?"
b00100 A"
b00100 B"
1C"
0D"
b0100 E"
1G"
b0011 I"
b01101000 J"
1K"
b00011 N"
1O"
b00011 Q"
b00011 R"
1S"
1U"
b01101000 W"
1_"
1k"
#2245000000
0#
00
11
05
06
0B
0N
0d
0r
0!"
0("
0;"
0?"
0C"
0G"
0K"
0O"
0S"
0_"
0k"
#2250000000
1#
b000011 .
10
01
15
16
1B
1N
b000011 Y
b00100001 [
b000011 _
1d
b00100001 h
1l
1m
b01010001 n
0p
b01100101 q
1r
b00100001 v
1w
1x
b01010001 y
1{
1!"
1#"
1$"
b01010001 %"
b00100 &"
1("
0+"
b01100101 ,"
b00100 -"
b00100 /"
b00100 1"
14"
05"
06"
b01100101 7"
b01101000 9"
1;"
1="
1?"
1C"
1D"
b01010001 F"
1G"
0H"
b0100 I"
b01100101 J"
1K"
0M"
b00100 N"
1O"
b00100 Q"
b00100 R"
1S"
0V"
b01100101 W"
0["
b01101000 ]"
1^"
1_"
1k"
#2255000000
0#
00
11
05
06
0B
0N
0d
0r
0!"
0("
0;"
0?"
0C"
0G"
0K"
0O"
0S"
0_"
0k"
#2260000000
1#
1%
1&
b01101001 '
1)
b100001 .
b01101001 /
10
01
15
16
18
19
b01101001 ;
1B
1D
1E
b01101001 G
1N
1P
1Q
b01101001 R
1T
b100001 Y
b01101001 Z
b01110101 [
1\
1]
b01101001 ^
b100001 _
1d
b01110101 h
1j
b00100001 n
1r
b01110101 v
b00100001 y
1!"
b00100001 %"
b00101 '"
1("
b00101 ."
b00101 0"
b00101 2"
15"
bUUUUUUUU 7"
08"
b01100101 9"
1:"
1;"
b00101 >"
1?"
b00101 A"
b00101 B"
1C"
b0101 E"
b00100001 F"
1G"
bUUUUUUUU J"
1K"
1O"
1S"
1Y"
1_"
1b"
1k"
1n"
#2265000000
0#
00
11
05
06
0B
0N
0d
0r
0!"
0("
0;"
0?"
0C"
0G"
0K"
0O"
0S"
0_"
0k"
#2270000000
1#
0%
0&
b01101000 *
b010000 .
10
01
15
16
08
09
1B
0D
0E
1N
0P
0Q
b01101000 U
b010000 Y
0\
0]
b010000 _
0b
1d
0f
b01101000 k
b01110101 n
1p
1r
0t
b01110101 y
1!"
b01110101 %"
b00110 '"
1("
1+"
b00110 ."
b00110 0"
b00110 2"
16"
b01010001 7"
1;"
b00110 >"
1?"
b00110 A"
b00110 B"
1C"
b0110 E"
b01110101 F"
1G"
1H"
b01010001 J"
1K"
1M"
1O"
1S"
1V"
b01101000 Z"
1["
0^"
1_"
b01101000 d"
1k"
b01101000 p"
#2275000000
0#
00
11
05
06
0B
0N
0d
0r
0!"
0("
0;"
0?"
0C"
0G"
0K"
0O"
0S"
0_"
0k"
#2280000000
1#
0)
b01100101 *
b001000 .
10
01
15
16
1B
1N
0T
b01100101 U
b001000 Y
b001000 _
b00101 a
1d
0j
b01100101 k
0l
0m
b01010001 q
1r
0w
0x
0{
1!"
0#"
0$"
b00101 &"
b00111 '"
1("
b01010001 ,"
b00101 -"
b00111 ."
b00101 /"
b00111 0"
b00101 1"
b00111 2"
04"
18"
0:"
1;"
0="
b00111 >"
1?"
b00111 A"
b00111 B"
1C"
0D"
b0111 E"
1G"
b0101 I"
1K"
b00101 N"
1O"
b00101 Q"
b00101 R"
1S"
b01010001 W"
0Y"
b01100101 Z"
1_"
0b"
b01100101 d"
1k"
0n"
b01100101 p"
#2285000000
0#
00
11
05
06
0B
0N
0d
0r
0!"
0("
0;"
0?"
0C"
0G"
0K"
0O"
0S"
0_"
0k"
#2290000000
1#
1%
b01100011 '
1+
b000100 .
b01100011 /
10
01
15
16
18
b01100011 ;
1B
1D
b01100011 G
1N
1P
b01100011 R
1V
b000100 Y
b01100011 Z
1\
b01100011 ^
b000100 _
1d
0p
b00100001 q
1r
1!"
b00110 &"
1("
0+"
b00100001 ,"
b00110 -"
b00110 /"
b00110 1"
06"
b00100001 7"
b01010001 9"
1;"
1?"
1C"
1G"
0H"
b0110 I"
b00100001 J"
1K"
0M"
b00110 N"
1O"
b00110 Q"
b00110 R"
1S"
0V"
b00100001 W"
0["
b01010001 ]"
1^"
1_"
1k"
#2295000000
0#
00
11
05
06
0B
0N
0d
0r
0!"
0("
0;"
0?"
0C"
0G"
0K"
0O"
0S"
0_"
0k"
#2300000000
1#
b000010 .
10
01
15
16
1B
1N
b000010 Y
b000010 _
1d
1r
1!"
1("
b01110101 7"
08"
b00100001 9"
1:"
1;"
1?"
1C"
1G"
b01110101 J"
1K"
1O"
1S"
1_"
1k"
#2305000000
0#
00
11
05
06
0B
0N
0d
0r
0!"
0("
0;"
0?"
0C"
0G"
0K"
0O"
0S"
0_"
0k"
#2310000000
1#
b000001 .
10
01
15
16
1B
1N
b000001 Y
b01101001 [
b000001 _
1b
1d
1f
b01101001 h
1r
1t
b01101001 v
1!"
1("
1;"
1?"
1C"
1G"
1K"
1O"
1S"
1_"
1k"
#2315000000
0#
00
11
05
06
0B
0N
0d
0r
0!"
0("
0;"
0?"
0C"
0G"
0K"
0O"
0S"
0_"
0k"
#2320000000
1#
1)
b000000 .
10
01
15
16
1B
1N
1T
b000000 Y
b000000 _
0b
1d
0f
1j
1l
1m
b01101001 n
1r
0t
1w
1x
b01101001 y
1{
1!"
1#"
1$"
b01101001 %"
1("
14"
1;"
1="
1?"
1C"
1D"
b01101001 F"
1G"
1K"
1O"
1S"
1Y"
1_"
1b"
1k"
1n"
#2325000000
0#
00
11
05
06
0B
0N
0d
0r
0!"
0("
0;"
0?"
0C"
0G"
0K"
0O"
0S"
0_"
0k"
#2330000000
1#
b01010001 *
10
01
15
16
1B
1N
b01010001 U
b00100 a
1d
b01010001 k
0l
0m
1p
1r
0w
0x
0{
1!"
0#"
0$"
b01000 '"
1("
1+"
b01000 ."
b01000 0"
b01000 2"
04"
16"
1;"
0="
b01000 >"
1?"
b01000 A"
b01000 B"
1C"
0D"
b1000 E"
1G"
1H"
1K"
1M"
1O"
1S"
1V"
b01010001 Z"
1["
0^"
1_"
b01010001 d"
1k"
b01010001 p"
#2335000000
0#
00
11
05
06
0B
0N
0d
0r
0!"
0("
0;"
0?"
0C"
0G"
0K"
0O"
0S"
0_"
0k"
#2340000000
1#
0)
b00100001 *
10
01
15
16
1B
1N
0T
b00100001 U
b01100011 [
b00011 a
1d
b01100011 h
0j
b00100001 k
b01110101 q
1r
b01100011 v
1!"
b00111 &"
1("
b01110101 ,"
b00111 -"
b00111 /"
b00111 1"
18"
0:"
1;"
1?"
1C"
1G"
b0111 I"
1K"
b00111 N"
1O"
b00111 Q"
b00111 R"
1S"
b01110101 W"
0Y"
b00100001 Z"
1_"
0b"
b00100001 d"
1k"
0n"
b00100001 p"
#2345000000
0#
00
11
05
06
0B
0N
0d
0r
0!"
0("
0;"
0?"
0C"
0G"
0K"
0O"
0S"
0_"
0k"
#2350000000
1#
1)
10
01
15
16
1B
1N
1T
1d
1j
0p
b01101001 q
1r
1!"
b01000 &"
1("
0+"
b01101001 ,"
b01000 -"
b01000 /"
b01000 1"
05"
06"
b01101001 7"
b01110101 9"
1;"
1?"
1C"
1G"
0H"
b1000 I"
b01101001 J"
1K"
0M"
b01000 N"
1O"
b01000 Q"
b01000 R"
1S"
0V"
b01101001 W"
1Y"
0["
b01110101 ]"
1^"
1_"
1b"
1k"
1n"
#2355000000
0#
00
11
05
06
0B
0N
0d
0r
0!"
0("
0;"
0?"
0C"
0G"
0K"
0O"
0S"
0_"
0k"
#2360000000
1#
0)
b01110101 *
10
01
15
16
1B
1N
0T
b01110101 U
b00010 a
1d
0j
b01110101 k
1p
1r
1!"
1("
1+"
bUUUUUUUU 7"
08"
b01101001 9"
1:"
1;"
1?"
1C"
1G"
bUUUUUUUU J"
1K"
1O"
1S"
1V"
0Y"
b01110101 Z"
1["
0^"
1_"
0b"
b01110101 d"
1k"
0n"
b01110101 p"
#2365000000
0#
00
11
05
06
0B
0N
0d
0r
0!"
0("
0;"
0?"
0C"
0G"
0K"
0O"
0S"
0_"
0k"
