tests/complex/vhlib/wave/work.streamprefixsum_tc.vcd
$date
  Wed Jun 19 10:58:20 2019
$end
$version
  GHDL v0
$end
$timescale
  1 fs
$end
$scope module standard $end
$upscope $end
$scope module textio $end
$upscope $end
$scope module std_logic_1164 $end
$upscope $end
$scope module numeric_std $end
$upscope $end
$scope module math_real $end
$upscope $end
$scope module testcase_pkg $end
$var reg 1 ! test $end
$var reg 1 " tc_model_init $end
$upscope $end
$scope module simdatacomms_pkg $end
$upscope $end
$scope module streammonitor_pkg $end
$upscope $end
$scope module streamsource_pkg $end
$upscope $end
$scope module streamsink_pkg $end
$upscope $end
$scope module std_logic_misc $end
$upscope $end
$scope module stream_pkg $end
$upscope $end
$scope module clockgen_pkg $end
$upscope $end
$scope module streamprefixsum_tc $end
$scope module tb $end
$var reg 1 # clk $end
$var reg 1 $ reset $end
$var reg 1 % a_valid $end
$var reg 1 & a_ready $end
$var reg 1 ' a_dvalid $end
$var reg 32 ( a_data[31:0] $end
$var reg 3 ) a_count[2:0] $end
$var reg 1 * a_last $end
$var reg 1 + a_clear $end
$var reg 8 , a_initial[7:0] $end
$var reg 1 - b_valid $end
$var reg 1 . b_ready $end
$var reg 1 / b_dvalid $end
$var reg 32 0 b_data[31:0] $end
$var reg 3 1 b_count[2:0] $end
$var reg 1 2 b_last $end
$scope module clkgen $end
$var reg 1 3 clk $end
$var reg 1 4 clk_n $end
$var reg 1 5 reset $end
$var reg 1 6 reset_n $end
$var reg 1 7 sync $end
$var reg 1 8 clk_i $end
$upscope $end
$scope module a_source $end
$var reg 1 9 clk $end
$var reg 1 : reset $end
$var reg 1 ; valid $end
$var reg 1 < ready $end
$var reg 1 = dvalid $end
$var reg 32 > data[31:0] $end
$var reg 3 ? count[2:0] $end
$var reg 1 @ last $end
$var reg 1 A ctrl[0:0] $end
$var reg 1 B x[0:0] $end
$var reg 8 C y[7:0] $end
$var reg 1 D z[0:0] $end
$scope module monitor $end
$var reg 1 E clk $end
$var reg 1 F reset $end
$var reg 1 G valid $end
$var reg 1 H ready $end
$var reg 1 I dvalid $end
$var reg 32 J data[31:0] $end
$var reg 3 K count[2:0] $end
$var reg 1 L last $end
$var reg 1 M ctrl[0:0] $end
$var reg 1 N x[0:0] $end
$var reg 8 O y[7:0] $end
$var reg 1 P z[0:0] $end
$upscope $end
$upscope $end
$scope module uut $end
$var reg 1 Q clk $end
$var reg 1 R reset $end
$var reg 1 S in_valid $end
$var reg 1 T in_ready $end
$var reg 1 U in_dvalid $end
$var reg 32 V in_data[31:0] $end
$var reg 3 W in_count[2:0] $end
$var reg 1 X in_last $end
$var reg 1 Y in_ctrl[0:0] $end
$var reg 1 Z in_clear $end
$var reg 8 [ in_initial[7:0] $end
$var reg 1 \ out_valid $end
$var reg 1 ] out_ready $end
$var reg 1 ^ out_dvalid $end
$var reg 32 _ out_data[31:0] $end
$var reg 3 ` out_count[2:0] $end
$var reg 1 a out_last $end
$var reg 1 b out_ctrl[0:0] $end
$var reg 1 c out_valid_i $end
$var reg 1 d first $end
$var reg 8 e accumulator[7:0] $end
$upscope $end
$scope module b_sink $end
$var reg 1 f clk $end
$var reg 1 g reset $end
$var reg 1 h valid $end
$var reg 1 i ready $end
$var reg 1 j dvalid $end
$var reg 32 k data[31:0] $end
$var reg 3 l count[2:0] $end
$var reg 1 m last $end
$var reg 1 n ctrl[0:0] $end
$var reg 1 o x[0:0] $end
$var reg 1 p y[0:0] $end
$var reg 1 q z[0:0] $end
$scope module monitor $end
$var reg 1 r clk $end
$var reg 1 s reset $end
$var reg 1 t valid $end
$var reg 1 u ready $end
$var reg 1 v dvalid $end
$var reg 32 w data[31:0] $end
$var reg 3 x count[2:0] $end
$var reg 1 y last $end
$var reg 1 z ctrl[0:0] $end
$var reg 1 { x[0:0] $end
$var reg 1 | y[0:0] $end
$var reg 1 } z[0:0] $end
$upscope $end
$upscope $end
$upscope $end
$upscope $end
$enddefinitions $end
#0
1!
1"
0#
1$
U%
0&
U'
bUUUUUUUUUUUUUUUUUUUUUUUUUUUUUUUU (
bUUU )
U*
U+
bUUUUUUUU ,
U-
U.
U/
bUUUUUUUUUUUUUUUUUUUUUUUUUUUUUUUU 0
bUUU 1
U2
03
14
15
06
07
08
09
1:
U;
0<
U=
bUUUUUUUUUUUUUUUUUUUUUUUUUUUUUUUU >
bUUU ?
U@
bU A
bU B
bUUUUUUUU C
bU D
0E
1F
UG
0H
UI
bUUUUUUUUUUUUUUUUUUUUUUUUUUUUUUUU J
bUUU K
UL
bU M
bU N
bUUUUUUUU O
bU P
0Q
1R
US
0T
UU
bUUUUUUUUUUUUUUUUUUUUUUUUUUUUUUUU V
bUUU W
UX
b0 Y
UZ
bUUUUUUUU [
U\
U]
U^
bUUUUUUUUUUUUUUUUUUUUUUUUUUUUUUUU _
bUUU `
Ua
bU b
Uc
Ud
bUUUUUUUU e
0f
1g
Uh
Ui
Uj
bUUUUUUUUUUUUUUUUUUUUUUUUUUUUUUUU k
bUUU l
Um
b0 n
b0 o
b0 p
b0 q
0r
1s
Ut
Uu
Uv
bUUUUUUUUUUUUUUUUUUUUUUUUUUUUUUUU w
bUUU x
Uy
b0 z
b0 {
b0 |
b0 }
#500000000
#600000000
#1000000000
17
#2000000000
1#
0%
0-
0.
13
04
07
18
19
0;
1E
0G
1Q
0S
0\
0]
0c
1d
1f
0h
0i
1r
0t
0u
#2005000000
0#
03
14
08
09
0E
0Q
0f
0r
#2010000000
1#
13
04
18
19
1E
1Q
1f
1r
#2015000000
0#
03
14
08
09
0E
0Q
0f
0r
#2020000000
1#
13
04
18
19
1E
1Q
1f
1r
#2025000000
0#
03
14
08
09
0E
0Q
0f
0r
#2030000000
1#
13
04
18
19
1E
1Q
1f
1r
#2035000000
0#
03
14
08
09
0E
0Q
0f
0r
#2040000000
1#
13
04
18
19
1E
1Q
1f
1r
#2045000000
0#
03
14
08
09
0E
0Q
0f
0r
#2050000000
1#
13
04
18
19
1E
1Q
1f
1r
#2055000000
0#
03
14
08
09
0E
0Q
0f
0r
#2060000000
1#
13
04
18
19
1E
1Q
1f
1r
#2065000000
0#
03
14
08
09
0E
0Q
0f
0r
#2070000000
1#
13
04
18
19
1E
1Q
1f
1r
#2075000000
0#
03
14
08
09
0E
0Q
0f
0r
#2080000000
1#
13
04
18
19
1E
1Q
1f
1r
#2085000000
0#
03
14
08
09
0E
0Q
0f
0r
#2090000000
1#
13
04
18
19
1E
1Q
1f
1r
#2095000000
0#
03
14
08
09
0E
0Q
0f
0r
#2100000000
1#
0$
1&
13
04
05
16
18
19
0:
1<
1E
0F
1H
1Q
0R
1T
1f
0g
1r
0s
#2105000000
Z"
0#
03
14
08
09
0E
0Q
0f
0r
#2110000000
1#
1%
1'
b00000100000000110000001000000001 (
b100 )
0*
0+
b00000000 ,
1.
13
04
18
19
1;
1=
b00000100000000110000001000000001 >
b100 ?
0@
b0 B
b00000000 C
1E
1G
1I
b00000100000000110000001000000001 J
b100 K
0L
b0 N
b00000000 O
1Q
1S
1U
b00000100000000110000001000000001 V
b100 W
0X
0Z
b00000000 [
1]
1f
1i
1r
1u
#2115000000
0#
03
14
08
09
0E
0Q
0f
0r
#2120000000
1#
b00001000000001110000011000000101 (
1-
1/
b00001010000001100000001100000001 0
b100 1
02
13
04
18
19
b00001000000001110000011000000101 >
1E
b00001000000001110000011000000101 J
1Q
b00001000000001110000011000000101 V
1\
1^
b00001010000001100000001100000001 _
b100 `
0a
b0 b
1c
0d
b00001010 e
1f
1h
1j
b00001010000001100000001100000001 k
b100 l
0m
1r
1t
1v
b00001010000001100000001100000001 w
b100 x
0y
#2125000000
0#
03
14
08
09
0E
0Q
0f
0r
#2130000000
1#
bUUUUUUUUUUUUUUUU0000101000001001 (
b010 )
1*
b00100100000111000001010100001111 0
13
04
18
19
bUUUUUUUUUUUUUUUU0000101000001001 >
b010 ?
1@
1E
bUUUUUUUUUUUUUUUU0000101000001001 J
b010 K
1L
1Q
bUUUUUUUUUUUUUUUU0000101000001001 V
b010 W
1X
b00100100000111000001010100001111 _
b00100100 e
1f
b00100100000111000001010100001111 k
1r
b00100100000111000001010100001111 w
#2135000000
0#
03
14
08
09
0E
0Q
0f
0r
#2140000000
1#
0%
b00110111001101110011011100101101 0
b010 1
12
13
04
18
19
0;
1E
0G
1Q
0S
b00110111001101110011011100101101 _
b010 `
1a
1d
b00110111 e
1f
b00110111001101110011011100101101 k
b010 l
1m
1r
b00110111001101110011011100101101 w
b010 x
1y
#2145000000
0#
03
14
08
09
0E
0Q
0f
0r
#2150000000
1#
0-
13
04
18
19
1E
1Q
0\
0c
1f
0h
1r
0t
