tests/complex/vhlib/wave/work.streambuffer_2_tc.vcd
$date
  Wed Jun 19 10:58:19 2019
$end
$version
  GHDL v0
$end
$timescale
  1 fs
$end
$scope module standard $end
$upscope $end
$scope module textio $end
$upscope $end
$scope module std_logic_1164 $end
$upscope $end
$scope module numeric_std $end
$upscope $end
$scope module math_real $end
$upscope $end
$scope module testcase_pkg $end
$var reg 1 ! test $end
$var reg 1 " tc_model_init $end
$upscope $end
$scope module simdatacomms_pkg $end
$upscope $end
$scope module streammonitor_pkg $end
$upscope $end
$scope module streamsource_pkg $end
$upscope $end
$scope module streamsink_pkg $end
$upscope $end
$scope module std_logic_misc $end
$upscope $end
$scope module stream_pkg $end
$upscope $end
$scope module clockgen_pkg $end
$upscope $end
$scope module streambuffer_2_tc $end
$var reg 1 # clk $end
$var reg 1 $ reset $end
$scope module tv $end
$upscope $end
$scope module tb $end
$var reg 1 % clk $end
$var reg 1 & reset $end
$var reg 1 ' a_valid $end
$var reg 1 ( a_ready $end
$var reg 8 ) a_data[7:0] $end
$var reg 1 * b_valid $end
$var reg 1 + b_ready $end
$var reg 8 , b_data[7:0] $end
$scope module clkgen $end
$var reg 1 - clk $end
$var reg 1 . clk_n $end
$var reg 1 / reset $end
$var reg 1 0 reset_n $end
$var reg 1 1 sync $end
$var reg 1 2 clk_i $end
$upscope $end
$scope module a_source $end
$var reg 1 3 clk $end
$var reg 1 4 reset $end
$var reg 1 5 valid $end
$var reg 1 6 ready $end
$var reg 1 7 dvalid $end
$var reg 8 8 data[7:0] $end
$var reg 1 9 count[0:0] $end
$var reg 1 : last $end
$var reg 1 ; ctrl[0:0] $end
$var reg 1 < x[0:0] $end
$var reg 1 = y[0:0] $end
$var reg 1 > z[0:0] $end
$scope module monitor $end
$var reg 1 ? clk $end
$var reg 1 @ reset $end
$var reg 1 A valid $end
$var reg 1 B ready $end
$var reg 1 C dvalid $end
$var reg 8 D data[7:0] $end
$var reg 1 E count[0:0] $end
$var reg 1 F last $end
$var reg 1 G ctrl[0:0] $end
$var reg 1 H x[0:0] $end
$var reg 1 I y[0:0] $end
$var reg 1 J z[0:0] $end
$upscope $end
$upscope $end
$scope module uut $end
$var reg 1 K clk $end
$var reg 1 L reset $end
$var reg 1 M in_valid $end
$var reg 1 N in_ready $end
$var reg 8 O in_data[7:0] $end
$var reg 1 P out_valid $end
$var reg 1 Q out_ready $end
$var reg 8 R out_data[7:0] $end
$var reg 1 S ins_valid $end
$var reg 1 T ins_ready $end
$var reg 8 U ins_data[7:0] $end
$var reg 1 V outs_valid $end
$var reg 1 W outs_ready $end
$var reg 8 X outs_data[7:0] $end
$scope module input_slice_gen $end
$scope module slice_inst $end
$var reg 1 Y clk $end
$var reg 1 Z reset $end
$var reg 1 [ in_valid $end
$var reg 1 \ in_ready $end
$var reg 8 ] in_data[7:0] $end
$var reg 1 ^ out_valid $end
$var reg 1 _ out_ready $end
$var reg 8 ` out_data[7:0] $end
$var reg 1 a in_ready_s $end
$var reg 1 b out_valid_s $end
$var reg 8 c saved_data[7:0] $end
$var reg 1 d saved_valid $end
$upscope $end
$upscope $end
$scope module no_fifo_gen $end
$upscope $end
$scope module no_output_slice_gen $end
$upscope $end
$upscope $end
$scope module b_sink $end
$var reg 1 e clk $end
$var reg 1 f reset $end
$var reg 1 g valid $end
$var reg 1 h ready $end
$var reg 1 i dvalid $end
$var reg 8 j data[7:0] $end
$var reg 1 k count[0:0] $end
$var reg 1 l last $end
$var reg 1 m ctrl[0:0] $end
$var reg 1 n x[0:0] $end
$var reg 1 o y[0:0] $end
$var reg 1 p z[0:0] $end
$scope module monitor $end
$var reg 1 q clk $end
$var reg 1 r reset $end
$var reg 1 s valid $end
$var reg 1 t ready $end
$var reg 1 u dvalid $end
$var reg 8 v data[7:0] $end
$var reg 1 w count[0:0] $end
$var reg 1 x last $end
$var reg 1 y ctrl[0:0] $end
$var reg 1 z x[0:0] $end
$var reg 1 { y[0:0] $end
$var reg 1 | z[0:0] $end
$upscope $end
$upscope $end
$upscope $end
$upscope $end
$enddefinitions $end
#0
1!
1"
U#
U$
0%
1&
U'
U(
bUUUUUUUU )
U*
U+
bUUUUUUUU ,
0-
1.
1/
00
01
02
03
14
U5
U6
U7
bUUUUUUUU 8
bU 9
U:
bU ;
bU <
bU =
bU >
0?
1@
UA
UB
UC
bUUUUUUUU D
bU E
UF
bU G
bU H
bU I
bU J
0K
1L
UM
UN
bUUUUUUUU O
UP
UQ
bUUUUUUUU R
US
UT
bUUUUUUUU U
UV
UW
bUUUUUUUU X
0Y
1Z
U[
U\
bUUUUUUUU ]
U^
U_
bUUUUUUUU `
Ua
Ub
bUUUUUUUU c
Ud
0e
1f
Ug
Uh
1i
bUUUUUUUU j
b1 k
1l
b0 m
b0 n
b0 o
b0 p
0q
1r
Us
Ut
1u
bUUUUUUUU v
b1 w
1x
b0 y
b0 z
b0 {
b0 |
#500000000
#600000000
#1000000000
11
#2000000000
1%
0'
0(
0*
0+
1-
0.
01
12
13
05
06
U7
bUUUUUUUU 8
bU 9
U:
bU ;
bU <
bU =
bU >
1?
0A
0B
1K
0M
0N
0P
0Q
0S
0T
0V
0W
1Y
0[
0\
0^
0_
0a
0b
0d
1e
0g
0h
1q
0s
0t
#2005000000
0%
0-
1.
02
03
0?
0K
0Y
0e
0q
#2010000000
1%
1-
0.
12
13
1?
1K
1Y
1e
1q
#2015000000
0%
0-
1.
02
03
0?
0K
0Y
0e
0q
#2020000000
1%
1-
0.
12
13
1?
1K
1Y
1e
1q
#2025000000
0%
0-
1.
02
03
0?
0K
0Y
0e
0q
#2030000000
1%
1-
0.
12
13
1?
1K
1Y
1e
1q
#2035000000
0%
0-
1.
02
03
0?
0K
0Y
0e
0q
#2040000000
1%
1-
0.
12
13
1?
1K
1Y
1e
1q
#2045000000
0%
0-
1.
02
03
0?
0K
0Y
0e
0q
#2050000000
1%
1-
0.
12
13
1?
1K
1Y
1e
1q
#2055000000
0%
0-
1.
02
03
0?
0K
0Y
0e
0q
#2060000000
1%
1-
0.
12
13
1?
1K
1Y
1e
1q
#2065000000
0%
0-
1.
02
03
0?
0K
0Y
0e
0q
#2070000000
1%
1-
0.
12
13
1?
1K
1Y
1e
1q
#2075000000
0%
0-
1.
02
03
0?
0K
0Y
0e
0q
#2080000000
1%
1-
0.
12
13
1?
1K
1Y
1e
1q
#2085000000
0%
0-
1.
02
03
0?
0K
0Y
0e
0q
#2090000000
1%
1-
0.
12
13
1?
1K
1Y
1e
1q
#2095000000
0%
0-
1.
02
03
0?
0K
0Y
0e
0q
#2100000000
1%
0&
1-
0.
0/
10
12
13
04
1?
0@
1K
0L
1Y
0Z
1e
0f
1q
0r
#2105000000
Z"
0%
0-
1.
02
03
0?
0K
0Y
0e
0q
#2110000000
1%
1'
1(
b01010100 )
1+
1-
0.
12
13
15
16
17
b01010100 8
b1 9
0:
1?
1A
1B
1C
b01010100 D
b1 E
0F
1K
1M
1N
b01010100 O
1Q
1T
1W
1Y
1[
1\
b01010100 ]
1_
1a
1e
1h
1q
1t
#2115000000
0%
0-
1.
02
03
0?
0K
0Y
0e
0q
#2120000000
1%
b01101000 )
1*
b01010100 ,
1-
0.
12
13
b01101000 8
1?
b01101000 D
1K
b01101000 O
1P
b01010100 R
1S
b01010100 U
1V
b01010100 X
1Y
b01101000 ]
1^
b01010100 `
1b
1e
1g
b01010100 j
1q
1s
b01010100 v
#2125000000
0%
0-
1.
02
03
0?
0K
0Y
0e
0q
#2130000000
1%
b01100101 )
b01101000 ,
1-
0.
12
13
b01100101 8
1?
b01100101 D
1K
b01100101 O
b01101000 R
b01101000 U
b01101000 X
1Y
b01100101 ]
b01101000 `
1e
b01101000 j
1q
b01101000 v
#2135000000
0%
0-
1.
02
03
0?
0K
0Y
0e
0q
#2140000000
1%
b00100000 )
b01100101 ,
1-
0.
12
13
b00100000 8
1?
b00100000 D
1K
b00100000 O
b01100101 R
b01100101 U
b01100101 X
1Y
b00100000 ]
b01100101 `
1e
b01100101 j
1q
b01100101 v
#2145000000
0%
0-
1.
02
03
0?
0K
0Y
0e
0q
#2150000000
1%
b01110001 )
b00100000 ,
1-
0.
12
13
b01110001 8
1?
b01110001 D
1K
b01110001 O
b00100000 R
b00100000 U
b00100000 X
1Y
b01110001 ]
b00100000 `
1e
b00100000 j
1q
b00100000 v
#2155000000
0%
0-
1.
02
03
0?
0K
0Y
0e
0q
#2160000000
1%
b01110101 )
b01110001 ,
1-
0.
12
13
b01110101 8
1?
b01110101 D
1K
b01110101 O
b01110001 R
b01110001 U
b01110001 X
1Y
b01110101 ]
b01110001 `
1e
b01110001 j
1q
b01110001 v
#2165000000
0%
0-
1.
02
03
0?
0K
0Y
0e
0q
#2170000000
1%
b01101001 )
b01110101 ,
1-
0.
12
13
b01101001 8
1?
b01101001 D
1K
b01101001 O
b01110101 R
b01110101 U
b01110101 X
1Y
b01101001 ]
b01110101 `
1e
b01110101 j
1q
b01110101 v
#2175000000
0%
0-
1.
02
03
0?
0K
0Y
0e
0q
#2180000000
1%
b01100011 )
b01101001 ,
1-
0.
12
13
b01100011 8
1?
b01100011 D
1K
b01100011 O
b01101001 R
b01101001 U
b01101001 X
1Y
b01100011 ]
b01101001 `
1e
b01101001 j
1q
b01101001 v
#2185000000
0%
0-
1.
02
03
0?
0K
0Y
0e
0q
#2190000000
1%
b01101011 )
b01100011 ,
1-
0.
12
13
b01101011 8
1?
b01101011 D
1K
b01101011 O
b01100011 R
b01100011 U
b01100011 X
1Y
b01101011 ]
b01100011 `
1e
b01100011 j
1q
b01100011 v
#2195000000
0%
0-
1.
02
03
0?
0K
0Y
0e
0q
#2200000000
1%
b00100000 )
b01101011 ,
1-
0.
12
13
b00100000 8
1?
b00100000 D
1K
b00100000 O
b01101011 R
b01101011 U
b01101011 X
1Y
b00100000 ]
b01101011 `
1e
b01101011 j
1q
b01101011 v
#2205000000
0%
0-
1.
02
03
0?
0K
0Y
0e
0q
#2210000000
1%
b01100010 )
0+
b00100000 ,
1-
0.
12
13
b01100010 8
1?
b01100010 D
1K
b01100010 O
0Q
b00100000 R
0T
b00100000 U
0W
b00100000 X
1Y
b01100010 ]
0_
b00100000 `
1e
0h
b00100000 j
1q
0t
b00100000 v
#2215000000
0%
0-
1.
02
03
0?
0K
0Y
0e
0q
#2220000000
1%
0(
b01110010 )
1-
0.
12
13
06
b01110010 8
1?
0B
b01110010 D
1K
0N
b01110010 O
1Y
0\
b01110010 ]
0a
b01100010 c
1d
1e
1q
#2225000000
0%
0-
1.
02
03
0?
0K
0Y
0e
0q
#2230000000
1%
1-
0.
12
13
1?
1K
1Y
1e
1q
#2235000000
0%
0-
1.
02
03
0?
0K
0Y
0e
0q
#2240000000
1%
1-
0.
12
13
1?
1K
1Y
1e
1q
#2245000000
0%
0-
1.
02
03
0?
0K
0Y
0e
0q
#2250000000
1%
1-
0.
12
13
1?
1K
1Y
1e
1q
#2255000000
0%
0-
1.
02
03
0?
0K
0Y
0e
0q
#2260000000
1%
1-
0.
12
13
1?
1K
1Y
1e
1q
#2265000000
0%
0-
1.
02
03
0?
0K
0Y
0e
0q
#2270000000
1%
1-
0.
12
13
1?
1K
1Y
1e
1q
#2275000000
0%
0-
1.
02
03
0?
0K
0Y
0e
0q
#2280000000
1%
1-
0.
12
13
1?
1K
1Y
1e
1q
#2285000000
0%
0-
1.
02
03
0?
0K
0Y
0e
0q
#2290000000
1%
1-
0.
12
13
1?
1K
1Y
1e
1q
#2295000000
0%
0-
1.
02
03
0?
0K
0Y
0e
0q
#2300000000
1%
1-
0.
12
13
1?
1K
1Y
1e
1q
#2305000000
0%
0-
1.
02
03
0?
0K
0Y
0e
0q
#2310000000
1%
1+
1-
0.
12
13
1?
1K
1Q
1T
1W
1Y
1_
1e
1h
1q
1t
#2315000000
0%
0-
1.
02
03
0?
0K
0Y
0e
0q
#2320000000
1%
1(
b01100010 ,
1-
0.
12
13
16
1?
1B
1K
1N
b01100010 R
b01100010 U
b01100010 X
1Y
1\
b01100010 `
1a
0d
1e
b01100010 j
1q
b01100010 v
#2325000000
0%
0-
1.
02
03
0?
0K
0Y
0e
0q
#2330000000
1%
b01101111 )
b01110010 ,
1-
0.
12
13
b01101111 8
1?
b01101111 D
1K
b01101111 O
b01110010 R
b01110010 U
b01110010 X
1Y
b01101111 ]
b01110010 `
1e
b01110010 j
1q
b01110010 v
#2335000000
0%
0-
1.
02
03
0?
0K
0Y
0e
0q
#2340000000
1%
b01110111 )
b01101111 ,
1-
0.
12
13
b01110111 8
1?
b01110111 D
1K
b01110111 O
b01101111 R
b01101111 U
b01101111 X
1Y
b01110111 ]
b01101111 `
1e
b01101111 j
1q
b01101111 v
#2345000000
0%
0-
1.
02
03
0?
0K
0Y
0e
0q
#2350000000
1%
b01101110 )
b01110111 ,
1-
0.
12
13
b01101110 8
1?
b01101110 D
1K
b01101110 O
b01110111 R
b01110111 U
b01110111 X
1Y
b01101110 ]
b01110111 `
1e
b01110111 j
1q
b01110111 v
#2355000000
0%
0-
1.
02
03
0?
0K
0Y
0e
0q
#2360000000
1%
b00100000 )
b01101110 ,
1-
0.
12
13
b00100000 8
1?
b00100000 D
1K
b00100000 O
b01101110 R
b01101110 U
b01101110 X
1Y
b00100000 ]
b01101110 `
1e
b01101110 j
1q
b01101110 v
#2365000000
0%
0-
1.
02
03
0?
0K
0Y
0e
0q
#2370000000
1%
b01100110 )
b00100000 ,
1-
0.
12
13
b01100110 8
1?
b01100110 D
1K
b01100110 O
b00100000 R
b00100000 U
b00100000 X
1Y
b01100110 ]
b00100000 `
1e
b00100000 j
1q
b00100000 v
#2375000000
0%
0-
1.
02
03
0?
0K
0Y
0e
0q
#2380000000
1%
b01101111 )
b01100110 ,
1-
0.
12
13
b01101111 8
1?
b01101111 D
1K
b01101111 O
b01100110 R
b01100110 U
b01100110 X
1Y
b01101111 ]
b01100110 `
1e
b01100110 j
1q
b01100110 v
#2385000000
0%
0-
1.
02
03
0?
0K
0Y
0e
0q
#2390000000
1%
b01111000 )
b01101111 ,
1-
0.
12
13
b01111000 8
1?
b01111000 D
1K
b01111000 O
b01101111 R
b01101111 U
b01101111 X
1Y
b01111000 ]
b01101111 `
1e
b01101111 j
1q
b01101111 v
#2395000000
0%
0-
1.
02
03
0?
0K
0Y
0e
0q
#2400000000
1%
b00100000 )
b01111000 ,
1-
0.
12
13
b00100000 8
1?
b00100000 D
1K
b00100000 O
b01111000 R
b01111000 U
b01111000 X
1Y
b00100000 ]
b01111000 `
1e
b01111000 j
1q
b01111000 v
#2405000000
0%
0-
1.
02
03
0?
0K
0Y
0e
0q
#2410000000
1%
b01101010 )
b00100000 ,
1-
0.
12
13
b01101010 8
1?
b01101010 D
1K
b01101010 O
b00100000 R
b00100000 U
b00100000 X
1Y
b01101010 ]
b00100000 `
1e
b00100000 j
1q
b00100000 v
#2415000000
0%
0-
1.
02
03
0?
0K
0Y
0e
0q
#2420000000
1%
b01110101 )
b01101010 ,
1-
0.
12
13
b01110101 8
1?
b01110101 D
1K
b01110101 O
b01101010 R
b01101010 U
b01101010 X
1Y
b01110101 ]
b01101010 `
1e
b01101010 j
1q
b01101010 v
#2425000000
0%
0-
1.
02
03
0?
0K
0Y
0e
0q
#2430000000
1%
b01101101 )
b01110101 ,
1-
0.
12
13
b01101101 8
1?
b01101101 D
1K
b01101101 O
b01110101 R
b01110101 U
b01110101 X
1Y
b01101101 ]
b01110101 `
1e
b01110101 j
1q
b01110101 v
#2435000000
0%
0-
1.
02
03
0?
0K
0Y
0e
0q
#2440000000
1%
b01110000 )
b01101101 ,
1-
0.
12
13
b01110000 8
1?
b01110000 D
1K
b01110000 O
b01101101 R
b01101101 U
b01101101 X
1Y
b01110000 ]
b01101101 `
1e
b01101101 j
1q
b01101101 v
#2445000000
0%
0-
1.
02
03
0?
0K
0Y
0e
0q
#2450000000
1%
b01110011 )
b01110000 ,
1-
0.
12
13
b01110011 8
1?
b01110011 D
1K
b01110011 O
b01110000 R
b01110000 U
b01110000 X
1Y
b01110011 ]
b01110000 `
1e
b01110000 j
1q
b01110000 v
#2455000000
0%
0-
1.
02
03
0?
0K
0Y
0e
0q
#2460000000
1%
b00100000 )
b01110011 ,
1-
0.
12
13
b00100000 8
1?
b00100000 D
1K
b00100000 O
b01110011 R
b01110011 U
b01110011 X
1Y
b00100000 ]
b01110011 `
1e
b01110011 j
1q
b01110011 v
#2465000000
0%
0-
1.
02
03
0?
0K
0Y
0e
0q
#2470000000
1%
b01101111 )
b00100000 ,
1-
0.
12
13
b01101111 8
1?
b01101111 D
1K
b01101111 O
b00100000 R
b00100000 U
b00100000 X
1Y
b01101111 ]
b00100000 `
1e
b00100000 j
1q
b00100000 v
#2475000000
0%
0-
1.
02
03
0?
0K
0Y
0e
0q
#2480000000
1%
b01110110 )
b01101111 ,
1-
0.
12
13
b01110110 8
1?
b01110110 D
1K
b01110110 O
b01101111 R
b01101111 U
b01101111 X
1Y
b01110110 ]
b01101111 `
1e
b01101111 j
1q
b01101111 v
#2485000000
0%
0-
1.
02
03
0?
0K
0Y
0e
0q
#2490000000
1%
b01100101 )
b01110110 ,
1-
0.
12
13
b01100101 8
1?
b01100101 D
1K
b01100101 O
b01110110 R
b01110110 U
b01110110 X
1Y
b01100101 ]
b01110110 `
1e
b01110110 j
1q
b01110110 v
#2495000000
0%
0-
1.
02
03
0?
0K
0Y
0e
0q
#2500000000
1%
b01110010 )
b01100101 ,
1-
0.
12
13
b01110010 8
1?
b01110010 D
1K
b01110010 O
b01100101 R
b01100101 U
b01100101 X
1Y
b01110010 ]
b01100101 `
1e
b01100101 j
1q
b01100101 v
#2505000000
0%
0-
1.
02
03
0?
0K
0Y
0e
0q
#2510000000
1%
b00100000 )
b01110010 ,
1-
0.
12
13
b00100000 8
1?
b00100000 D
1K
b00100000 O
b01110010 R
b01110010 U
b01110010 X
1Y
b00100000 ]
b01110010 `
1e
b01110010 j
1q
b01110010 v
#2515000000
0%
0-
1.
02
03
0?
0K
0Y
0e
0q
#2520000000
1%
b01110100 )
b00100000 ,
1-
0.
12
13
b01110100 8
1?
b01110100 D
1K
b01110100 O
b00100000 R
b00100000 U
b00100000 X
1Y
b01110100 ]
b00100000 `
1e
b00100000 j
1q
b00100000 v
#2525000000
0%
0-
1.
02
03
0?
0K
0Y
0e
0q
#2530000000
1%
b01101000 )
b01110100 ,
1-
0.
12
13
b01101000 8
1?
b01101000 D
1K
b01101000 O
b01110100 R
b01110100 U
b01110100 X
1Y
b01101000 ]
b01110100 `
1e
b01110100 j
1q
b01110100 v
#2535000000
0%
0-
1.
02
03
0?
0K
0Y
0e
0q
#2540000000
1%
b01100101 )
b01101000 ,
1-
0.
12
13
b01100101 8
1?
b01100101 D
1K
b01100101 O
b01101000 R
b01101000 U
b01101000 X
1Y
b01100101 ]
b01101000 `
1e
b01101000 j
1q
b01101000 v
#2545000000
0%
0-
1.
02
03
0?
0K
0Y
0e
0q
#2550000000
1%
b00100000 )
b01100101 ,
1-
0.
12
13
b00100000 8
1?
b00100000 D
1K
b00100000 O
b01100101 R
b01100101 U
b01100101 X
1Y
b00100000 ]
b01100101 `
1e
b01100101 j
1q
b01100101 v
#2555000000
0%
0-
1.
02
03
0?
0K
0Y
0e
0q
#2560000000
1%
b01101100 )
b00100000 ,
1-
0.
12
13
b01101100 8
1?
b01101100 D
1K
b01101100 O
b00100000 R
b00100000 U
b00100000 X
1Y
b01101100 ]
b00100000 `
1e
b00100000 j
1q
b00100000 v
#2565000000
0%
0-
1.
02
03
0?
0K
0Y
0e
0q
#2570000000
1%
b01100001 )
b01101100 ,
1-
0.
12
13
b01100001 8
1?
b01100001 D
1K
b01100001 O
b01101100 R
b01101100 U
b01101100 X
1Y
b01100001 ]
b01101100 `
1e
b01101100 j
1q
b01101100 v
#2575000000
0%
0-
1.
02
03
0?
0K
0Y
0e
0q
#2580000000
1%
b01111010 )
b01100001 ,
1-
0.
12
13
b01111010 8
1?
b01111010 D
1K
b01111010 O
b01100001 R
b01100001 U
b01100001 X
1Y
b01111010 ]
b01100001 `
1e
b01100001 j
1q
b01100001 v
#2585000000
0%
0-
1.
02
03
0?
0K
0Y
0e
0q
#2590000000
1%
b01111001 )
b01111010 ,
1-
0.
12
13
b01111001 8
1?
b01111001 D
1K
b01111001 O
b01111010 R
b01111010 U
b01111010 X
1Y
b01111001 ]
b01111010 `
1e
b01111010 j
1q
b01111010 v
#2595000000
0%
0-
1.
02
03
0?
0K
0Y
0e
0q
#2600000000
1%
b00100000 )
b01111001 ,
1-
0.
12
13
b00100000 8
1?
b00100000 D
1K
b00100000 O
b01111001 R
b01111001 U
b01111001 X
1Y
b00100000 ]
b01111001 `
1e
b01111001 j
1q
b01111001 v
#2605000000
0%
0-
1.
02
03
0?
0K
0Y
0e
0q
#2610000000
1%
b01100100 )
b00100000 ,
1-
0.
12
13
b01100100 8
1?
b01100100 D
1K
b01100100 O
b00100000 R
b00100000 U
b00100000 X
1Y
b01100100 ]
b00100000 `
1e
b00100000 j
1q
b00100000 v
#2615000000
0%
0-
1.
02
03
0?
0K
0Y
0e
0q
#2620000000
1%
b01101111 )
b01100100 ,
1-
0.
12
13
b01101111 8
1?
b01101111 D
1K
b01101111 O
b01100100 R
b01100100 U
b01100100 X
1Y
b01101111 ]
b01100100 `
1e
b01100100 j
1q
b01100100 v
#2625000000
0%
0-
1.
02
03
0?
0K
0Y
0e
0q
#2630000000
1%
b01100111 )
b01101111 ,
1-
0.
12
13
b01100111 8
1?
b01100111 D
1K
b01100111 O
b01101111 R
b01101111 U
b01101111 X
1Y
b01100111 ]
b01101111 `
1e
b01101111 j
1q
b01101111 v
#2635000000
0%
0-
1.
02
03
0?
0K
0Y
0e
0q
#2640000000
1%
b00101110 )
b01100111 ,
1-
0.
12
13
b00101110 8
1:
1?
b00101110 D
1F
1K
b00101110 O
b01100111 R
b01100111 U
b01100111 X
1Y
b00101110 ]
b01100111 `
1e
b01100111 j
1q
b01100111 v
#2645000000
0%
0-
1.
02
03
0?
0K
0Y
0e
0q
#2650000000
1%
0'
b00101110 ,
1-
0.
12
13
05
1?
0A
1K
0M
b00101110 R
b00101110 U
b00101110 X
1Y
0[
b00101110 `
1e
b00101110 j
1q
b00101110 v
#2655000000
0%
0-
1.
02
03
0?
0K
0Y
0e
0q
#2660000000
1%
0*
1-
0.
12
13
1?
1K
0P
0S
0V
1Y
0^
0b
1e
0g
1q
0s
