tests/complex/vhlib/wave/work.streambuffer_0_tc.vcd
$date
  Wed Jun 19 10:58:19 2019
$end
$version
  GHDL v0
$end
$timescale
  1 fs
$end
$scope module standard $end
$upscope $end
$scope module textio $end
$upscope $end
$scope module std_logic_1164 $end
$upscope $end
$scope module numeric_std $end
$upscope $end
$scope module math_real $end
$upscope $end
$scope module testcase_pkg $end
$var reg 1 ! test $end
$var reg 1 " tc_model_init $end
$upscope $end
$scope module simdatacomms_pkg $end
$upscope $end
$scope module streammonitor_pkg $end
$upscope $end
$scope module streamsource_pkg $end
$upscope $end
$scope module streamsink_pkg $end
$upscope $end
$scope module std_logic_misc $end
$upscope $end
$scope module stream_pkg $end
$upscope $end
$scope module clockgen_pkg $end
$upscope $end
$scope module streambuffer_0_tc $end
$scope module tv $end
$upscope $end
$scope module tb $end
$var reg 1 # clk $end
$var reg 1 $ reset $end
$var reg 1 % a_valid $end
$var reg 1 & a_ready $end
$var reg 8 ' a_data[7:0] $end
$var reg 1 ( b_valid $end
$var reg 1 ) b_ready $end
$var reg 8 * b_data[7:0] $end
$scope module clkgen $end
$var reg 1 + clk $end
$var reg 1 , clk_n $end
$var reg 1 - reset $end
$var reg 1 . reset_n $end
$var reg 1 / sync $end
$var reg 1 0 clk_i $end
$upscope $end
$scope module a_source $end
$var reg 1 1 clk $end
$var reg 1 2 reset $end
$var reg 1 3 valid $end
$var reg 1 4 ready $end
$var reg 1 5 dvalid $end
$var reg 8 6 data[7:0] $end
$var reg 1 7 count[0:0] $end
$var reg 1 8 last $end
$var reg 1 9 ctrl[0:0] $end
$var reg 1 : x[0:0] $end
$var reg 1 ; y[0:0] $end
$var reg 1 < z[0:0] $end
$scope module monitor $end
$var reg 1 = clk $end
$var reg 1 > reset $end
$var reg 1 ? valid $end
$var reg 1 @ ready $end
$var reg 1 A dvalid $end
$var reg 8 B data[7:0] $end
$var reg 1 C count[0:0] $end
$var reg 1 D last $end
$var reg 1 E ctrl[0:0] $end
$var reg 1 F x[0:0] $end
$var reg 1 G y[0:0] $end
$var reg 1 H z[0:0] $end
$upscope $end
$upscope $end
$scope module uut $end
$var reg 1 I clk $end
$var reg 1 J reset $end
$var reg 1 K in_valid $end
$var reg 1 L in_ready $end
$var reg 8 M in_data[7:0] $end
$var reg 1 N out_valid $end
$var reg 1 O out_ready $end
$var reg 8 P out_data[7:0] $end
$var reg 1 Q ins_valid $end
$var reg 1 R ins_ready $end
$var reg 8 S ins_data[7:0] $end
$var reg 1 T outs_valid $end
$var reg 1 U outs_ready $end
$var reg 8 V outs_data[7:0] $end
$scope module no_input_slice_gen $end
$upscope $end
$scope module no_fifo_gen $end
$upscope $end
$scope module no_output_slice_gen $end
$upscope $end
$upscope $end
$scope module b_sink $end
$var reg 1 W clk $end
$var reg 1 X reset $end
$var reg 1 Y valid $end
$var reg 1 Z ready $end
$var reg 1 [ dvalid $end
$var reg 8 \ data[7:0] $end
$var reg 1 ] count[0:0] $end
$var reg 1 ^ last $end
$var reg 1 _ ctrl[0:0] $end
$var reg 1 ` x[0:0] $end
$var reg 1 a y[0:0] $end
$var reg 1 b z[0:0] $end
$scope module monitor $end
$var reg 1 c clk $end
$var reg 1 d reset $end
$var reg 1 e valid $end
$var reg 1 f ready $end
$var reg 1 g dvalid $end
$var reg 8 h data[7:0] $end
$var reg 1 i count[0:0] $end
$var reg 1 j last $end
$var reg 1 k ctrl[0:0] $end
$var reg 1 l x[0:0] $end
$var reg 1 m y[0:0] $end
$var reg 1 n z[0:0] $end
$upscope $end
$upscope $end
$upscope $end
$upscope $end
$enddefinitions $end
#0
1!
1"
0#
1$
U%
U&
bUUUUUUUU '
U(
U)
bUUUUUUUU *
0+
1,
1-
0.
0/
00
01
12
U3
U4
U5
bUUUUUUUU 6
bU 7
U8
bU 9
bU :
bU ;
bU <
0=
1>
U?
U@
UA
bUUUUUUUU B
bU C
UD
bU E
bU F
bU G
bU H
0I
1J
UK
UL
bUUUUUUUU M
UN
UO
bUUUUUUUU P
UQ
UR
bUUUUUUUU S
UT
UU
bUUUUUUUU V
0W
1X
UY
UZ
1[
bUUUUUUUU \
b1 ]
1^
b0 _
b0 `
b0 a
b0 b
0c
1d
Ue
Uf
1g
bUUUUUUUU h
b1 i
1j
b0 k
b0 l
b0 m
b0 n
#500000000
#600000000
#1000000000
1/
#2000000000
1#
0%
0&
0(
0)
1+
0,
0/
10
11
03
04
U5
bUUUUUUUU 6
bU 7
U8
bU 9
bU :
bU ;
bU <
1=
0?
0@
1I
0K
0L
0N
0O
0Q
0R
0T
0U
1W
0Y
0Z
1c
0e
0f
#2005000000
0#
0+
1,
00
01
0=
0I
0W
0c
#2010000000
1#
1+
0,
10
11
1=
1I
1W
1c
#2015000000
0#
0+
1,
00
01
0=
0I
0W
0c
#2020000000
1#
1+
0,
10
11
1=
1I
1W
1c
#2025000000
0#
0+
1,
00
01
0=
0I
0W
0c
#2030000000
1#
1+
0,
10
11
1=
1I
1W
1c
#2035000000
0#
0+
1,
00
01
0=
0I
0W
0c
#2040000000
1#
1+
0,
10
11
1=
1I
1W
1c
#2045000000
0#
0+
1,
00
01
0=
0I
0W
0c
#2050000000
1#
1+
0,
10
11
1=
1I
1W
1c
#2055000000
0#
0+
1,
00
01
0=
0I
0W
0c
#2060000000
1#
1+
0,
10
11
1=
1I
1W
1c
#2065000000
0#
0+
1,
00
01
0=
0I
0W
0c
#2070000000
1#
1+
0,
10
11
1=
1I
1W
1c
#2075000000
0#
0+
1,
00
01
0=
0I
0W
0c
#2080000000
1#
1+
0,
10
11
1=
1I
1W
1c
#2085000000
0#
0+
1,
00
01
0=
0I
0W
0c
#2090000000
1#
1+
0,
10
11
1=
1I
1W
1c
#2095000000
0#
0+
1,
00
01
0=
0I
0W
0c
#2100000000
1#
0$
1+
0,
0-
1.
10
11
02
1=
0>
1I
0J
1W
0X
1c
0d
#2105000000
Z"
0#
0+
1,
00
01
0=
0I
0W
0c
#2110000000
1#
1%
1&
b01010100 '
1(
1)
b01010100 *
1+
0,
10
11
13
14
15
b01010100 6
b1 7
08
1=
1?
1@
1A
b01010100 B
b1 C
0D
1I
1K
1L
b01010100 M
1N
1O
b01010100 P
1Q
1R
b01010100 S
1T
1U
b01010100 V
1W
1Y
1Z
b01010100 \
1c
1e
1f
b01010100 h
#2115000000
0#
0+
1,
00
01
0=
0I
0W
0c
#2120000000
1#
b01101000 '
b01101000 *
1+
0,
10
11
b01101000 6
1=
b01101000 B
1I
b01101000 M
b01101000 P
b01101000 S
b01101000 V
1W
b01101000 \
1c
b01101000 h
#2125000000
0#
0+
1,
00
01
0=
0I
0W
0c
#2130000000
1#
b01100101 '
b01100101 *
1+
0,
10
11
b01100101 6
1=
b01100101 B
1I
b01100101 M
b01100101 P
b01100101 S
b01100101 V
1W
b01100101 \
1c
b01100101 h
#2135000000
0#
0+
1,
00
01
0=
0I
0W
0c
#2140000000
1#
b00100000 '
b00100000 *
1+
0,
10
11
b00100000 6
1=
b00100000 B
1I
b00100000 M
b00100000 P
b00100000 S
b00100000 V
1W
b00100000 \
1c
b00100000 h
#2145000000
0#
0+
1,
00
01
0=
0I
0W
0c
#2150000000
1#
b01110001 '
b01110001 *
1+
0,
10
11
b01110001 6
1=
b01110001 B
1I
b01110001 M
b01110001 P
b01110001 S
b01110001 V
1W
b01110001 \
1c
b01110001 h
#2155000000
0#
0+
1,
00
01
0=
0I
0W
0c
#2160000000
1#
b01110101 '
b01110101 *
1+
0,
10
11
b01110101 6
1=
b01110101 B
1I
b01110101 M
b01110101 P
b01110101 S
b01110101 V
1W
b01110101 \
1c
b01110101 h
#2165000000
0#
0+
1,
00
01
0=
0I
0W
0c
#2170000000
1#
b01101001 '
b01101001 *
1+
0,
10
11
b01101001 6
1=
b01101001 B
1I
b01101001 M
b01101001 P
b01101001 S
b01101001 V
1W
b01101001 \
1c
b01101001 h
#2175000000
0#
0+
1,
00
01
0=
0I
0W
0c
#2180000000
1#
b01100011 '
b01100011 *
1+
0,
10
11
b01100011 6
1=
b01100011 B
1I
b01100011 M
b01100011 P
b01100011 S
b01100011 V
1W
b01100011 \
1c
b01100011 h
#2185000000
0#
0+
1,
00
01
0=
0I
0W
0c
#2190000000
1#
b01101011 '
b01101011 *
1+
0,
10
11
b01101011 6
1=
b01101011 B
1I
b01101011 M
b01101011 P
b01101011 S
b01101011 V
1W
b01101011 \
1c
b01101011 h
#2195000000
0#
0+
1,
00
01
0=
0I
0W
0c
#2200000000
1#
b00100000 '
b00100000 *
1+
0,
10
11
b00100000 6
1=
b00100000 B
1I
b00100000 M
b00100000 P
b00100000 S
b00100000 V
1W
b00100000 \
1c
b00100000 h
#2205000000
0#
0+
1,
00
01
0=
0I
0W
0c
#2210000000
1#
0&
b01100010 '
0)
b01100010 *
1+
0,
10
11
04
b01100010 6
1=
0@
b01100010 B
1I
0L
b01100010 M
0O
b01100010 P
0R
b01100010 S
0U
b01100010 V
1W
0Z
b01100010 \
1c
0f
b01100010 h
#2215000000
0#
0+
1,
00
01
0=
0I
0W
0c
#2220000000
1#
1+
0,
10
11
1=
1I
1W
1c
#2225000000
0#
0+
1,
00
01
0=
0I
0W
0c
#2230000000
1#
1+
0,
10
11
1=
1I
1W
1c
#2235000000
0#
0+
1,
00
01
0=
0I
0W
0c
#2240000000
1#
1+
0,
10
11
1=
1I
1W
1c
#2245000000
0#
0+
1,
00
01
0=
0I
0W
0c
#2250000000
1#
1+
0,
10
11
1=
1I
1W
1c
#2255000000
0#
0+
1,
00
01
0=
0I
0W
0c
#2260000000
1#
1+
0,
10
11
1=
1I
1W
1c
#2265000000
0#
0+
1,
00
01
0=
0I
0W
0c
#2270000000
1#
1+
0,
10
11
1=
1I
1W
1c
#2275000000
0#
0+
1,
00
01
0=
0I
0W
0c
#2280000000
1#
1+
0,
10
11
1=
1I
1W
1c
#2285000000
0#
0+
1,
00
01
0=
0I
0W
0c
#2290000000
1#
1+
0,
10
11
1=
1I
1W
1c
#2295000000
0#
0+
1,
00
01
0=
0I
0W
0c
#2300000000
1#
1+
0,
10
11
1=
1I
1W
1c
#2305000000
0#
0+
1,
00
01
0=
0I
0W
0c
#2310000000
1#
1&
1)
1+
0,
10
11
14
1=
1@
1I
1L
1O
1R
1U
1W
1Z
1c
1f
#2315000000
0#
0+
1,
00
01
0=
0I
0W
0c
#2320000000
1#
b01110010 '
b01110010 *
1+
0,
10
11
b01110010 6
1=
b01110010 B
1I
b01110010 M
b01110010 P
b01110010 S
b01110010 V
1W
b01110010 \
1c
b01110010 h
#2325000000
0#
0+
1,
00
01
0=
0I
0W
0c
#2330000000
1#
b01101111 '
b01101111 *
1+
0,
10
11
b01101111 6
1=
b01101111 B
1I
b01101111 M
b01101111 P
b01101111 S
b01101111 V
1W
b01101111 \
1c
b01101111 h
#2335000000
0#
0+
1,
00
01
0=
0I
0W
0c
#2340000000
1#
b01110111 '
b01110111 *
1+
0,
10
11
b01110111 6
1=
b01110111 B
1I
b01110111 M
b01110111 P
b01110111 S
b01110111 V
1W
b01110111 \
1c
b01110111 h
#2345000000
0#
0+
1,
00
01
0=
0I
0W
0c
#2350000000
1#
b01101110 '
b01101110 *
1+
0,
10
11
b01101110 6
1=
b01101110 B
1I
b01101110 M
b01101110 P
b01101110 S
b01101110 V
1W
b01101110 \
1c
b01101110 h
#2355000000
0#
0+
1,
00
01
0=
0I
0W
0c
#2360000000
1#
b00100000 '
b00100000 *
1+
0,
10
11
b00100000 6
1=
b00100000 B
1I
b00100000 M
b00100000 P
b00100000 S
b00100000 V
1W
b00100000 \
1c
b00100000 h
#2365000000
0#
0+
1,
00
01
0=
0I
0W
0c
#2370000000
1#
b01100110 '
b01100110 *
1+
0,
10
11
b01100110 6
1=
b01100110 B
1I
b01100110 M
b01100110 P
b01100110 S
b01100110 V
1W
b01100110 \
1c
b01100110 h
#2375000000
0#
0+
1,
00
01
0=
0I
0W
0c
#2380000000
1#
b01101111 '
b01101111 *
1+
0,
10
11
b01101111 6
1=
b01101111 B
1I
b01101111 M
b01101111 P
b01101111 S
b01101111 V
1W
b01101111 \
1c
b01101111 h
#2385000000
0#
0+
1,
00
01
0=
0I
0W
0c
#2390000000
1#
b01111000 '
b01111000 *
1+
0,
10
11
b01111000 6
1=
b01111000 B
1I
b01111000 M
b01111000 P
b01111000 S
b01111000 V
1W
b01111000 \
1c
b01111000 h
#2395000000
0#
0+
1,
00
01
0=
0I
0W
0c
#2400000000
1#
b00100000 '
b00100000 *
1+
0,
10
11
b00100000 6
1=
b00100000 B
1I
b00100000 M
b00100000 P
b00100000 S
b00100000 V
1W
b00100000 \
1c
b00100000 h
#2405000000
0#
0+
1,
00
01
0=
0I
0W
0c
#2410000000
1#
b01101010 '
b01101010 *
1+
0,
10
11
b01101010 6
1=
b01101010 B
1I
b01101010 M
b01101010 P
b01101010 S
b01101010 V
1W
b01101010 \
1c
b01101010 h
#2415000000
0#
0+
1,
00
01
0=
0I
0W
0c
#2420000000
1#
b01110101 '
b01110101 *
1+
0,
10
11
b01110101 6
1=
b01110101 B
1I
b01110101 M
b01110101 P
b01110101 S
b01110101 V
1W
b01110101 \
1c
b01110101 h
#2425000000
0#
0+
1,
00
01
0=
0I
0W
0c
#2430000000
1#
b01101101 '
b01101101 *
1+
0,
10
11
b01101101 6
1=
b01101101 B
1I
b01101101 M
b01101101 P
b01101101 S
b01101101 V
1W
b01101101 \
1c
b01101101 h
#2435000000
0#
0+
1,
00
01
0=
0I
0W
0c
#2440000000
1#
b01110000 '
b01110000 *
1+
0,
10
11
b01110000 6
1=
b01110000 B
1I
b01110000 M
b01110000 P
b01110000 S
b01110000 V
1W
b01110000 \
1c
b01110000 h
#2445000000
0#
0+
1,
00
01
0=
0I
0W
0c
#2450000000
1#
b01110011 '
b01110011 *
1+
0,
10
11
b01110011 6
1=
b01110011 B
1I
b01110011 M
b01110011 P
b01110011 S
b01110011 V
1W
b01110011 \
1c
b01110011 h
#2455000000
0#
0+
1,
00
01
0=
0I
0W
0c
#2460000000
1#
b00100000 '
b00100000 *
1+
0,
10
11
b00100000 6
1=
b00100000 B
1I
b00100000 M
b00100000 P
b00100000 S
b00100000 V
1W
b00100000 \
1c
b00100000 h
#2465000000
0#
0+
1,
00
01
0=
0I
0W
0c
#2470000000
1#
b01101111 '
b01101111 *
1+
0,
10
11
b01101111 6
1=
b01101111 B
1I
b01101111 M
b01101111 P
b01101111 S
b01101111 V
1W
b01101111 \
1c
b01101111 h
#2475000000
0#
0+
1,
00
01
0=
0I
0W
0c
#2480000000
1#
b01110110 '
b01110110 *
1+
0,
10
11
b01110110 6
1=
b01110110 B
1I
b01110110 M
b01110110 P
b01110110 S
b01110110 V
1W
b01110110 \
1c
b01110110 h
#2485000000
0#
0+
1,
00
01
0=
0I
0W
0c
#2490000000
1#
b01100101 '
b01100101 *
1+
0,
10
11
b01100101 6
1=
b01100101 B
1I
b01100101 M
b01100101 P
b01100101 S
b01100101 V
1W
b01100101 \
1c
b01100101 h
#2495000000
0#
0+
1,
00
01
0=
0I
0W
0c
#2500000000
1#
b01110010 '
b01110010 *
1+
0,
10
11
b01110010 6
1=
b01110010 B
1I
b01110010 M
b01110010 P
b01110010 S
b01110010 V
1W
b01110010 \
1c
b01110010 h
#2505000000
0#
0+
1,
00
01
0=
0I
0W
0c
#2510000000
1#
b00100000 '
b00100000 *
1+
0,
10
11
b00100000 6
1=
b00100000 B
1I
b00100000 M
b00100000 P
b00100000 S
b00100000 V
1W
b00100000 \
1c
b00100000 h
#2515000000
0#
0+
1,
00
01
0=
0I
0W
0c
#2520000000
1#
b01110100 '
b01110100 *
1+
0,
10
11
b01110100 6
1=
b01110100 B
1I
b01110100 M
b01110100 P
b01110100 S
b01110100 V
1W
b01110100 \
1c
b01110100 h
#2525000000
0#
0+
1,
00
01
0=
0I
0W
0c
#2530000000
1#
b01101000 '
b01101000 *
1+
0,
10
11
b01101000 6
1=
b01101000 B
1I
b01101000 M
b01101000 P
b01101000 S
b01101000 V
1W
b01101000 \
1c
b01101000 h
#2535000000
0#
0+
1,
00
01
0=
0I
0W
0c
#2540000000
1#
b01100101 '
b01100101 *
1+
0,
10
11
b01100101 6
1=
b01100101 B
1I
b01100101 M
b01100101 P
b01100101 S
b01100101 V
1W
b01100101 \
1c
b01100101 h
#2545000000
0#
0+
1,
00
01
0=
0I
0W
0c
#2550000000
1#
b00100000 '
b00100000 *
1+
0,
10
11
b00100000 6
1=
b00100000 B
1I
b00100000 M
b00100000 P
b00100000 S
b00100000 V
1W
b00100000 \
1c
b00100000 h
#2555000000
0#
0+
1,
00
01
0=
0I
0W
0c
#2560000000
1#
b01101100 '
b01101100 *
1+
0,
10
11
b01101100 6
1=
b01101100 B
1I
b01101100 M
b01101100 P
b01101100 S
b01101100 V
1W
b01101100 \
1c
b01101100 h
#2565000000
0#
0+
1,
00
01
0=
0I
0W
0c
#2570000000
1#
b01100001 '
b01100001 *
1+
0,
10
11
b01100001 6
1=
b01100001 B
1I
b01100001 M
b01100001 P
b01100001 S
b01100001 V
1W
b01100001 \
1c
b01100001 h
#2575000000
0#
0+
1,
00
01
0=
0I
0W
0c
#2580000000
1#
b01111010 '
b01111010 *
1+
0,
10
11
b01111010 6
1=
b01111010 B
1I
b01111010 M
b01111010 P
b01111010 S
b01111010 V
1W
b01111010 \
1c
b01111010 h
#2585000000
0#
0+
1,
00
01
0=
0I
0W
0c
#2590000000
1#
b01111001 '
b01111001 *
1+
0,
10
11
b01111001 6
1=
b01111001 B
1I
b01111001 M
b01111001 P
b01111001 S
b01111001 V
1W
b01111001 \
1c
b01111001 h
#2595000000
0#
0+
1,
00
01
0=
0I
0W
0c
#2600000000
1#
b00100000 '
b00100000 *
1+
0,
10
11
b00100000 6
1=
b00100000 B
1I
b00100000 M
b00100000 P
b00100000 S
b00100000 V
1W
b00100000 \
1c
b00100000 h
#2605000000
0#
0+
1,
00
01
0=
0I
0W
0c
#2610000000
1#
b01100100 '
b01100100 *
1+
0,
10
11
b01100100 6
1=
b01100100 B
1I
b01100100 M
b01100100 P
b01100100 S
b01100100 V
1W
b01100100 \
1c
b01100100 h
#2615000000
0#
0+
1,
00
01
0=
0I
0W
0c
#2620000000
1#
b01101111 '
b01101111 *
1+
0,
10
11
b01101111 6
1=
b01101111 B
1I
b01101111 M
b01101111 P
b01101111 S
b01101111 V
1W
b01101111 \
1c
b01101111 h
#2625000000
0#
0+
1,
00
01
0=
0I
0W
0c
#2630000000
1#
b01100111 '
b01100111 *
1+
0,
10
11
b01100111 6
1=
b01100111 B
1I
b01100111 M
b01100111 P
b01100111 S
b01100111 V
1W
b01100111 \
1c
b01100111 h
#2635000000
0#
0+
1,
00
01
0=
0I
0W
0c
#2640000000
1#
b00101110 '
b00101110 *
1+
0,
10
11
b00101110 6
18
1=
b00101110 B
1D
1I
b00101110 M
b00101110 P
b00101110 S
b00101110 V
1W
b00101110 \
1c
b00101110 h
#2645000000
0#
0+
1,
00
01
0=
0I
0W
0c
#2650000000
1#
0%
0(
1+
0,
10
11
03
1=
0?
1I
0K
0N
0Q
0T
1W
0Y
1c
0e
