tests/complex/vhlib/wave/work.streamgearbox_2_2_8_3_tc.vcd
$date
  Wed Jun 19 10:58:20 2019
$end
$version
  GHDL v0
$end
$timescale
  1 fs
$end
$scope module standard $end
$upscope $end
$scope module textio $end
$upscope $end
$scope module std_logic_1164 $end
$upscope $end
$scope module numeric_std $end
$upscope $end
$scope module std_logic_misc $end
$upscope $end
$scope module stream_pkg $end
$upscope $end
$scope module math_real $end
$upscope $end
$scope module testcase_pkg $end
$var reg 1 ! test $end
$var reg 1 " tc_model_init $end
$upscope $end
$scope module simdatacomms_pkg $end
$upscope $end
$scope module clockgen_pkg $end
$upscope $end
$scope module streammonitor_pkg $end
$upscope $end
$scope module streamsource_pkg $end
$upscope $end
$scope module streamsink_pkg $end
$upscope $end
$scope module utilint_pkg $end
$upscope $end
$scope module streamgearbox_2_2_8_3_tc $end
$scope module tv $end
$upscope $end
$scope module tb $end
$var reg 1 # clk $end
$var reg 1 $ reset $end
$var reg 1 % a_valid $end
$var reg 1 & a_ready $end
$var reg 16 ' a_data[15:0] $end
$var reg 2 ( a_count[1:0] $end
$var reg 1 ) a_last $end
$var reg 1 * b_valid $end
$var reg 1 + b_ready $end
$var reg 64 , b_data[63:0] $end
$var reg 3 - b_count[2:0] $end
$var reg 1 . b_last $end
$scope module clkgen $end
$var reg 1 / clk $end
$var reg 1 0 clk_n $end
$var reg 1 1 reset $end
$var reg 1 2 reset_n $end
$var reg 1 3 sync $end
$var reg 1 4 clk_i $end
$upscope $end
$scope module a_source $end
$var reg 1 5 clk $end
$var reg 1 6 reset $end
$var reg 1 7 valid $end
$var reg 1 8 ready $end
$var reg 1 9 dvalid $end
$var reg 16 : data[15:0] $end
$var reg 2 ; count[1:0] $end
$var reg 1 < last $end
$var reg 1 = ctrl[0:0] $end
$var reg 1 > x[0:0] $end
$var reg 1 ? y[0:0] $end
$var reg 1 @ z[0:0] $end
$scope module monitor $end
$var reg 1 A clk $end
$var reg 1 B reset $end
$var reg 1 C valid $end
$var reg 1 D ready $end
$var reg 1 E dvalid $end
$var reg 16 F data[15:0] $end
$var reg 2 G count[1:0] $end
$var reg 1 H last $end
$var reg 1 I ctrl[0:0] $end
$var reg 1 J x[0:0] $end
$var reg 1 K y[0:0] $end
$var reg 1 L z[0:0] $end
$upscope $end
$upscope $end
$scope module uut $end
$var reg 1 M clk $end
$var reg 1 N reset $end
$var reg 1 O in_valid $end
$var reg 1 P in_ready $end
$var reg 16 Q in_data[15:0] $end
$var reg 2 R in_count[1:0] $end
$var reg 1 S in_last $end
$var reg 1 T out_valid $end
$var reg 1 U out_ready $end
$var reg 64 V out_data[63:0] $end
$var reg 3 W out_count[2:0] $end
$var reg 1 X out_last $end
$scope module parallelize $end
$scope module inst $end
$var reg 1 Y clk $end
$var reg 1 Z reset $end
$var reg 1 [ in_valid $end
$var reg 1 \ in_ready $end
$var reg 16 ] in_data[15:0] $end
$var reg 2 ^ in_count[1:0] $end
$var reg 1 _ in_last $end
$var reg 1 ` out_valid $end
$var reg 1 a out_ready $end
$var reg 64 b out_data[63:0] $end
$var reg 3 c out_count[2:0] $end
$var reg 1 d out_last $end
$var reg 1 e in_ready_s $end
$var reg 1 f out_valid_s $end
$var reg 3 g bun_count[2:0] $end
$var reg 3 h item_count[2:0] $end
$var reg 1 i in_full $end
$var reg 3 j in_count_conv[2:0] $end
$var reg 1 k count_max $end
$upscope $end
$upscope $end
$upscope $end
$scope module b_sink $end
$var reg 1 l clk $end
$var reg 1 m reset $end
$var reg 1 n valid $end
$var reg 1 o ready $end
$var reg 1 p dvalid $end
$var reg 64 q data[63:0] $end
$var reg 3 r count[2:0] $end
$var reg 1 s last $end
$var reg 1 t ctrl[0:0] $end
$var reg 1 u x[0:0] $end
$var reg 1 v y[0:0] $end
$var reg 1 w z[0:0] $end
$scope module monitor $end
$var reg 1 x clk $end
$var reg 1 y reset $end
$var reg 1 z valid $end
$var reg 1 { ready $end
$var reg 1 | dvalid $end
$var reg 64 } data[63:0] $end
$var reg 3 !" count[2:0] $end
$var reg 1 "" last $end
$var reg 1 #" ctrl[0:0] $end
$var reg 1 $" x[0:0] $end
$var reg 1 %" y[0:0] $end
$var reg 1 &" z[0:0] $end
$upscope $end
$upscope $end
$upscope $end
$upscope $end
$enddefinitions $end
#0
1!
1"
0#
1$
U%
U&
bUUUUUUUUUUUUUUUU '
bUU (
U)
U*
U+
bUUUUUUUUUUUUUUUUUUUUUUUUUUUUUUUUUUUUUUUUUUUUUUUUUUUUUUUUUUUUUUUU ,
bUUU -
U.
0/
10
11
02
03
04
05
16
U7
U8
U9
bUUUUUUUUUUUUUUUU :
bUU ;
U<
bU =
bU >
bU ?
bU @
0A
1B
UC
UD
UE
bUUUUUUUUUUUUUUUU F
bUU G
UH
bU I
bU J
bU K
bU L
0M
1N
UO
UP
bUUUUUUUUUUUUUUUU Q
bUU R
US
UT
UU
bUUUUUUUUUUUUUUUUUUUUUUUUUUUUUUUUUUUUUUUUUUUUUUUUUUUUUUUUUUUUUUUU V
bUUU W
UX
0Y
1Z
U[
U\
bUUUUUUUUUUUUUUUU ]
bUU ^
U_
U`
Ua
bUUUUUUUUUUUUUUUUUUUUUUUUUUUUUUUUUUUUUUUUUUUUUUUUUUUUUUUUUUUUUUUU b
bUUU c
Ud
Ue
Uf
bUUU g
bUUU h
0i
b0UU j
1k
0l
1m
Un
Uo
1p
bUUUUUUUUUUUUUUUUUUUUUUUUUUUUUUUUUUUUUUUUUUUUUUUUUUUUUUUUUUUUUUUU q
bUUU r
Us
b0 t
b0 u
b0 v
b0 w
0x
1y
Uz
U{
1|
bUUUUUUUUUUUUUUUUUUUUUUUUUUUUUUUUUUUUUUUUUUUUUUUUUUUUUUUUUUUUUUUU }
bUUU !"
U""
b0 #"
b0 $"
b0 %"
b0 &"
#500000000
#600000000
#1000000000
13
#2000000000
1#
0%
1&
0*
0+
1/
00
03
14
15
07
18
U9
bUUUUUUUUUUUUUUUU :
bUU ;
U<
bU =
bU >
bU ?
bU @
1A
0C
1D
1M
0O
1P
0T
0U
1Y
0[
1\
0`
0a
1e
0f
b001 g
b000 h
1l
0n
0o
1x
0z
0{
#2005000000
0#
0/
10
04
05
0A
0M
0Y
0l
0x
#2010000000
1#
1/
00
14
15
1A
1M
1Y
1l
1x
#2015000000
0#
0/
10
04
05
0A
0M
0Y
0l
0x
#2020000000
1#
1/
00
14
15
1A
1M
1Y
1l
1x
#2025000000
0#
0/
10
04
05
0A
0M
0Y
0l
0x
#2030000000
1#
1/
00
14
15
1A
1M
1Y
1l
1x
#2035000000
0#
0/
10
04
05
0A
0M
0Y
0l
0x
#2040000000
1#
1/
00
14
15
1A
1M
1Y
1l
1x
#2045000000
0#
0/
10
04
05
0A
0M
0Y
0l
0x
#2050000000
1#
1/
00
14
15
1A
1M
1Y
1l
1x
#2055000000
0#
0/
10
04
05
0A
0M
0Y
0l
0x
#2060000000
1#
1/
00
14
15
1A
1M
1Y
1l
1x
#2065000000
0#
0/
10
04
05
0A
0M
0Y
0l
0x
#2070000000
1#
1/
00
14
15
1A
1M
1Y
1l
1x
#2075000000
0#
0/
10
04
05
0A
0M
0Y
0l
0x
#2080000000
1#
1/
00
14
15
1A
1M
1Y
1l
1x
#2085000000
0#
0/
10
04
05
0A
0M
0Y
0l
0x
#2090000000
1#
1/
00
14
15
1A
1M
1Y
1l
1x
#2095000000
0#
0/
10
04
05
0A
0M
0Y
0l
0x
#2100000000
1#
0$
1/
00
01
12
14
15
06
1A
0B
1M
0N
1Y
0Z
1l
0m
1x
0y
#2105000000
Z"
0#
0/
10
04
05
0A
0M
0Y
0l
0x
#2110000000
1#
1%
b0110100001010100 '
b10 (
0)
1/
00
14
15
17
19
b0110100001010100 :
b10 ;
0<
1A
1C
1E
b0110100001010100 F
b10 G
0H
1M
1O
b0110100001010100 Q
b10 R
0S
1Y
1[
b0110100001010100 ]
b10 ^
0_
1i
b010 j
0k
1l
1x
#2115000000
0#
0/
10
04
05
0A
0M
0Y
0l
0x
#2120000000
1#
0%
b0UUUUUUUUUUUUUUUUUUUUUUUUUUUUUUUUUUUUUUUUUUUUUUU0110100001010100 ,
b010 -
0.
1/
00
14
15
07
1A
0C
1M
0O
b0UUUUUUUUUUUUUUUUUUUUUUUUUUUUUUUUUUUUUUUUUUUUUUU0110100001010100 V
b010 W
0X
1Y
0[
b0UUUUUUUUUUUUUUUUUUUUUUUUUUUUUUUUUUUUUUUUUUUUUUU0110100001010100 b
b010 c
0d
b010 g
b010 h
1l
b0UUUUUUUUUUUUUUUUUUUUUUUUUUUUUUUUUUUUUUUUUUUUUUU0110100001010100 q
b010 r
0s
1x
b0UUUUUUUUUUUUUUUUUUUUUUUUUUUUUUUUUUUUUUUUUUUUUUU0110100001010100 }
b010 !"
0""
#2125000000
0#
0/
10
04
05
0A
0M
0Y
0l
0x
#2130000000
1#
1+
1/
00
14
15
1A
1M
1U
1Y
1a
1l
1o
1x
1{
#2135000000
0#
0/
10
04
05
0A
0M
0Y
0l
0x
#2140000000
1#
1/
00
14
15
1A
1M
1Y
1l
1x
#2145000000
0#
0/
10
04
05
0A
0M
0Y
0l
0x
#2150000000
1#
1/
00
14
15
1A
1M
1Y
1l
1x
#2155000000
0#
0/
10
04
05
0A
0M
0Y
0l
0x
#2160000000
1#
1%
bUUUUUUUU01100101 '
b01 (
1/
00
14
15
17
bUUUUUUUU01100101 :
b01 ;
1A
1C
bUUUUUUUU01100101 F
b01 G
1M
1O
bUUUUUUUU01100101 Q
b01 R
1Y
1[
bUUUUUUUU01100101 ]
b01 ^
0i
b001 j
1k
1l
1x
#2165000000
0#
0/
10
04
05
0A
0M
0Y
0l
0x
#2170000000
1#
b0111000100100000 '
b10 (
1*
bUUUUUUUUUUUUUUUUUUUUUUUUUUUUUUUUUUUUUUUU011001010110100001010100 ,
b011 -
1/
00
14
15
b0111000100100000 :
b10 ;
1A
b0111000100100000 F
b10 G
1M
b0111000100100000 Q
b10 R
1T
bUUUUUUUUUUUUUUUUUUUUUUUUUUUUUUUUUUUUUUUU011001010110100001010100 V
b011 W
1Y
b0111000100100000 ]
b10 ^
1`
bUUUUUUUUUUUUUUUUUUUUUUUUUUUUUUUUUUUUUUUU011001010110100001010100 b
b011 c
1f
b001 g
b000 h
1i
b010 j
0k
1l
1n
bUUUUUUUUUUUUUUUUUUUUUUUUUUUUUUUUUUUUUUUU011001010110100001010100 q
b011 r
1x
1z
bUUUUUUUUUUUUUUUUUUUUUUUUUUUUUUUUUUUUUUUU011001010110100001010100 }
b011 !"
#2175000000
0#
0/
10
04
05
0A
0M
0Y
0l
0x
#2180000000
1#
b0110100101110101 '
0*
0+
b0UUUUUUUUUUUUUUUUUUUUUUUUUUUUUUUUUUUUUUUUUUUUUUU0111000100100000 ,
b010 -
1/
00
14
15
b0110100101110101 :
1A
b0110100101110101 F
1M
b0110100101110101 Q
0T
0U
b0UUUUUUUUUUUUUUUUUUUUUUUUUUUUUUUUUUUUUUUUUUUUUUU0111000100100000 V
b010 W
1Y
b0110100101110101 ]
0`
0a
b0UUUUUUUUUUUUUUUUUUUUUUUUUUUUUUUUUUUUUUUUUUUUUUU0111000100100000 b
b010 c
0f
b010 g
b010 h
1l
0n
0o
b0UUUUUUUUUUUUUUUUUUUUUUUUUUUUUUUUUUUUUUUUUUUUUUU0111000100100000 q
b010 r
1x
0z
0{
b0UUUUUUUUUUUUUUUUUUUUUUUUUUUUUUUUUUUUUUUUUUUUUUU0111000100100000 }
b010 !"
#2185000000
0#
0/
10
04
05
0A
0M
0Y
0l
0x
#2190000000
1#
b0110101101100011 '
b0UUUUUUUUUUUUUUUUUUUUUUUUUUUUUUU01101001011101010111000100100000 ,
b100 -
1/
00
14
15
b0110101101100011 :
1A
b0110101101100011 F
1M
b0110101101100011 Q
b0UUUUUUUUUUUUUUUUUUUUUUUUUUUUUUU01101001011101010111000100100000 V
b100 W
1Y
b0110101101100011 ]
b0UUUUUUUUUUUUUUUUUUUUUUUUUUUUUUU01101001011101010111000100100000 b
b100 c
b011 g
b100 h
1l
b0UUUUUUUUUUUUUUUUUUUUUUUUUUUUUUU01101001011101010111000100100000 q
b100 r
1x
b0UUUUUUUUUUUUUUUUUUUUUUUUUUUUUUU01101001011101010111000100100000 }
b100 !"
#2195000000
0#
0/
10
04
05
0A
0M
0Y
0l
0x
#2200000000
1#
b0110001000100000 '
b0UUUUUUUUUUUUUUU011010110110001101101001011101010111000100100000 ,
b110 -
1/
00
14
15
b0110001000100000 :
1A
b0110001000100000 F
1M
b0110001000100000 Q
b0UUUUUUUUUUUUUUU011010110110001101101001011101010111000100100000 V
b110 W
1Y
b0110001000100000 ]
b0UUUUUUUUUUUUUUU011010110110001101101001011101010111000100100000 b
b110 c
b100 g
b110 h
1k
1l
b0UUUUUUUUUUUUUUU011010110110001101101001011101010111000100100000 q
b110 r
1x
b0UUUUUUUUUUUUUUU011010110110001101101001011101010111000100100000 }
b110 !"
#2205000000
0#
0/
10
04
05
0A
0M
0Y
0l
0x
#2210000000
1#
0%
0&
1*
b0110001000100000011010110110001101101001011101010111000100100000 ,
b000 -
1/
00
14
15
07
08
1A
0C
0D
1M
0O
0P
1T
b0110001000100000011010110110001101101001011101010111000100100000 V
b000 W
1Y
0[
0\
1`
b0110001000100000011010110110001101101001011101010111000100100000 b
b000 c
0e
1f
b001 g
b000 h
0k
1l
1n
b0110001000100000011010110110001101101001011101010111000100100000 q
b000 r
1x
1z
b0110001000100000011010110110001101101001011101010111000100100000 }
b000 !"
#2215000000
0#
0/
10
04
05
0A
0M
0Y
0l
0x
#2220000000
1#
1/
00
14
15
1A
1M
1Y
1l
1x
#2225000000
0#
0/
10
04
05
0A
0M
0Y
0l
0x
#2230000000
1#
1&
1+
1/
00
14
15
18
1A
1D
1M
1P
1U
1Y
1\
1a
1e
1l
1o
1x
1{
#2235000000
0#
0/
10
04
05
0A
0M
0Y
0l
0x
#2240000000
1#
0*
1/
00
14
15
1A
1M
0T
1Y
0`
0f
1l
0n
1x
0z
#2245000000
0#
0/
10
04
05
0A
0M
0Y
0l
0x
#2250000000
1#
1%
bUUUUUUUU01110010 '
b01 (
1/
00
14
15
17
bUUUUUUUU01110010 :
b01 ;
1A
1C
bUUUUUUUU01110010 F
b01 G
1M
1O
bUUUUUUUU01110010 Q
b01 R
1Y
1[
bUUUUUUUU01110010 ]
b01 ^
0i
b001 j
1k
1l
1x
#2255000000
0#
0/
10
04
05
0A
0M
0Y
0l
0x
#2260000000
1#
0%
1*
bUUUUUUUUUUUUUUUUUUUUUUUUUUUUUUUUUUUUUUUUUUUUUUUUUUUUUUUU01110010 ,
b001 -
1/
00
14
15
07
1A
0C
1M
0O
1T
bUUUUUUUUUUUUUUUUUUUUUUUUUUUUUUUUUUUUUUUUUUUUUUUUUUUUUUUU01110010 V
b001 W
1Y
0[
1`
bUUUUUUUUUUUUUUUUUUUUUUUUUUUUUUUUUUUUUUUUUUUUUUUUUUUUUUUU01110010 b
b001 c
1f
1l
1n
bUUUUUUUUUUUUUUUUUUUUUUUUUUUUUUUUUUUUUUUUUUUUUUUUUUUUUUUU01110010 q
b001 r
1x
1z
bUUUUUUUUUUUUUUUUUUUUUUUUUUUUUUUUUUUUUUUUUUUUUUUUUUUUUUUU01110010 }
b001 !"
#2265000000
0#
0/
10
04
05
0A
0M
0Y
0l
0x
#2270000000
1#
0*
0+
1/
00
14
15
1A
1M
0T
0U
1Y
0`
0a
0f
1l
0n
0o
1x
0z
0{
#2275000000
0#
0/
10
04
05
0A
0M
0Y
0l
0x
#2280000000
1#
1%
bUUUUUUUU01101111 '
1/
00
14
15
17
bUUUUUUUU01101111 :
1A
1C
bUUUUUUUU01101111 F
1M
1O
bUUUUUUUU01101111 Q
1Y
1[
bUUUUUUUU01101111 ]
1l
1x
#2285000000
0#
0/
10
04
05
0A
0M
0Y
0l
0x
#2290000000
1#
0&
b0110111001110111 '
b10 (
1*
bUUUUUUUUUUUUUUUUUUUUUUUUUUUUUUUUUUUUUUUUUUUUUUUUUUUUUUUU01101111 ,
1/
00
14
15
08
b0110111001110111 :
b10 ;
1A
0D
b0110111001110111 F
b10 G
1M
0P
b0110111001110111 Q
b10 R
1T
bUUUUUUUUUUUUUUUUUUUUUUUUUUUUUUUUUUUUUUUUUUUUUUUUUUUUUUUU01101111 V
1Y
0\
b0110111001110111 ]
b10 ^
1`
bUUUUUUUUUUUUUUUUUUUUUUUUUUUUUUUUUUUUUUUUUUUUUUUUUUUUUUUU01101111 b
0e
1f
1i
b010 j
0k
1l
1n
bUUUUUUUUUUUUUUUUUUUUUUUUUUUUUUUUUUUUUUUUUUUUUUUUUUUUUUUU01101111 q
1x
1z
bUUUUUUUUUUUUUUUUUUUUUUUUUUUUUUUUUUUUUUUUUUUUUUUUUUUUUUUU01101111 }
#2295000000
0#
0/
10
04
05
0A
0M
0Y
0l
0x
#2300000000
1#
1/
00
14
15
1A
1M
1Y
1l
1x
#2305000000
0#
0/
10
04
05
0A
0M
0Y
0l
0x
#2310000000
1#
1&
1+
1/
00
14
15
18
1A
1D
1M
1P
1U
1Y
1\
1a
1e
1l
1o
1x
1{
#2315000000
0#
0/
10
04
05
0A
0M
0Y
0l
0x
#2320000000
1#
0%
0*
b0UUUUUUUUUUUUUUUUUUUUUUUUUUUUUUUUUUUUUUUUUUUUUUU0110111001110111 ,
b010 -
1/
00
14
15
07
1A
0C
1M
0O
0T
b0UUUUUUUUUUUUUUUUUUUUUUUUUUUUUUUUUUUUUUUUUUUUUUU0110111001110111 V
b010 W
1Y
0[
0`
b0UUUUUUUUUUUUUUUUUUUUUUUUUUUUUUUUUUUUUUUUUUUUUUU0110111001110111 b
b010 c
0f
b010 g
b010 h
1l
0n
b0UUUUUUUUUUUUUUUUUUUUUUUUUUUUUUUUUUUUUUUUUUUUUUU0110111001110111 q
b010 r
1x
0z
b0UUUUUUUUUUUUUUUUUUUUUUUUUUUUUUUUUUUUUUUUUUUUUUU0110111001110111 }
b010 !"
#2325000000
0#
0/
10
04
05
0A
0M
0Y
0l
0x
#2330000000
1#
1/
00
14
15
1A
1M
1Y
1l
1x
#2335000000
0#
0/
10
04
05
0A
0M
0Y
0l
0x
#2340000000
1#
1%
b0110011000100000 '
1/
00
14
15
17
b0110011000100000 :
1A
1C
b0110011000100000 F
1M
1O
b0110011000100000 Q
1Y
1[
b0110011000100000 ]
1l
1x
#2345000000
0#
0/
10
04
05
0A
0M
0Y
0l
0x
#2350000000
1#
0%
b0UUUUUUUUUUUUUUUUUUUUUUUUUUUUUUU01100110001000000110111001110111 ,
b100 -
1/
00
14
15
07
1A
0C
1M
0O
b0UUUUUUUUUUUUUUUUUUUUUUUUUUUUUUU01100110001000000110111001110111 V
b100 W
1Y
0[
b0UUUUUUUUUUUUUUUUUUUUUUUUUUUUUUU01100110001000000110111001110111 b
b100 c
b011 g
b100 h
1l
b0UUUUUUUUUUUUUUUUUUUUUUUUUUUUUUU01100110001000000110111001110111 q
b100 r
1x
b0UUUUUUUUUUUUUUUUUUUUUUUUUUUUUUU01100110001000000110111001110111 }
b100 !"
#2355000000
0#
0/
10
04
05
0A
0M
0Y
0l
0x
#2360000000
1#
1/
00
14
15
1A
1M
1Y
1l
1x
#2365000000
0#
0/
10
04
05
0A
0M
0Y
0l
0x
#2370000000
1#
1/
00
14
15
1A
1M
1Y
1l
1x
#2375000000
0#
0/
10
04
05
0A
0M
0Y
0l
0x
#2380000000
1#
1/
00
14
15
1A
1M
1Y
1l
1x
#2385000000
0#
0/
10
04
05
0A
0M
0Y
0l
0x
#2390000000
1#
1%
b0111100001101111 '
1/
00
14
15
17
b0111100001101111 :
1A
1C
b0111100001101111 F
1M
1O
b0111100001101111 Q
1Y
1[
b0111100001101111 ]
1l
1x
#2395000000
0#
0/
10
04
05
0A
0M
0Y
0l
0x
#2400000000
1#
0%
b0UUUUUUUUUUUUUUU011110000110111101100110001000000110111001110111 ,
b110 -
1/
00
14
15
07
1A
0C
1M
0O
b0UUUUUUUUUUUUUUU011110000110111101100110001000000110111001110111 V
b110 W
1Y
0[
b0UUUUUUUUUUUUUUU011110000110111101100110001000000110111001110111 b
b110 c
b100 g
b110 h
1k
1l
b0UUUUUUUUUUUUUUU011110000110111101100110001000000110111001110111 q
b110 r
1x
b0UUUUUUUUUUUUUUU011110000110111101100110001000000110111001110111 }
b110 !"
#2405000000
0#
0/
10
04
05
0A
0M
0Y
0l
0x
#2410000000
1#
1%
b0110101000100000 '
1/
00
14
15
17
b0110101000100000 :
1A
1C
b0110101000100000 F
1M
1O
b0110101000100000 Q
1Y
1[
b0110101000100000 ]
1l
1x
#2415000000
0#
0/
10
04
05
0A
0M
0Y
0l
0x
#2420000000
1#
0%
1*
b0110101000100000011110000110111101100110001000000110111001110111 ,
b000 -
1/
00
14
15
07
1A
0C
1M
0O
1T
b0110101000100000011110000110111101100110001000000110111001110111 V
b000 W
1Y
0[
1`
b0110101000100000011110000110111101100110001000000110111001110111 b
b000 c
1f
b001 g
b000 h
0k
1l
1n
b0110101000100000011110000110111101100110001000000110111001110111 q
b000 r
1x
1z
b0110101000100000011110000110111101100110001000000110111001110111 }
b000 !"
#2425000000
0#
0/
10
04
05
0A
0M
0Y
0l
0x
#2430000000
1#
0*
0+
1/
00
14
15
1A
1M
0T
0U
1Y
0`
0a
0f
1l
0n
0o
1x
0z
0{
#2435000000
0#
0/
10
04
05
0A
0M
0Y
0l
0x
#2440000000
1#
1+
1/
00
14
15
1A
1M
1U
1Y
1a
1l
1o
1x
1{
#2445000000
0#
0/
10
04
05
0A
0M
0Y
0l
0x
#2450000000
1#
1/
00
14
15
1A
1M
1Y
1l
1x
#2455000000
0#
0/
10
04
05
0A
0M
0Y
0l
0x
#2460000000
1#
1/
00
14
15
1A
1M
1Y
1l
1x
#2465000000
0#
0/
10
04
05
0A
0M
0Y
0l
0x
#2470000000
1#
1%
b0110110101110101 '
1/
00
14
15
17
b0110110101110101 :
1A
1C
b0110110101110101 F
1M
1O
b0110110101110101 Q
1Y
1[
b0110110101110101 ]
1l
1x
#2475000000
0#
0/
10
04
05
0A
0M
0Y
0l
0x
#2480000000
1#
0%
b0UUUUUUUUUUUUUUUUUUUUUUUUUUUUUUUUUUUUUUUUUUUUUUU0110110101110101 ,
b010 -
1/
00
14
15
07
1A
0C
1M
0O
b0UUUUUUUUUUUUUUUUUUUUUUUUUUUUUUUUUUUUUUUUUUUUUUU0110110101110101 V
b010 W
1Y
0[
b0UUUUUUUUUUUUUUUUUUUUUUUUUUUUUUUUUUUUUUUUUUUUUUU0110110101110101 b
b010 c
b010 g
b010 h
1l
b0UUUUUUUUUUUUUUUUUUUUUUUUUUUUUUUUUUUUUUUUUUUUUUU0110110101110101 q
b010 r
1x
b0UUUUUUUUUUUUUUUUUUUUUUUUUUUUUUUUUUUUUUUUUUUUUUU0110110101110101 }
b010 !"
#2485000000
0#
0/
10
04
05
0A
0M
0Y
0l
0x
#2490000000
1#
1/
00
14
15
1A
1M
1Y
1l
1x
#2495000000
0#
0/
10
04
05
0A
0M
0Y
0l
0x
#2500000000
1#
1/
00
14
15
1A
1M
1Y
1l
1x
#2505000000
0#
0/
10
04
05
0A
0M
0Y
0l
0x
#2510000000
1#
1%
b0111001101110000 '
1/
00
14
15
17
b0111001101110000 :
1A
1C
b0111001101110000 F
1M
1O
b0111001101110000 Q
1Y
1[
b0111001101110000 ]
1l
1x
#2515000000
0#
0/
10
04
05
0A
0M
0Y
0l
0x
#2520000000
1#
0%
b0UUUUUUUUUUUUUUUUUUUUUUUUUUUUUUU01110011011100000110110101110101 ,
b100 -
1/
00
14
15
07
1A
0C
1M
0O
b0UUUUUUUUUUUUUUUUUUUUUUUUUUUUUUU01110011011100000110110101110101 V
b100 W
1Y
0[
b0UUUUUUUUUUUUUUUUUUUUUUUUUUUUUUU01110011011100000110110101110101 b
b100 c
b011 g
b100 h
1l
b0UUUUUUUUUUUUUUUUUUUUUUUUUUUUUUU01110011011100000110110101110101 q
b100 r
1x
b0UUUUUUUUUUUUUUUUUUUUUUUUUUUUUUU01110011011100000110110101110101 }
b100 !"
#2525000000
0#
0/
10
04
05
0A
0M
0Y
0l
0x
#2530000000
1#
1/
00
14
15
1A
1M
1Y
1l
1x
#2535000000
0#
0/
10
04
05
0A
0M
0Y
0l
0x
#2540000000
1#
1/
00
14
15
1A
1M
1Y
1l
1x
#2545000000
0#
0/
10
04
05
0A
0M
0Y
0l
0x
#2550000000
1#
1/
00
14
15
1A
1M
1Y
1l
1x
#2555000000
0#
0/
10
04
05
0A
0M
0Y
0l
0x
#2560000000
1#
1%
bUUUUUUUU00100000 '
b01 (
1/
00
14
15
17
bUUUUUUUU00100000 :
b01 ;
1A
1C
bUUUUUUUU00100000 F
b01 G
1M
1O
bUUUUUUUU00100000 Q
b01 R
1Y
1[
bUUUUUUUU00100000 ]
b01 ^
0i
b001 j
1k
1l
1x
#2565000000
0#
0/
10
04
05
0A
0M
0Y
0l
0x
#2570000000
1#
bUUUUUUUU01101111 '
1*
bUUUUUUUUUUUUUUUUUUUUUUUU0010000001110011011100000110110101110101 ,
b101 -
1/
00
14
15
bUUUUUUUU01101111 :
1A
bUUUUUUUU01101111 F
1M
bUUUUUUUU01101111 Q
1T
bUUUUUUUUUUUUUUUUUUUUUUUU0010000001110011011100000110110101110101 V
b101 W
1Y
bUUUUUUUU01101111 ]
1`
bUUUUUUUUUUUUUUUUUUUUUUUU0010000001110011011100000110110101110101 b
b101 c
1f
b001 g
b000 h
1l
1n
bUUUUUUUUUUUUUUUUUUUUUUUU0010000001110011011100000110110101110101 q
b101 r
1x
1z
bUUUUUUUUUUUUUUUUUUUUUUUU0010000001110011011100000110110101110101 }
b101 !"
#2575000000
0#
0/
10
04
05
0A
0M
0Y
0l
0x
#2580000000
1#
0%
0&
0+
bUUUUUUUUUUUUUUUUUUUUUUUUUUUUUUUUUUUUUUUUUUUUUUUUUUUUUUUU01101111 ,
b001 -
1/
00
14
15
07
08
1A
0C
0D
1M
0O
0P
0U
bUUUUUUUUUUUUUUUUUUUUUUUUUUUUUUUUUUUUUUUUUUUUUUUUUUUUUUUU01101111 V
b001 W
1Y
0[
0\
0a
bUUUUUUUUUUUUUUUUUUUUUUUUUUUUUUUUUUUUUUUUUUUUUUUUUUUUUUUU01101111 b
b001 c
0e
1l
0o
bUUUUUUUUUUUUUUUUUUUUUUUUUUUUUUUUUUUUUUUUUUUUUUUUUUUUUUUU01101111 q
b001 r
1x
0{
bUUUUUUUUUUUUUUUUUUUUUUUUUUUUUUUUUUUUUUUUUUUUUUUUUUUUUUUU01101111 }
b001 !"
#2585000000
0#
0/
10
04
05
0A
0M
0Y
0l
0x
#2590000000
1#
1%
1&
b0110010101110110 '
b10 (
1+
1/
00
14
15
17
18
b0110010101110110 :
b10 ;
1A
1C
1D
b0110010101110110 F
b10 G
1M
1O
1P
b0110010101110110 Q
b10 R
1U
1Y
1[
1\
b0110010101110110 ]
b10 ^
1a
1e
1i
b010 j
0k
1l
1o
1x
1{
#2595000000
0#
0/
10
04
05
0A
0M
0Y
0l
0x
#2600000000
1#
b0010000001110010 '
0*
0+
b0UUUUUUUUUUUUUUUUUUUUUUUUUUUUUUUUUUUUUUUUUUUUUUU0110010101110110 ,
b010 -
1/
00
14
15
b0010000001110010 :
1A
b0010000001110010 F
1M
b0010000001110010 Q
0T
0U
b0UUUUUUUUUUUUUUUUUUUUUUUUUUUUUUUUUUUUUUUUUUUUUUU0110010101110110 V
b010 W
1Y
b0010000001110010 ]
0`
0a
b0UUUUUUUUUUUUUUUUUUUUUUUUUUUUUUUUUUUUUUUUUUUUUUU0110010101110110 b
b010 c
0f
b010 g
b010 h
1l
0n
0o
b0UUUUUUUUUUUUUUUUUUUUUUUUUUUUUUUUUUUUUUUUUUUUUUU0110010101110110 q
b010 r
1x
0z
0{
b0UUUUUUUUUUUUUUUUUUUUUUUUUUUUUUUUUUUUUUUUUUUUUUU0110010101110110 }
b010 !"
#2605000000
0#
0/
10
04
05
0A
0M
0Y
0l
0x
#2610000000
1#
bUUUUUUUU01110100 '
b01 (
b0UUUUUUUUUUUUUUUUUUUUUUUUUUUUUUU00100000011100100110010101110110 ,
b100 -
1/
00
14
15
bUUUUUUUU01110100 :
b01 ;
1A
bUUUUUUUU01110100 F
b01 G
1M
bUUUUUUUU01110100 Q
b01 R
b0UUUUUUUUUUUUUUUUUUUUUUUUUUUUUUU00100000011100100110010101110110 V
b100 W
1Y
bUUUUUUUU01110100 ]
b01 ^
b0UUUUUUUUUUUUUUUUUUUUUUUUUUUUUUU00100000011100100110010101110110 b
b100 c
b011 g
b100 h
0i
b001 j
1k
1l
b0UUUUUUUUUUUUUUUUUUUUUUUUUUUUUUU00100000011100100110010101110110 q
b100 r
1x
b0UUUUUUUUUUUUUUUUUUUUUUUUUUUUUUU00100000011100100110010101110110 }
b100 !"
#2615000000
0#
0/
10
04
05
0A
0M
0Y
0l
0x
