tests/complex/vhlib/wave/work.streamgearbox_8_4_8_3_tc.vcd
$date
  Wed Jun 19 10:58:20 2019
$end
$version
  GHDL v0
$end
$timescale
  1 fs
$end
$scope module standard $end
$upscope $end
$scope module textio $end
$upscope $end
$scope module std_logic_1164 $end
$upscope $end
$scope module numeric_std $end
$upscope $end
$scope module std_logic_misc $end
$upscope $end
$scope module stream_pkg $end
$upscope $end
$scope module math_real $end
$upscope $end
$scope module testcase_pkg $end
$var reg 1 ! test $end
$var reg 1 " tc_model_init $end
$upscope $end
$scope module simdatacomms_pkg $end
$upscope $end
$scope module clockgen_pkg $end
$upscope $end
$scope module streammonitor_pkg $end
$upscope $end
$scope module streamsource_pkg $end
$upscope $end
$scope module streamsink_pkg $end
$upscope $end
$scope module utilint_pkg $end
$upscope $end
$scope module streamgearbox_8_4_8_3_tc $end
$scope module tv $end
$upscope $end
$scope module tb $end
$var reg 1 # clk $end
$var reg 1 $ reset $end
$var reg 1 % a_valid $end
$var reg 1 & a_ready $end
$var reg 64 ' a_data[63:0] $end
$var reg 4 ( a_count[3:0] $end
$var reg 1 ) a_last $end
$var reg 1 * b_valid $end
$var reg 1 + b_ready $end
$var reg 64 , b_data[63:0] $end
$var reg 3 - b_count[2:0] $end
$var reg 1 . b_last $end
$scope module clkgen $end
$var reg 1 / clk $end
$var reg 1 0 clk_n $end
$var reg 1 1 reset $end
$var reg 1 2 reset_n $end
$var reg 1 3 sync $end
$var reg 1 4 clk_i $end
$upscope $end
$scope module a_source $end
$var reg 1 5 clk $end
$var reg 1 6 reset $end
$var reg 1 7 valid $end
$var reg 1 8 ready $end
$var reg 1 9 dvalid $end
$var reg 64 : data[63:0] $end
$var reg 4 ; count[3:0] $end
$var reg 1 < last $end
$var reg 1 = ctrl[0:0] $end
$var reg 1 > x[0:0] $end
$var reg 1 ? y[0:0] $end
$var reg 1 @ z[0:0] $end
$scope module monitor $end
$var reg 1 A clk $end
$var reg 1 B reset $end
$var reg 1 C valid $end
$var reg 1 D ready $end
$var reg 1 E dvalid $end
$var reg 64 F data[63:0] $end
$var reg 4 G count[3:0] $end
$var reg 1 H last $end
$var reg 1 I ctrl[0:0] $end
$var reg 1 J x[0:0] $end
$var reg 1 K y[0:0] $end
$var reg 1 L z[0:0] $end
$upscope $end
$upscope $end
$scope module uut $end
$var reg 1 M clk $end
$var reg 1 N reset $end
$var reg 1 O in_valid $end
$var reg 1 P in_ready $end
$var reg 64 Q in_data[63:0] $end
$var reg 4 R in_count[3:0] $end
$var reg 1 S in_last $end
$var reg 1 T out_valid $end
$var reg 1 U out_ready $end
$var reg 64 V out_data[63:0] $end
$var reg 3 W out_count[2:0] $end
$var reg 1 X out_last $end
$scope module nop $end
$upscope $end
$upscope $end
$scope module b_sink $end
$var reg 1 Y clk $end
$var reg 1 Z reset $end
$var reg 1 [ valid $end
$var reg 1 \ ready $end
$var reg 1 ] dvalid $end
$var reg 64 ^ data[63:0] $end
$var reg 3 _ count[2:0] $end
$var reg 1 ` last $end
$var reg 1 a ctrl[0:0] $end
$var reg 1 b x[0:0] $end
$var reg 1 c y[0:0] $end
$var reg 1 d z[0:0] $end
$scope module monitor $end
$var reg 1 e clk $end
$var reg 1 f reset $end
$var reg 1 g valid $end
$var reg 1 h ready $end
$var reg 1 i dvalid $end
$var reg 64 j data[63:0] $end
$var reg 3 k count[2:0] $end
$var reg 1 l last $end
$var reg 1 m ctrl[0:0] $end
$var reg 1 n x[0:0] $end
$var reg 1 o y[0:0] $end
$var reg 1 p z[0:0] $end
$upscope $end
$upscope $end
$upscope $end
$upscope $end
$enddefinitions $end
#0
1!
1"
0#
1$
U%
U&
bUUUUUUUUUUUUUUUUUUUUUUUUUUUUUUUUUUUUUUUUUUUUUUUUUUUUUUUUUUUUUUUU '
bUUUU (
U)
U*
U+
bUUUUUUUUUUUUUUUUUUUUUUUUUUUUUUUUUUUUUUUUUUUUUUUUUUUUUUUUUUUUUUUU ,
bUUU -
U.
0/
10
11
02
03
04
05
16
U7
U8
U9
bUUUUUUUUUUUUUUUUUUUUUUUUUUUUUUUUUUUUUUUUUUUUUUUUUUUUUUUUUUUUUUUU :
bUUUU ;
U<
bU =
bU >
bU ?
bU @
0A
1B
UC
UD
UE
bUUUUUUUUUUUUUUUUUUUUUUUUUUUUUUUUUUUUUUUUUUUUUUUUUUUUUUUUUUUUUUUU F
bUUUU G
UH
bU I
bU J
bU K
bU L
0M
1N
UO
UP
bUUUUUUUUUUUUUUUUUUUUUUUUUUUUUUUUUUUUUUUUUUUUUUUUUUUUUUUUUUUUUUUU Q
bUUUU R
US
UT
UU
bUUUUUUUUUUUUUUUUUUUUUUUUUUUUUUUUUUUUUUUUUUUUUUUUUUUUUUUUUUUUUUUU V
bUUU W
UX
0Y
1Z
U[
U\
1]
bUUUUUUUUUUUUUUUUUUUUUUUUUUUUUUUUUUUUUUUUUUUUUUUUUUUUUUUUUUUUUUUU ^
bUUU _
U`
b0 a
b0 b
b0 c
b0 d
0e
1f
Ug
Uh
1i
bUUUUUUUUUUUUUUUUUUUUUUUUUUUUUUUUUUUUUUUUUUUUUUUUUUUUUUUUUUUUUUUU j
bUUU k
Ul
b0 m
b0 n
b0 o
b0 p
#500000000
#600000000
#1000000000
13
#2000000000
1#
0%
0&
0*
0+
1/
00
03
14
15
07
08
U9
bUUUUUUUUUUUUUUUUUUUUUUUUUUUUUUUUUUUUUUUUUUUUUUUUUUUUUUUUUUUUUUUU :
bUUUU ;
U<
bU =
bU >
bU ?
bU @
1A
0C
0D
1M
0O
0P
0T
0U
1Y
0[
0\
1e
0g
0h
#2005000000
0#
0/
10
04
05
0A
0M
0Y
0e
#2010000000
1#
1/
00
14
15
1A
1M
1Y
1e
#2015000000
0#
0/
10
04
05
0A
0M
0Y
0e
#2020000000
1#
1/
00
14
15
1A
1M
1Y
1e
#2025000000
0#
0/
10
04
05
0A
0M
0Y
0e
#2030000000
1#
1/
00
14
15
1A
1M
1Y
1e
#2035000000
0#
0/
10
04
05
0A
0M
0Y
0e
#2040000000
1#
1/
00
14
15
1A
1M
1Y
1e
#2045000000
0#
0/
10
04
05
0A
0M
0Y
0e
#2050000000
1#
1/
00
14
15
1A
1M
1Y
1e
#2055000000
0#
0/
10
04
05
0A
0M
0Y
0e
#2060000000
1#
1/
00
14
15
1A
1M
1Y
1e
#2065000000
0#
0/
10
04
05
0A
0M
0Y
0e
#2070000000
1#
1/
00
14
15
1A
1M
1Y
1e
#2075000000
0#
0/
10
04
05
0A
0M
0Y
0e
#2080000000
1#
1/
00
14
15
1A
1M
1Y
1e
#2085000000
0#
0/
10
04
05
0A
0M
0Y
0e
#2090000000
1#
1/
00
14
15
1A
1M
1Y
1e
#2095000000
0#
0/
10
04
05
0A
0M
0Y
0e
#2100000000
1#
0$
1/
00
01
12
14
15
06
1A
0B
1M
0N
1Y
0Z
1e
0f
#2105000000
Z"
0#
0/
10
04
05
0A
0M
0Y
0e
#2110000000
1#
1%
b0110001101101001011101010111000100100000011001010110100001010100 '
b1000 (
0)
1*
b0110001101101001011101010111000100100000011001010110100001010100 ,
b000 -
0.
1/
00
14
15
17
19
b0110001101101001011101010111000100100000011001010110100001010100 :
b1000 ;
0<
1A
1C
1E
b0110001101101001011101010111000100100000011001010110100001010100 F
b1000 G
0H
1M
1O
b0110001101101001011101010111000100100000011001010110100001010100 Q
b1000 R
0S
1T
b0110001101101001011101010111000100100000011001010110100001010100 V
b000 W
0X
1Y
1[
b0110001101101001011101010111000100100000011001010110100001010100 ^
b000 _
0`
1e
1g
b0110001101101001011101010111000100100000011001010110100001010100 j
b000 k
0l
#2115000000
0#
0/
10
04
05
0A
0M
0Y
0e
#2120000000
1#
1/
00
14
15
1A
1M
1Y
1e
#2125000000
0#
0/
10
04
05
0A
0M
0Y
0e
#2130000000
1#
1&
1+
1/
00
14
15
18
1A
1D
1M
1P
1U
1Y
1\
1e
1h
#2135000000
0#
0/
10
04
05
0A
0M
0Y
0e
#2140000000
1#
0%
0&
0*
0+
1/
00
14
15
07
08
1A
0C
0D
1M
0O
0P
0T
0U
1Y
0[
0\
1e
0g
0h
#2145000000
0#
0/
10
04
05
0A
0M
0Y
0e
#2150000000
1#
1/
00
14
15
1A
1M
1Y
1e
#2155000000
0#
0/
10
04
05
0A
0M
0Y
0e
#2160000000
1#
1/
00
14
15
1A
1M
1Y
1e
#2165000000
0#
0/
10
04
05
0A
0M
0Y
0e
#2170000000
1#
1/
00
14
15
1A
1M
1Y
1e
#2175000000
0#
0/
10
04
05
0A
0M
0Y
0e
#2180000000
1#
1%
bUUUUUUUUUUUUUUUUUUUUUUUUUUUUUUUU01110010011000100010000001101011 '
b0100 (
1*
bUUUUUUUUUUUUUUUUUUUUUUUUUUUUUUUU01110010011000100010000001101011 ,
b100 -
1/
00
14
15
17
bUUUUUUUUUUUUUUUUUUUUUUUUUUUUUUUU01110010011000100010000001101011 :
b0100 ;
1A
1C
bUUUUUUUUUUUUUUUUUUUUUUUUUUUUUUUU01110010011000100010000001101011 F
b0100 G
1M
1O
bUUUUUUUUUUUUUUUUUUUUUUUUUUUUUUUU01110010011000100010000001101011 Q
b0100 R
1T
bUUUUUUUUUUUUUUUUUUUUUUUUUUUUUUUU01110010011000100010000001101011 V
b100 W
1Y
1[
bUUUUUUUUUUUUUUUUUUUUUUUUUUUUUUUU01110010011000100010000001101011 ^
b100 _
1e
1g
bUUUUUUUUUUUUUUUUUUUUUUUUUUUUUUUU01110010011000100010000001101011 j
b100 k
#2185000000
0#
0/
10
04
05
0A
0M
0Y
0e
#2190000000
1#
1&
1+
1/
00
14
15
18
1A
1D
1M
1P
1U
1Y
1\
1e
1h
#2195000000
0#
0/
10
04
05
0A
0M
0Y
0e
#2200000000
1#
bUUUUUUUUUUUUUUUU011011110110011000100000011011100111011101101111 '
b0110 (
bUUUUUUUUUUUUUUUU011011110110011000100000011011100111011101101111 ,
b110 -
1/
00
14
15
bUUUUUUUUUUUUUUUU011011110110011000100000011011100111011101101111 :
b0110 ;
1A
bUUUUUUUUUUUUUUUU011011110110011000100000011011100111011101101111 F
b0110 G
1M
bUUUUUUUUUUUUUUUU011011110110011000100000011011100111011101101111 Q
b0110 R
bUUUUUUUUUUUUUUUU011011110110011000100000011011100111011101101111 V
b110 W
1Y
bUUUUUUUUUUUUUUUU011011110110011000100000011011100111011101101111 ^
b110 _
1e
bUUUUUUUUUUUUUUUU011011110110011000100000011011100111011101101111 j
b110 k
#2205000000
0#
0/
10
04
05
0A
0M
0Y
0e
#2210000000
1#
0&
b0010000001110011011100000110110101110101011010100010000001111000 '
b1000 (
0+
b0010000001110011011100000110110101110101011010100010000001111000 ,
b000 -
1/
00
14
15
08
b0010000001110011011100000110110101110101011010100010000001111000 :
b1000 ;
1A
0D
b0010000001110011011100000110110101110101011010100010000001111000 F
b1000 G
1M
0P
b0010000001110011011100000110110101110101011010100010000001111000 Q
b1000 R
0U
b0010000001110011011100000110110101110101011010100010000001111000 V
b000 W
1Y
0\
b0010000001110011011100000110110101110101011010100010000001111000 ^
b000 _
1e
0h
b0010000001110011011100000110110101110101011010100010000001111000 j
b000 k
#2215000000
0#
0/
10
04
05
0A
0M
0Y
0e
#2220000000
1#
1/
00
14
15
1A
1M
1Y
1e
#2225000000
0#
0/
10
04
05
0A
0M
0Y
0e
#2230000000
1#
1/
00
14
15
1A
1M
1Y
1e
#2235000000
0#
0/
10
04
05
0A
0M
0Y
0e
#2240000000
1#
1/
00
14
15
1A
1M
1Y
1e
#2245000000
0#
0/
10
04
05
0A
0M
0Y
0e
#2250000000
1#
1&
1+
1/
00
14
15
18
1A
1D
1M
1P
1U
1Y
1\
1e
1h
#2255000000
0#
0/
10
04
05
0A
0M
0Y
0e
#2260000000
1#
b0110010101101000011101000010000001110010011001010111011001101111 '
b0110010101101000011101000010000001110010011001010111011001101111 ,
1/
00
14
15
b0110010101101000011101000010000001110010011001010111011001101111 :
1A
b0110010101101000011101000010000001110010011001010111011001101111 F
1M
b0110010101101000011101000010000001110010011001010111011001101111 Q
b0110010101101000011101000010000001110010011001010111011001101111 V
1Y
b0110010101101000011101000010000001110010011001010111011001101111 ^
1e
b0110010101101000011101000010000001110010011001010111011001101111 j
#2265000000
0#
0/
10
04
05
0A
0M
0Y
0e
#2270000000
1#
0&
b0110111101100100001000000111100101111010011000010110110000100000 '
0+
b0110111101100100001000000111100101111010011000010110110000100000 ,
1/
00
14
15
08
b0110111101100100001000000111100101111010011000010110110000100000 :
1A
0D
b0110111101100100001000000111100101111010011000010110110000100000 F
1M
0P
b0110111101100100001000000111100101111010011000010110110000100000 Q
0U
b0110111101100100001000000111100101111010011000010110110000100000 V
1Y
0\
b0110111101100100001000000111100101111010011000010110110000100000 ^
1e
0h
b0110111101100100001000000111100101111010011000010110110000100000 j
#2275000000
0#
0/
10
04
05
0A
0M
0Y
0e
#2280000000
1#
1&
1+
1/
00
14
15
18
1A
1D
1M
1P
1U
1Y
1\
1e
1h
#2285000000
0#
0/
10
04
05
0A
0M
0Y
0e
#2290000000
1#
0%
0&
0*
0+
1/
00
14
15
07
08
1A
0C
0D
1M
0O
0P
0T
0U
1Y
0[
0\
1e
0g
0h
#2295000000
0#
0/
10
04
05
0A
0M
0Y
0e
#2300000000
1#
1&
1+
1/
00
14
15
18
1A
1D
1M
1P
1U
1Y
1\
1e
1h
#2305000000
0#
0/
10
04
05
0A
0M
0Y
0e
#2310000000
1#
1/
00
14
15
1A
1M
1Y
1e
#2315000000
0#
0/
10
04
05
0A
0M
0Y
0e
#2320000000
1#
1/
00
14
15
1A
1M
1Y
1e
#2325000000
0#
0/
10
04
05
0A
0M
0Y
0e
#2330000000
1#
1%
bUUUUUUUUUUUUUUUUUUUUUUUUUUUUUUUUUUUUUUUUUUUUUUUU0010111001100111 '
b0010 (
1)
1*
bUUUUUUUUUUUUUUUUUUUUUUUUUUUUUUUUUUUUUUUUUUUUUUUU0010111001100111 ,
b010 -
1.
1/
00
14
15
17
bUUUUUUUUUUUUUUUUUUUUUUUUUUUUUUUUUUUUUUUUUUUUUUUU0010111001100111 :
b0010 ;
1<
1A
1C
bUUUUUUUUUUUUUUUUUUUUUUUUUUUUUUUUUUUUUUUUUUUUUUUU0010111001100111 F
b0010 G
1H
1M
1O
bUUUUUUUUUUUUUUUUUUUUUUUUUUUUUUUUUUUUUUUUUUUUUUUU0010111001100111 Q
b0010 R
1S
1T
bUUUUUUUUUUUUUUUUUUUUUUUUUUUUUUUUUUUUUUUUUUUUUUUU0010111001100111 V
b010 W
1X
1Y
1[
bUUUUUUUUUUUUUUUUUUUUUUUUUUUUUUUUUUUUUUUUUUUUUUUU0010111001100111 ^
b010 _
1`
1e
1g
bUUUUUUUUUUUUUUUUUUUUUUUUUUUUUUUUUUUUUUUUUUUUUUUU0010111001100111 j
b010 k
1l
#2335000000
0#
0/
10
04
05
0A
0M
0Y
0e
#2340000000
1#
0%
0&
0*
0+
1/
00
14
15
07
08
1A
0C
0D
1M
0O
0P
0T
0U
1Y
0[
0\
1e
0g
0h
#2345000000
0#
0/
10
04
05
0A
0M
0Y
0e
#2350000000
1#
1/
00
14
15
1A
1M
1Y
1e
#2355000000
0#
0/
10
04
05
0A
0M
0Y
0e
#2360000000
1#
1%
bUUUUUUUUUUUUUUUUUUUUUUUUUUUUUUUUUUUUUUUU011001010110100001010100 '
b0011 (
0)
1*
bUUUUUUUUUUUUUUUUUUUUUUUUUUUUUUUUUUUUUUUU011001010110100001010100 ,
b011 -
0.
1/
00
14
15
17
bUUUUUUUUUUUUUUUUUUUUUUUUUUUUUUUUUUUUUUUU011001010110100001010100 :
b0011 ;
0<
1A
1C
bUUUUUUUUUUUUUUUUUUUUUUUUUUUUUUUUUUUUUUUU011001010110100001010100 F
b0011 G
0H
1M
1O
bUUUUUUUUUUUUUUUUUUUUUUUUUUUUUUUUUUUUUUUU011001010110100001010100 Q
b0011 R
0S
1T
bUUUUUUUUUUUUUUUUUUUUUUUUUUUUUUUUUUUUUUUU011001010110100001010100 V
b011 W
0X
1Y
1[
bUUUUUUUUUUUUUUUUUUUUUUUUUUUUUUUUUUUUUUUU011001010110100001010100 ^
b011 _
0`
1e
1g
bUUUUUUUUUUUUUUUUUUUUUUUUUUUUUUUUUUUUUUUU011001010110100001010100 j
b011 k
0l
#2365000000
0#
0/
10
04
05
0A
0M
0Y
0e
#2370000000
1#
1&
1+
1/
00
14
15
18
1A
1D
1M
1P
1U
1Y
1\
1e
1h
#2375000000
0#
0/
10
04
05
0A
0M
0Y
0e
#2380000000
1#
0&
b0110001000100000011010110110001101101001011101010111000100100000 '
b1000 (
0+
b0110001000100000011010110110001101101001011101010111000100100000 ,
b000 -
1/
00
14
15
08
b0110001000100000011010110110001101101001011101010111000100100000 :
b1000 ;
1A
0D
b0110001000100000011010110110001101101001011101010111000100100000 F
b1000 G
1M
0P
b0110001000100000011010110110001101101001011101010111000100100000 Q
b1000 R
0U
b0110001000100000011010110110001101101001011101010111000100100000 V
b000 W
1Y
0\
b0110001000100000011010110110001101101001011101010111000100100000 ^
b000 _
1e
0h
b0110001000100000011010110110001101101001011101010111000100100000 j
b000 k
#2385000000
0#
0/
10
04
05
0A
0M
0Y
0e
#2390000000
1#
1/
00
14
15
1A
1M
1Y
1e
#2395000000
0#
0/
10
04
05
0A
0M
0Y
0e
#2400000000
1#
1/
00
14
15
1A
1M
1Y
1e
#2405000000
0#
0/
10
04
05
0A
0M
0Y
0e
#2410000000
1#
1&
1+
1/
00
14
15
18
1A
1D
1M
1P
1U
1Y
1\
1e
1h
#2415000000
0#
0/
10
04
05
0A
0M
0Y
0e
#2420000000
1#
0%
0*
1/
00
14
15
07
1A
0C
1M
0O
0T
1Y
0[
1e
0g
#2425000000
0#
0/
10
04
05
0A
0M
0Y
0e
#2430000000
1#
1/
00
14
15
1A
1M
1Y
1e
#2435000000
0#
0/
10
04
05
0A
0M
0Y
0e
#2440000000
1#
1%
b0111100001101111011001100010000001101110011101110110111101110010 '
1*
b0111100001101111011001100010000001101110011101110110111101110010 ,
1/
00
14
15
17
b0111100001101111011001100010000001101110011101110110111101110010 :
1A
1C
b0111100001101111011001100010000001101110011101110110111101110010 F
1M
1O
b0111100001101111011001100010000001101110011101110110111101110010 Q
1T
b0111100001101111011001100010000001101110011101110110111101110010 V
1Y
1[
b0111100001101111011001100010000001101110011101110110111101110010 ^
1e
1g
b0111100001101111011001100010000001101110011101110110111101110010 j
#2445000000
0#
0/
10
04
05
0A
0M
0Y
0e
#2450000000
1#
0%
0*
1/
00
14
15
07
1A
0C
1M
0O
0T
1Y
0[
1e
0g
#2455000000
0#
0/
10
04
05
0A
0M
0Y
0e
#2460000000
1#
1/
00
14
15
1A
1M
1Y
1e
#2465000000
0#
0/
10
04
05
0A
0M
0Y
0e
#2470000000
1#
1/
00
14
15
1A
1M
1Y
1e
#2475000000
0#
0/
10
04
05
0A
0M
0Y
0e
#2480000000
1#
1/
00
14
15
1A
1M
1Y
1e
#2485000000
0#
0/
10
04
05
0A
0M
0Y
0e
#2490000000
1#
1%
b0110111100100000011100110111000001101101011101010110101000100000 '
1*
b0110111100100000011100110111000001101101011101010110101000100000 ,
1/
00
14
15
17
b0110111100100000011100110111000001101101011101010110101000100000 :
1A
1C
b0110111100100000011100110111000001101101011101010110101000100000 F
1M
1O
b0110111100100000011100110111000001101101011101010110101000100000 Q
1T
b0110111100100000011100110111000001101101011101010110101000100000 V
1Y
1[
b0110111100100000011100110111000001101101011101010110101000100000 ^
1e
1g
b0110111100100000011100110111000001101101011101010110101000100000 j
#2495000000
0#
0/
10
04
05
0A
0M
0Y
0e
#2500000000
1#
0%
0&
0*
0+
1/
00
14
15
07
08
1A
0C
0D
1M
0O
0P
0T
0U
1Y
0[
0\
1e
0g
0h
#2505000000
0#
0/
10
04
05
0A
0M
0Y
0e
#2510000000
1#
1%
bUUUUUUUUUUUUUUUUUUUUUUUU0111010000100000011100100110010101110110 '
b0101 (
1*
bUUUUUUUUUUUUUUUUUUUUUUUU0111010000100000011100100110010101110110 ,
b101 -
1/
00
14
15
17
bUUUUUUUUUUUUUUUUUUUUUUUU0111010000100000011100100110010101110110 :
b0101 ;
1A
1C
bUUUUUUUUUUUUUUUUUUUUUUUU0111010000100000011100100110010101110110 F
b0101 G
1M
1O
bUUUUUUUUUUUUUUUUUUUUUUUU0111010000100000011100100110010101110110 Q
b0101 R
1T
bUUUUUUUUUUUUUUUUUUUUUUUU0111010000100000011100100110010101110110 V
b101 W
1Y
1[
bUUUUUUUUUUUUUUUUUUUUUUUU0111010000100000011100100110010101110110 ^
b101 _
1e
1g
bUUUUUUUUUUUUUUUUUUUUUUUU0111010000100000011100100110010101110110 j
b101 k
#2515000000
0#
0/
10
04
05
0A
0M
0Y
0e
#2520000000
1#
1/
00
14
15
1A
1M
1Y
1e
#2525000000
0#
0/
10
04
05
0A
0M
0Y
0e
#2530000000
1#
1/
00
14
15
1A
1M
1Y
1e
#2535000000
0#
0/
10
04
05
0A
0M
0Y
0e
#2540000000
1#
1&
1+
1/
00
14
15
18
1A
1D
1M
1P
1U
1Y
1\
1e
1h
#2545000000
0#
0/
10
04
05
0A
0M
0Y
0e
#2550000000
1#
0%
0*
1/
00
14
15
07
1A
0C
1M
0O
0T
1Y
0[
1e
0g
#2555000000
0#
0/
10
04
05
0A
0M
0Y
0e
#2560000000
1#
1/
00
14
15
1A
1M
1Y
1e
#2565000000
0#
0/
10
04
05
0A
0M
0Y
0e
#2570000000
1#
1/
00
14
15
1A
1M
1Y
1e
#2575000000
0#
0/
10
04
05
0A
0M
0Y
0e
#2580000000
1#
1/
00
14
15
1A
1M
1Y
1e
#2585000000
0#
0/
10
04
05
0A
0M
0Y
0e
#2590000000
1#
1/
00
14
15
1A
1M
1Y
1e
#2595000000
0#
0/
10
04
05
0A
0M
0Y
0e
#2600000000
1#
1%
b0010000001111001011110100110000101101100001000000110010101101000 '
b1000 (
1*
b0010000001111001011110100110000101101100001000000110010101101000 ,
b000 -
1/
00
14
15
17
b0010000001111001011110100110000101101100001000000110010101101000 :
b1000 ;
1A
1C
b0010000001111001011110100110000101101100001000000110010101101000 F
b1000 G
1M
1O
b0010000001111001011110100110000101101100001000000110010101101000 Q
b1000 R
1T
b0010000001111001011110100110000101101100001000000110010101101000 V
b000 W
1Y
1[
b0010000001111001011110100110000101101100001000000110010101101000 ^
b000 _
1e
1g
b0010000001111001011110100110000101101100001000000110010101101000 j
b000 k
#2605000000
0#
0/
10
04
05
0A
0M
0Y
0e
#2610000000
1#
0%
0&
0*
0+
1/
00
14
15
07
08
1A
0C
0D
1M
0O
0P
0T
0U
1Y
0[
0\
1e
0g
0h
#2615000000
0#
0/
10
04
05
0A
0M
0Y
0e
#2620000000
1#
1/
00
14
15
1A
1M
1Y
1e
#2625000000
0#
0/
10
04
05
0A
0M
0Y
0e
#2630000000
1#
1/
00
14
15
1A
1M
1Y
1e
#2635000000
0#
0/
10
04
05
0A
0M
0Y
0e
#2640000000
1#
1%
1&
bUUUUUUUUUUUUUUUUUUUUUUUUUUUUUUUUUUUUUUUU011001110110111101100100 '
b0011 (
1)
1*
1+
bUUUUUUUUUUUUUUUUUUUUUUUUUUUUUUUUUUUUUUUU011001110110111101100100 ,
b011 -
1.
1/
00
14
15
17
18
bUUUUUUUUUUUUUUUUUUUUUUUUUUUUUUUUUUUUUUUU011001110110111101100100 :
b0011 ;
1<
1A
1C
1D
bUUUUUUUUUUUUUUUUUUUUUUUUUUUUUUUUUUUUUUUU011001110110111101100100 F
b0011 G
1H
1M
1O
1P
bUUUUUUUUUUUUUUUUUUUUUUUUUUUUUUUUUUUUUUUU011001110110111101100100 Q
b0011 R
1S
1T
1U
bUUUUUUUUUUUUUUUUUUUUUUUUUUUUUUUUUUUUUUUU011001110110111101100100 V
b011 W
1X
1Y
1[
1\
bUUUUUUUUUUUUUUUUUUUUUUUUUUUUUUUUUUUUUUUU011001110110111101100100 ^
b011 _
1`
1e
1g
1h
bUUUUUUUUUUUUUUUUUUUUUUUUUUUUUUUUUUUUUUUU011001110110111101100100 j
b011 k
1l
#2645000000
0#
0/
10
04
05
0A
0M
0Y
0e
#2650000000
1#
0&
b0110001101101001011101010111000100100000011001010110100001010100 '
b1000 (
0)
0+
b0110001101101001011101010111000100100000011001010110100001010100 ,
b000 -
0.
1/
00
14
15
08
b0110001101101001011101010111000100100000011001010110100001010100 :
b1000 ;
0<
1A
0D
b0110001101101001011101010111000100100000011001010110100001010100 F
b1000 G
0H
1M
0P
b0110001101101001011101010111000100100000011001010110100001010100 Q
b1000 R
0S
0U
b0110001101101001011101010111000100100000011001010110100001010100 V
b000 W
0X
1Y
0\
b0110001101101001011101010111000100100000011001010110100001010100 ^
b000 _
0`
1e
0h
b0110001101101001011101010111000100100000011001010110100001010100 j
b000 k
0l
#2655000000
0#
0/
10
04
05
0A
0M
0Y
0e
#2660000000
1#
1/
00
14
15
1A
1M
1Y
1e
#2665000000
0#
0/
10
04
05
0A
0M
0Y
0e
#2670000000
1#
1/
00
14
15
1A
1M
1Y
1e
#2675000000
0#
0/
10
04
05
0A
0M
0Y
0e
#2680000000
1#
1/
00
14
15
1A
1M
1Y
1e
#2685000000
0#
0/
10
04
05
0A
0M
0Y
0e
#2690000000
1#
1&
1+
1/
00
14
15
18
1A
1D
1M
1P
1U
1Y
1\
1e
1h
#2695000000
0#
0/
10
04
05
0A
0M
0Y
0e
#2700000000
1#
bUUUUUUUUUUUUUUUUUUUUUUUUUUUUUUUUUUUUUUUUUUUUUUUU0010000001101011 '
b0010 (
bUUUUUUUUUUUUUUUUUUUUUUUUUUUUUUUUUUUUUUUUUUUUUUUU0010000001101011 ,
b010 -
1/
00
14
15
bUUUUUUUUUUUUUUUUUUUUUUUUUUUUUUUUUUUUUUUUUUUUUUUU0010000001101011 :
b0010 ;
1A
bUUUUUUUUUUUUUUUUUUUUUUUUUUUUUUUUUUUUUUUUUUUUUUUU0010000001101011 F
b0010 G
1M
bUUUUUUUUUUUUUUUUUUUUUUUUUUUUUUUUUUUUUUUUUUUUUUUU0010000001101011 Q
b0010 R
bUUUUUUUUUUUUUUUUUUUUUUUUUUUUUUUUUUUUUUUUUUUUUUUU0010000001101011 V
b010 W
1Y
bUUUUUUUUUUUUUUUUUUUUUUUUUUUUUUUUUUUUUUUUUUUUUUUU0010000001101011 ^
b010 _
1e
bUUUUUUUUUUUUUUUUUUUUUUUUUUUUUUUUUUUUUUUUUUUUUUUU0010000001101011 j
b010 k
#2705000000
0#
0/
10
04
05
0A
0M
0Y
0e
#2710000000
1#
bUUUUUUUU01100110001000000110111001110111011011110111001001100010 '
b0111 (
bUUUUUUUU01100110001000000110111001110111011011110111001001100010 ,
b111 -
1/
00
14
15
bUUUUUUUU01100110001000000110111001110111011011110111001001100010 :
b0111 ;
1A
bUUUUUUUU01100110001000000110111001110111011011110111001001100010 F
b0111 G
1M
bUUUUUUUU01100110001000000110111001110111011011110111001001100010 Q
b0111 R
bUUUUUUUU01100110001000000110111001110111011011110111001001100010 V
b111 W
1Y
bUUUUUUUU01100110001000000110111001110111011011110111001001100010 ^
b111 _
1e
bUUUUUUUU01100110001000000110111001110111011011110111001001100010 j
b111 k
#2715000000
0#
0/
10
04
05
0A
0M
0Y
0e
#2720000000
1#
0%
0*
1/
00
14
15
07
1A
0C
1M
0O
0T
1Y
0[
1e
0g
#2725000000
0#
0/
10
04
05
0A
0M
0Y
0e
#2730000000
1#
1/
00
14
15
1A
1M
1Y
1e
#2735000000
0#
0/
10
04
05
0A
0M
0Y
0e
#2740000000
1#
1%
b0111001101110000011011010111010101101010001000000111100001101111 '
b1000 (
1*
b0111001101110000011011010111010101101010001000000111100001101111 ,
b000 -
1/
00
14
15
17
b0111001101110000011011010111010101101010001000000111100001101111 :
b1000 ;
1A
1C
b0111001101110000011011010111010101101010001000000111100001101111 F
b1000 G
1M
1O
b0111001101110000011011010111010101101010001000000111100001101111 Q
b1000 R
1T
b0111001101110000011011010111010101101010001000000111100001101111 V
b000 W
1Y
1[
b0111001101110000011011010111010101101010001000000111100001101111 ^
b000 _
1e
1g
b0111001101110000011011010111010101101010001000000111100001101111 j
b000 k
#2745000000
0#
0/
10
04
05
0A
0M
0Y
0e
#2750000000
1#
bUUUUUUUUUUUUUUUU001000000111001001100101011101100110111100100000 '
b0110 (
bUUUUUUUUUUUUUUUU001000000111001001100101011101100110111100100000 ,
b110 -
1/
00
14
15
bUUUUUUUUUUUUUUUU001000000111001001100101011101100110111100100000 :
b0110 ;
1A
bUUUUUUUUUUUUUUUU001000000111001001100101011101100110111100100000 F
b0110 G
1M
bUUUUUUUUUUUUUUUU001000000111001001100101011101100110111100100000 Q
b0110 R
bUUUUUUUUUUUUUUUU001000000111001001100101011101100110111100100000 V
b110 W
1Y
bUUUUUUUUUUUUUUUU001000000111001001100101011101100110111100100000 ^
b110 _
1e
bUUUUUUUUUUUUUUUU001000000111001001100101011101100110111100100000 j
b110 k
#2755000000
0#
0/
10
04
05
0A
0M
0Y
0e
#2760000000
1#
0%
0&
0*
0+
1/
00
14
15
07
08
1A
0C
0D
1M
0O
0P
0T
0U
1Y
0[
0\
1e
0g
0h
#2765000000
0#
0/
10
04
05
0A
0M
0Y
0e
#2770000000
1#
1&
1+
1/
00
14
15
18
1A
1D
1M
1P
1U
1Y
1\
1e
1h
#2775000000
0#
0/
10
04
05
0A
0M
0Y
0e
#2780000000
1#
1/
00
14
15
1A
1M
1Y
1e
#2785000000
0#
0/
10
04
05
0A
0M
0Y
0e
#2790000000
1#
1/
00
14
15
1A
1M
1Y
1e
#2795000000
0#
0/
10
04
05
0A
0M
0Y
0e
