tests/complex/vhlib/wave/work.streamfifo_reduce_tc.vcd
$date
  Wed Jun 19 10:58:20 2019
$end
$version
  GHDL v0
$end
$timescale
  1 fs
$end
$scope module standard $end
$upscope $end
$scope module textio $end
$upscope $end
$scope module std_logic_1164 $end
$upscope $end
$scope module numeric_std $end
$upscope $end
$scope module math_real $end
$upscope $end
$scope module testcase_pkg $end
$var reg 1 ! test $end
$var reg 1 " tc_model_init $end
$upscope $end
$scope module simdatacomms_pkg $end
$upscope $end
$scope module streammonitor_pkg $end
$upscope $end
$scope module streamsource_pkg $end
$upscope $end
$scope module streamsink_pkg $end
$upscope $end
$scope module std_logic_misc $end
$upscope $end
$scope module stream_pkg $end
$upscope $end
$scope module clockgen_pkg $end
$upscope $end
$scope module utilint_pkg $end
$upscope $end
$scope module utilram_pkg $end
$upscope $end
$scope module streamfifo_reduce_tc $end
$scope module tv $end
$upscope $end
$scope module tb $end
$var reg 1 # in_clk $end
$var reg 1 $ in_reset $end
$var reg 1 % out_clk $end
$var reg 1 & out_reset $end
$var reg 1 ' a_valid $end
$var reg 1 ( a_ready $end
$var reg 8 ) a_data[7:0] $end
$var reg 1 * b_valid $end
$var reg 1 + b_ready $end
$var reg 8 , b_data[7:0] $end
$scope module clkgen_in $end
$var reg 1 - clk $end
$var reg 1 . clk_n $end
$var reg 1 / reset $end
$var reg 1 0 reset_n $end
$var reg 1 1 sync $end
$var reg 1 2 clk_i $end
$upscope $end
$scope module clkgen_out $end
$var reg 1 3 clk $end
$var reg 1 4 clk_n $end
$var reg 1 5 reset $end
$var reg 1 6 reset_n $end
$var reg 1 7 sync $end
$var reg 1 8 clk_i $end
$upscope $end
$scope module a_source $end
$var reg 1 9 clk $end
$var reg 1 : reset $end
$var reg 1 ; valid $end
$var reg 1 < ready $end
$var reg 1 = dvalid $end
$var reg 8 > data[7:0] $end
$var reg 1 ? count[0:0] $end
$var reg 1 @ last $end
$var reg 1 A ctrl[0:0] $end
$var reg 1 B x[0:0] $end
$var reg 1 C y[0:0] $end
$var reg 1 D z[0:0] $end
$scope module monitor $end
$var reg 1 E clk $end
$var reg 1 F reset $end
$var reg 1 G valid $end
$var reg 1 H ready $end
$var reg 1 I dvalid $end
$var reg 8 J data[7:0] $end
$var reg 1 K count[0:0] $end
$var reg 1 L last $end
$var reg 1 M ctrl[0:0] $end
$var reg 1 N x[0:0] $end
$var reg 1 O y[0:0] $end
$var reg 1 P z[0:0] $end
$upscope $end
$upscope $end
$scope module uut $end
$var reg 1 Q in_clk $end
$var reg 1 R in_reset $end
$var reg 1 S in_valid $end
$var reg 1 T in_ready $end
$var reg 8 U in_data[7:0] $end
$var reg 6 V in_rptr[5:0] $end
$var reg 6 W in_wptr[5:0] $end
$var reg 1 X out_clk $end
$var reg 1 Y out_reset $end
$var reg 1 Z out_valid $end
$var reg 1 [ out_ready $end
$var reg 8 \ out_data[7:0] $end
$var reg 6 ] out_rptr[5:0] $end
$var reg 6 ^ out_wptr[5:0] $end
$var reg 6 _ in_rptr_s[5:0] $end
$var reg 6 ` in_wptr_s[5:0] $end
$var reg 6 a out_rptr_s[5:0] $end
$var reg 6 b out_wptr_s[5:0] $end
$var reg 1 c in_full $end
$var reg 1 d in_next $end
$var reg 1 e out_nonempty $end
$var reg 1 f out_next $end
$var reg 8 g out_readdata[7:0] $end
$var reg 1 h out_readvalid $end
$var reg 8 i out_bufdata[7:0] $end
$var reg 1 j out_bufvalid $end
$scope module wptr_inst $end
$var reg 1 k a_clk $end
$var reg 1 l a_reset $end
$var reg 1 m a_increment $end
$var reg 6 n a_counter[5:0] $end
$var reg 1 o b_clk $end
$var reg 1 p b_reset $end
$var reg 6 q b_counter[5:0] $end
$var reg 6 r a_counter_s[5:0] $end
$scope module with_xclk $end
$var reg 6 s a_gray[5:0] $end
$comment b_gray is not handled $end
$upscope $end
$upscope $end
$scope module ram_inst $end
$var reg 1 t w_clk $end
$var reg 1 u w_ena $end
$var reg 5 v w_addr[4:0] $end
$var reg 8 w w_data[7:0] $end
$var reg 1 x r_clk $end
$var reg 1 y r_ena $end
$var reg 5 z r_addr[4:0] $end
$var reg 8 { r_data[7:0] $end
$comment mem is not handled $end
$upscope $end
$scope module rptr_inst $end
$var reg 1 | a_clk $end
$var reg 1 } a_reset $end
$var reg 1 !" a_increment $end
$var reg 6 "" a_counter[5:0] $end
$var reg 1 #" b_clk $end
$var reg 1 $" b_reset $end
$var reg 6 %" b_counter[5:0] $end
$var reg 6 &" a_counter_s[5:0] $end
$scope module with_xclk $end
$var reg 6 '" a_gray[5:0] $end
$comment b_gray is not handled $end
$upscope $end
$upscope $end
$upscope $end
$scope module b_sink $end
$var reg 1 (" clk $end
$var reg 1 )" reset $end
$var reg 1 *" valid $end
$var reg 1 +" ready $end
$var reg 1 ," dvalid $end
$var reg 8 -" data[7:0] $end
$var reg 1 ." count[0:0] $end
$var reg 1 /" last $end
$var reg 1 0" ctrl[0:0] $end
$var reg 1 1" x[0:0] $end
$var reg 1 2" y[0:0] $end
$var reg 1 3" z[0:0] $end
$scope module monitor $end
$var reg 1 4" clk $end
$var reg 1 5" reset $end
$var reg 1 6" valid $end
$var reg 1 7" ready $end
$var reg 1 8" dvalid $end
$var reg 8 9" data[7:0] $end
$var reg 1 :" count[0:0] $end
$var reg 1 ;" last $end
$var reg 1 <" ctrl[0:0] $end
$var reg 1 =" x[0:0] $end
$var reg 1 >" y[0:0] $end
$var reg 1 ?" z[0:0] $end
$upscope $end
$upscope $end
$upscope $end
$upscope $end
$enddefinitions $end
#0
1!
1"
0#
1$
0%
1&
U'
U(
bUUUUUUUU )
U*
U+
bUUUUUUUU ,
0-
1.
1/
00
01
02
03
14
15
06
07
08
09
1:
U;
U<
U=
bUUUUUUUU >
bU ?
U@
bU A
bU B
bU C
bU D
0E
1F
UG
UH
UI
bUUUUUUUU J
bU K
UL
bU M
bU N
bU O
bU P
0Q
1R
US
UT
bUUUUUUUU U
bUUUUUU V
bUUUUUU W
0X
1Y
UZ
U[
bUUUUUUUU \
bUUUUUU ]
bUUUUUU ^
bUUUUUU _
bUUUUUU `
bUUUUUU a
bUUUUUU b
0c
Ud
0e
0f
bUUUUUUUU g
Uh
bUUUUUUUU i
Uj
0k
1l
Um
bUUUUUU n
0o
1p
bUUUUUU q
bUUUUUU r
bUUUUUU s
0t
Uu
bUUUUU v
bUUUUUUUU w
0x
0y
bUUUUU z
bUUUUUUUU {
0|
1}
0!"
bUUUUUU ""
0#"
1$"
bUUUUUU %"
bUUUUUU &"
bUUUUUU '"
0("
1)"
U*"
U+"
1,"
bUUUUUUUU -"
b1 ."
1/"
b0 0"
b0 1"
b0 2"
b0 3"
04"
15"
U6"
U7"
18"
bUUUUUUUU 9"
b1 :"
1;"
b0 <"
b0 ="
b0 >"
b0 ?"
#500000000
#600000000
#1000000000
11
17
#2000000000
1#
1%
0'
0(
0*
0+
1-
0.
01
12
13
04
07
18
19
0;
0<
U=
bUUUUUUUU >
bU ?
U@
bU A
bU B
bU C
bU D
1E
0G
0H
1Q
0S
0T
b000000 V
b000000 W
1X
0Z
0[
b000000 ]
b000000 ^
b000000 _
b000000 `
b000000 a
b000000 b
0d
0h
0j
1k
0m
b000000 n
1o
b000000 q
b000000 r
b000000 s
1t
0u
b00000 v
1x
b00000 z
1|
b000000 ""
1#"
b000000 %"
b000000 &"
b000000 '"
1("
0*"
0+"
14"
06"
07"
#2001100000
0#
0-
1.
02
09
0E
0Q
0k
0t
0#"
#2002200000
1#
1-
0.
12
19
1E
1Q
1k
1t
1#"
#2003300000
0#
0-
1.
02
09
0E
0Q
0k
0t
0#"
#2004400000
1#
1-
0.
12
19
1E
1Q
1k
1t
1#"
#2005000000
0%
03
14
08
0X
0o
0x
0|
0("
04"
#2005500000
0#
0-
1.
02
09
0E
0Q
0k
0t
0#"
#2006600000
1#
1-
0.
12
19
1E
1Q
1k
1t
1#"
#2007700000
0#
0-
1.
02
09
0E
0Q
0k
0t
0#"
#2008800000
1#
1-
0.
12
19
1E
1Q
1k
1t
1#"
#2009900000
0#
0-
1.
02
09
0E
0Q
0k
0t
0#"
#2010000000
1%
13
04
18
1X
1o
1x
1|
1("
14"
#2011000000
1#
1-
0.
12
19
1E
1Q
1k
1t
1#"
#2012100000
0#
0-
1.
02
09
0E
0Q
0k
0t
0#"
#2013200000
1#
1-
0.
12
19
1E
1Q
1k
1t
1#"
#2014300000
0#
0-
1.
02
09
0E
0Q
0k
0t
0#"
#2015000000
0%
03
14
08
0X
0o
0x
0|
0("
04"
#2015400000
1#
1-
0.
12
19
1E
1Q
1k
1t
1#"
#2016500000
0#
0-
1.
02
09
0E
0Q
0k
0t
0#"
#2017600000
1#
1-
0.
12
19
1E
1Q
1k
1t
1#"
#2018700000
0#
0-
1.
02
09
0E
0Q
0k
0t
0#"
#2019800000
1#
1-
0.
12
19
1E
1Q
1k
1t
1#"
#2020000000
1%
13
04
18
1X
1o
1x
1|
1("
14"
#2020900000
0#
0-
1.
02
09
0E
0Q
0k
0t
0#"
#2022000000
1#
0$
1-
0.
0/
10
12
19
0:
1E
0F
1Q
0R
1k
0l
1t
1#"
0$"
#2023100000
0#
0-
1.
02
09
0E
0Q
0k
0t
0#"
#2024200000
1#
1-
0.
12
19
1E
1Q
1k
1t
1#"
#2025000000
0%
03
14
08
0X
0o
0x
0|
0("
04"
#2025300000
0#
0-
1.
02
09
0E
0Q
0k
0t
0#"
#2026400000
1#
1-
0.
12
19
1E
1Q
1k
1t
1#"
#2027500000
0#
0-
1.
02
09
0E
0Q
0k
0t
0#"
#2028600000
1#
1-
0.
12
19
1E
1Q
1k
1t
1#"
#2029700000
0#
0-
1.
02
09
0E
0Q
0k
0t
0#"
#2030000000
1%
13
04
18
1X
1o
1x
1|
1("
14"
#2030800000
1#
1-
0.
12
19
1E
1Q
1k
1t
1#"
#2031900000
0#
0-
1.
02
09
0E
0Q
0k
0t
0#"
#2033000000
1#
1-
0.
12
19
1E
1Q
1k
1t
1#"
#2034100000
0#
0-
1.
02
09
0E
0Q
0k
0t
0#"
#2035000000
0%
03
14
08
0X
0o
0x
0|
0("
04"
#2035200000
1#
1-
0.
12
19
1E
1Q
1k
1t
1#"
#2036300000
0#
0-
1.
02
09
0E
0Q
0k
0t
0#"
#2037400000
1#
1-
0.
12
19
1E
1Q
1k
1t
1#"
#2038500000
0#
0-
1.
02
09
0E
0Q
0k
0t
0#"
#2039600000
1#
1-
0.
12
19
1E
1Q
1k
1t
1#"
#2040000000
1%
13
04
18
1X
1o
1x
1|
1("
14"
#2040700000
0#
0-
1.
02
09
0E
0Q
0k
0t
0#"
#2041800000
1#
1-
0.
12
19
1E
1Q
1k
1t
1#"
#2042900000
0#
0-
1.
02
09
0E
0Q
0k
0t
0#"
#2044000000
1#
1-
0.
12
19
1E
1Q
1k
1t
1#"
#2045000000
0%
03
14
08
0X
0o
0x
0|
0("
04"
#2045100000
0#
0-
1.
02
09
0E
0Q
0k
0t
0#"
#2046200000
1#
1-
0.
12
19
1E
1Q
1k
1t
1#"
#2047300000
0#
0-
1.
02
09
0E
0Q
0k
0t
0#"
#2048400000
1#
1-
0.
12
19
1E
1Q
1k
1t
1#"
#2049500000
0#
0-
1.
02
09
0E
0Q
0k
0t
0#"
#2050000000
1%
13
04
18
1X
1o
1x
1|
1("
14"
#2050600000
1#
1-
0.
12
19
1E
1Q
1k
1t
1#"
#2051700000
0#
0-
1.
02
09
0E
0Q
0k
0t
0#"
#2052800000
1#
1-
0.
12
19
1E
1Q
1k
1t
1#"
#2053900000
0#
0-
1.
02
09
0E
0Q
0k
0t
0#"
#2055000000
1#
0%
1-
0.
12
03
14
08
19
1E
1Q
0X
1k
0o
1t
0x
0|
1#"
0("
04"
#2056100000
0#
0-
1.
02
09
0E
0Q
0k
0t
0#"
#2057200000
1#
1-
0.
12
19
1E
1Q
1k
1t
1#"
#2058300000
0#
0-
1.
02
09
0E
0Q
0k
0t
0#"
#2059400000
1#
1-
0.
12
19
1E
1Q
1k
1t
1#"
#2060000000
1%
13
04
18
1X
1o
1x
1|
1("
14"
#2060500000
0#
0-
1.
02
09
0E
0Q
0k
0t
0#"
#2061600000
1#
1-
0.
12
19
1E
1Q
1k
1t
1#"
#2062700000
0#
0-
1.
02
09
0E
0Q
0k
0t
0#"
#2063800000
1#
1-
0.
12
19
1E
1Q
1k
1t
1#"
#2064900000
0#
0-
1.
02
09
0E
0Q
0k
0t
0#"
#2065000000
0%
03
14
08
0X
0o
0x
0|
0("
04"
#2066000000
1#
1-
0.
12
19
1E
1Q
1k
1t
1#"
#2067100000
0#
0-
1.
02
09
0E
0Q
0k
0t
0#"
#2068200000
1#
1-
0.
12
19
1E
1Q
1k
1t
1#"
#2069300000
0#
0-
1.
02
09
0E
0Q
0k
0t
0#"
#2070000000
1%
13
04
18
1X
1o
1x
1|
1("
14"
#2070400000
1#
1-
0.
12
19
1E
1Q
1k
1t
1#"
#2071500000
0#
0-
1.
02
09
0E
0Q
0k
0t
0#"
#2072600000
1#
1-
0.
12
19
1E
1Q
1k
1t
1#"
#2073700000
0#
0-
1.
02
09
0E
0Q
0k
0t
0#"
#2074800000
1#
1-
0.
12
19
1E
1Q
1k
1t
1#"
#2075000000
0%
03
14
08
0X
0o
0x
0|
0("
04"
#2075900000
0#
0-
1.
02
09
0E
0Q
0k
0t
0#"
#2077000000
1#
1-
0.
12
19
1E
1Q
1k
1t
1#"
#2078100000
0#
0-
1.
02
09
0E
0Q
0k
0t
0#"
#2079200000
1#
1-
0.
12
19
1E
1Q
1k
1t
1#"
#2080000000
1%
13
04
18
1X
1o
1x
1|
1("
14"
#2080300000
0#
0-
1.
02
09
0E
0Q
0k
0t
0#"
#2081400000
1#
1-
0.
12
19
1E
1Q
1k
1t
1#"
#2082500000
0#
0-
1.
02
09
0E
0Q
0k
0t
0#"
#2083600000
1#
1-
0.
12
19
1E
1Q
1k
1t
1#"
#2084700000
0#
0-
1.
02
09
0E
0Q
0k
0t
0#"
#2085000000
0%
03
14
08
0X
0o
0x
0|
0("
04"
#2085800000
1#
1-
0.
12
19
1E
1Q
1k
1t
1#"
#2086900000
0#
0-
1.
02
09
0E
0Q
0k
0t
0#"
#2088000000
1#
1-
0.
12
19
1E
1Q
1k
1t
1#"
#2089100000
0#
0-
1.
02
09
0E
0Q
0k
0t
0#"
#2090000000
1%
13
04
18
1X
1o
1x
1|
1("
14"
#2090200000
1#
1-
0.
12
19
1E
1Q
1k
1t
1#"
#2091300000
0#
0-
1.
02
09
0E
0Q
0k
0t
0#"
#2092400000
1#
1-
0.
12
19
1E
1Q
1k
1t
1#"
#2093500000
0#
0-
1.
02
09
0E
0Q
0k
0t
0#"
#2094600000
1#
1-
0.
12
19
1E
1Q
1k
1t
1#"
#2095000000
0%
03
14
08
0X
0o
0x
0|
0("
04"
#2095700000
0#
0-
1.
02
09
0E
0Q
0k
0t
0#"
#2096800000
1#
1-
0.
12
19
1E
1Q
1k
1t
1#"
#2097900000
0#
0-
1.
02
09
0E
0Q
0k
0t
0#"
#2099000000
1#
1-
0.
12
19
1E
1Q
1k
1t
1#"
#2100000000
1%
0&
13
04
05
16
18
1X
0Y
1o
0p
1x
1|
0}
1("
0)"
14"
05"
#2100100000
0#
0-
1.
02
09
0E
0Q
0k
0t
0#"
#2101200000
1#
1-
0.
12
19
1E
1Q
1k
1t
1#"
#2102300000
0#
0-
1.
02
09
0E
0Q
0k
0t
0#"
#2103400000
1#
1-
0.
12
19
1E
1Q
1k
1t
1#"
#2104500000
0#
0-
1.
02
09
0E
0Q
0k
0t
0#"
#2105000000
Z"
0%
03
14
08
0X
0o
0x
0|
0("
04"
#2105600000
1#
1'
1(
b01010100 )
1-
0.
12
19
1;
1<
1=
b01010100 >
b1 ?
0@
1E
1G
1H
1I
b01010100 J
b1 K
0L
1Q
1S
1T
b01010100 U
1d
1k
1m
1t
1u
b01010100 w
1#"
#2106700000
0#
0-
1.
02
09
0E
0Q
0k
0t
0#"
#2107800000
1#
b01101000 )
1-
0.
12
19
b01101000 >
1E
b01101000 J
1Q
b01101000 U
b000001 W
b000001 `
1k
b000001 n
b000001 r
1t
b00001 v
b01101000 w
1#"
#2108900000
0#
0-
1.
02
09
0E
0Q
0k
0t
0#"
#2110000000
1#
1%
b01100101 )
1+
b01010100 ,
1-
0.
12
13
04
18
19
b01100101 >
1E
b01100101 J
1Q
b01100101 U
b000010 W
1X
1[
b01010100 \
b000010 `
b01010100 g
1k
b000010 n
1o
b000010 r
b000001 s
1t
b00010 v
b01100101 w
1x
b01010100 {
1|
1#"
1("
1+"
b01010100 -"
14"
17"
b01010100 9"
#2111100000
0#
0-
1.
02
09
0E
0Q
0k
0t
0#"
#2112200000
1#
b00100000 )
1-
0.
12
19
b00100000 >
1E
b00100000 J
1Q
b00100000 U
b000011 W
b000011 `
1k
b000011 n
b000011 r
b000011 s
1t
b00011 v
b00100000 w
1#"
#2113300000
0#
0-
1.
02
09
0E
0Q
0k
0t
0#"
#2114400000
1#
b01110001 )
1-
0.
12
19
b01110001 >
1E
b01110001 J
1Q
b01110001 U
b000100 W
b000100 `
1k
b000100 n
b000100 r
b000010 s
1t
b00100 v
b01110001 w
1#"
#2115000000
0%
03
14
08
0X
0o
0x
0|
0("
04"
#2115500000
0#
0-
1.
02
09
0E
0Q
0k
0t
0#"
#2116600000
1#
b01110101 )
1-
0.
12
19
b01110101 >
1E
b01110101 J
1Q
b01110101 U
b000101 W
b000101 `
1k
b000101 n
b000101 r
b000110 s
1t
b00101 v
b01110101 w
1#"
#2117700000
0#
0-
1.
02
09
0E
0Q
0k
0t
0#"
#2118800000
1#
b01101001 )
1-
0.
12
19
b01101001 >
1E
b01101001 J
1Q
b01101001 U
b000110 W
b000110 `
1k
b000110 n
b000110 r
b000111 s
1t
b00110 v
b01101001 w
1#"
#2119900000
0#
0-
1.
02
09
0E
0Q
0k
0t
0#"
#2120000000
1%
13
04
18
1X
1o
1x
1|
1("
14"
#2121000000
1#
b01100011 )
1-
0.
12
19
b01100011 >
1E
b01100011 J
1Q
b01100011 U
b000111 W
b000111 `
1k
b000111 n
b000111 r
b000101 s
1t
b00111 v
b01100011 w
1#"
#2122100000
0#
0-
1.
02
09
0E
0Q
0k
0t
0#"
#2123200000
1#
b01101011 )
1-
0.
12
19
b01101011 >
1E
b01101011 J
1Q
b01101011 U
b001000 W
b001000 `
1k
b001000 n
b001000 r
b000100 s
1t
b01000 v
b01101011 w
1#"
#2124300000
0#
0-
1.
02
09
0E
0Q
0k
0t
0#"
#2125000000
0%
03
14
08
0X
0o
0x
0|
0("
04"
#2125400000
1#
b00100000 )
1-
0.
12
19
b00100000 >
1E
b00100000 J
1Q
b00100000 U
b001001 W
b001001 `
1k
b001001 n
b001001 r
b001100 s
1t
b01001 v
b00100000 w
1#"
#2126500000
0#
0-
1.
02
09
0E
0Q
0k
0t
0#"
#2127600000
1#
b01100010 )
1-
0.
12
19
b01100010 >
1E
b01100010 J
1Q
b01100010 U
b001010 W
b001010 `
1k
b001010 n
b001010 r
b001101 s
1t
b01010 v
b01100010 w
1#"
#2128700000
0#
0-
1.
02
09
0E
0Q
0k
0t
0#"
#2129800000
1#
b01110010 )
1-
0.
12
19
b01110010 >
1E
b01110010 J
1Q
b01110010 U
b001011 W
b001011 `
1k
b001011 n
b001011 r
b001111 s
1t
b01011 v
b01110010 w
1#"
#2130000000
1%
13
04
18
1X
b000101 ^
b000101 b
1e
1f
1o
b000101 q
1x
1y
1|
1!"
1("
14"
#2130900000
0#
0-
1.
02
09
0E
0Q
0k
0t
0#"
#2132000000
1#
b01101111 )
1-
0.
12
19
b01101111 >
1E
b01101111 J
1Q
b01101111 U
b001100 W
b001100 `
1k
b001100 n
b001100 r
b001110 s
1t
b01100 v
b01101111 w
1#"
#2133100000
0#
0-
1.
02
09
0E
0Q
0k
0t
0#"
#2134200000
1#
b01110111 )
1-
0.
12
19
b01110111 >
1E
b01110111 J
1Q
b01110111 U
b001101 W
b001101 `
1k
b001101 n
b001101 r
b001010 s
1t
b01101 v
b01110111 w
1#"
#2135000000
0%
03
14
08
0X
0o
0x
0|
0("
04"
#2135300000
0#
0-
1.
02
09
0E
0Q
0k
0t
0#"
#2136400000
1#
b01101110 )
1-
0.
12
19
b01101110 >
1E
b01101110 J
1Q
b01101110 U
b001110 W
b001110 `
1k
b001110 n
b001110 r
b001011 s
1t
b01110 v
b01101110 w
1#"
#2137500000
0#
0-
1.
02
09
0E
0Q
0k
0t
0#"
#2138600000
1#
b00100000 )
1-
0.
12
19
b00100000 >
1E
b00100000 J
1Q
b00100000 U
b001111 W
b001111 `
1k
b001111 n
b001111 r
b001001 s
1t
b01111 v
b00100000 w
1#"
#2139700000
0#
0-
1.
02
09
0E
0Q
0k
0t
0#"
#2140000000
1%
1*
13
04
18
1X
1Z
b000001 ]
b001010 ^
b000001 a
b001010 b
1h
1o
b001010 q
1x
b00001 z
1|
b000001 ""
b000001 &"
1("
1*"
14"
16"
#2140800000
1#
b01100110 )
1-
0.
12
19
b01100110 >
1E
b01100110 J
1Q
b01100110 U
b010000 W
b010000 `
1k
b010000 n
b010000 r
b001000 s
1t
b10000 v
b01100110 w
1#"
#2141900000
0#
0-
1.
02
09
0E
0Q
0k
0t
0#"
#2143000000
1#
b01101111 )
1-
0.
12
19
b01101111 >
1E
b01101111 J
1Q
b01101111 U
b010001 W
b010001 `
1k
b010001 n
b010001 r
b011000 s
1t
b10001 v
b01101111 w
1#"
#2144100000
0#
0-
1.
02
09
0E
0Q
0k
0t
0#"
#2145000000
0%
03
14
08
0X
0o
0x
0|
0("
04"
#2145200000
1#
b01111000 )
1-
0.
12
19
b01111000 >
1E
b01111000 J
1Q
b01111000 U
b010010 W
b010010 `
1k
b010010 n
b010010 r
b011001 s
1t
b10010 v
b01111000 w
1#"
#2146300000
0#
0-
1.
02
09
0E
0Q
0k
0t
0#"
#2147400000
1#
b00100000 )
1-
0.
12
19
b00100000 >
1E
b00100000 J
1Q
b00100000 U
b010011 W
b010011 `
1k
b010011 n
b010011 r
b011011 s
1t
b10011 v
b00100000 w
1#"
#2148500000
0#
0-
1.
02
09
0E
0Q
0k
0t
0#"
#2149600000
1#
b01101010 )
1-
0.
12
19
b01101010 >
1E
b01101010 J
1Q
b01101010 U
b010100 W
b010100 `
1k
b010100 n
b010100 r
b011010 s
1t
b10100 v
b01101010 w
1#"
#2150000000
1%
b01101000 ,
13
04
18
1X
b01101000 \
b000010 ]
b001110 ^
b000010 a
b001110 b
b01101000 g
b01010100 i
1o
b001110 q
1x
b00010 z
b01101000 {
1|
b000010 ""
b000010 &"
b000001 '"
1("
b01101000 -"
14"
b01101000 9"
#2150700000
0#
0-
1.
02
09
0E
0Q
0k
0t
0#"
#2151800000
1#
b01110101 )
1-
0.
12
19
b01110101 >
1E
b01110101 J
1Q
b01110101 U
b010101 W
b010101 `
1k
b010101 n
b010101 r
b011110 s
1t
b10101 v
b01110101 w
1#"
#2152900000
0#
0-
1.
02
09
0E
0Q
0k
0t
0#"
#2154000000
1#
b01101101 )
1-
0.
12
19
b01101101 >
1E
b01101101 J
1Q
b01101101 U
b000001 V
b010110 W
b000001 _
b010110 `
1k
b010110 n
b010110 r
b011111 s
1t
b10110 v
b01101101 w
1#"
b000001 %"
#2155000000
0%
03
14
08
0X
0o
0x
0|
0("
04"
#2155100000
0#
0-
1.
02
09
0E
0Q
0k
0t
0#"
#2156200000
1#
b01110000 )
1-
0.
12
19
b01110000 >
1E
b01110000 J
1Q
b01110000 U
b010111 W
b010111 `
1k
b010111 n
b010111 r
b011101 s
1t
b10111 v
b01110000 w
1#"
#2157300000
0#
0-
1.
02
09
0E
0Q
0k
0t
0#"
#2158400000
1#
b01110011 )
1-
0.
12
19
b01110011 >
1E
b01110011 J
1Q
b01110011 U
b011000 W
b011000 `
1k
b011000 n
b011000 r
b011100 s
1t
b11000 v
b01110011 w
1#"
#2159500000
0#
0-
1.
02
09
0E
0Q
0k
0t
0#"
#2160000000
1%
b01100101 ,
13
04
18
1X
b01100101 \
b000011 ]
b010011 ^
b000011 a
b010011 b
b01100101 g
b01101000 i
1o
b010011 q
1x
b00011 z
b01100101 {
1|
b000011 ""
b000011 &"
b000011 '"
1("
b01100101 -"
14"
b01100101 9"
#2160600000
1#
b00100000 )
1-
0.
12
19
b00100000 >
1E
b00100000 J
1Q
b00100000 U
b011001 W
b011001 `
1k
b011001 n
b011001 r
b010100 s
1t
b11001 v
b00100000 w
1#"
#2161700000
0#
0-
1.
02
09
0E
0Q
0k
0t
0#"
#2162800000
1#
b01101111 )
1-
0.
12
19
b01101111 >
1E
b01101111 J
1Q
b01101111 U
b000010 V
b011010 W
b000010 _
b011010 `
1k
b011010 n
b011010 r
b010101 s
1t
b11010 v
b01101111 w
1#"
b000010 %"
#2163900000
0#
0-
1.
02
09
0E
0Q
0k
0t
0#"
#2165000000
1#
0%
b01110110 )
1-
0.
12
03
14
08
19
b01110110 >
1E
b01110110 J
1Q
b01110110 U
b011011 W
0X
b011011 `
1k
b011011 n
0o
b011011 r
b010111 s
1t
b11011 v
b01110110 w
0x
0|
1#"
0("
04"
#2166100000
0#
0-
1.
02
09
0E
0Q
0k
0t
0#"
#2167200000
1#
b01100101 )
1-
0.
12
19
b01100101 >
1E
b01100101 J
1Q
b01100101 U
b011100 W
b011100 `
1k
b011100 n
b011100 r
b010110 s
1t
b11100 v
b01100101 w
1#"
#2168300000
0#
0-
1.
02
09
0E
0Q
0k
0t
0#"
#2169400000
1#
b01110010 )
1-
0.
12
19
b01110010 >
1E
b01110010 J
1Q
b01110010 U
b011101 W
b011101 `
1k
b011101 n
b011101 r
b010010 s
1t
b11101 v
b01110010 w
1#"
#2170000000
1%
b00100000 ,
13
04
18
1X
b00100000 \
b000100 ]
b010111 ^
b000100 a
b010111 b
b00100000 g
b01100101 i
1o
b010111 q
1x
b00100 z
b00100000 {
1|
b000100 ""
b000100 &"
b000010 '"
1("
b00100000 -"
14"
b00100000 9"
#2170500000
0#
0-
1.
02
09
0E
0Q
0k
0t
0#"
#2171600000
1#
b00100000 )
1-
0.
12
19
b00100000 >
1E
b00100000 J
1Q
b00100000 U
b011110 W
b011110 `
1k
b011110 n
b011110 r
b010011 s
1t
b11110 v
b00100000 w
1#"
#2172700000
0#
0-
1.
02
09
0E
0Q
0k
0t
0#"
#2173800000
1#
b01110100 )
1-
0.
12
19
b01110100 >
1E
b01110100 J
1Q
b01110100 U
b000011 V
b011111 W
b000011 _
b011111 `
1k
b011111 n
b011111 r
b010001 s
1t
b11111 v
b01110100 w
1#"
b000011 %"
#2174900000
0#
0-
1.
02
09
0E
0Q
0k
0t
0#"
#2175000000
0%
03
14
08
0X
0o
0x
0|
0("
04"
#2176000000
1#
b01101000 )
1-
0.
12
19
b01101000 >
1E
b01101000 J
1Q
b01101000 U
b100000 W
b100000 `
1k
b100000 n
b100000 r
b010000 s
1t
b00000 v
b01101000 w
1#"
#2177100000
0#
0-
1.
02
09
0E
0Q
0k
0t
0#"
#2178200000
1#
b01100101 )
1-
0.
12
19
b01100101 >
1E
b01100101 J
1Q
b01100101 U
b100001 W
b100001 `
1k
b100001 n
b100001 r
b110000 s
1t
b00001 v
b01100101 w
1#"
#2179300000
0#
0-
1.
02
09
0E
0Q
0k
0t
0#"
#2180000000
1%
b01110001 ,
13
04
18
1X
b01110001 \
b000101 ]
b011100 ^
b000101 a
b011100 b
b01110001 g
b00100000 i
1o
b011100 q
1x
b00101 z
b01110001 {
1|
b000101 ""
b000101 &"
b000110 '"
1("
b01110001 -"
14"
b01110001 9"
#2180400000
1#
b00100000 )
1-
0.
12
19
b00100000 >
1E
b00100000 J
1Q
b00100000 U
b100010 W
b100010 `
1k
b100010 n
b100010 r
b110001 s
1t
b00010 v
b00100000 w
1#"
#2181500000
0#
0-
1.
02
09
0E
0Q
0k
0t
0#"
#2182600000
1#
b01101100 )
1-
0.
12
19
b01101100 >
1E
b01101100 J
1Q
b01101100 U
b000100 V
b100011 W
b000100 _
b100011 `
1k
b100011 n
b100011 r
b110011 s
1t
b00011 v
b01101100 w
1#"
b000100 %"
#2183700000
0#
0-
1.
02
09
0E
0Q
0k
0t
0#"
#2184800000
1#
0(
b01100001 )
1-
0.
12
19
0<
b01100001 >
1E
0H
b01100001 J
1Q
0T
b01100001 U
b100100 W
b100100 `
1c
0d
1k
0m
b100100 n
b100100 r
b110010 s
1t
0u
b00100 v
b01100001 w
1#"
#2185000000
0%
03
14
08
0X
0o
0x
0|
0("
04"
#2185900000
0#
0-
1.
02
09
0E
0Q
0k
0t
0#"
#2187000000
1#
1-
0.
12
19
1E
1Q
1k
b110110 s
1t
1#"
#2188100000
0#
0-
1.
02
09
0E
0Q
0k
0t
0#"
#2189200000
1#
1-
0.
12
19
1E
1Q
1k
1t
1#"
#2190000000
1%
b01110101 ,
13
04
18
1X
b01110101 \
b000110 ]
b100000 ^
b000110 a
b100000 b
b01110101 g
b01110001 i
1o
b100000 q
1x
b00110 z
b01110101 {
1|
b000110 ""
b000110 &"
b000111 '"
1("
b01110101 -"
14"
b01110101 9"
#2190300000
0#
0-
1.
02
09
0E
0Q
0k
0t
0#"
#2191400000
1#
1-
0.
12
19
1E
1Q
1k
1t
1#"
#2192500000
0#
0-
1.
02
09
0E
0Q
0k
0t
0#"
#2193600000
1#
1(
1-
0.
12
19
1<
1E
1H
1Q
1T
b000101 V
b000101 _
0c
1d
1k
1m
1t
1u
1#"
b000101 %"
#2194700000
0#
0-
1.
02
09
0E
0Q
0k
0t
0#"
#2195000000
0%
03
14
08
0X
0o
0x
0|
0("
04"
