tests/complex/vhlib/wave/work.streamelementcounter_8_3_63_6_tc.vcd
$date
  Wed Jun 19 10:58:19 2019
$end
$version
  GHDL v0
$end
$timescale
  1 fs
$end
$scope module standard $end
$upscope $end
$scope module textio $end
$upscope $end
$scope module std_logic_1164 $end
$upscope $end
$scope module numeric_std $end
$upscope $end
$scope module std_logic_misc $end
$upscope $end
$scope module stream_pkg $end
$upscope $end
$scope module math_real $end
$upscope $end
$scope module testcase_pkg $end
$var reg 1 ! test $end
$var reg 1 " tc_model_init $end
$upscope $end
$scope module simdatacomms_pkg $end
$upscope $end
$scope module clockgen_pkg $end
$upscope $end
$scope module streammonitor_pkg $end
$upscope $end
$scope module streamsource_pkg $end
$upscope $end
$scope module streamsink_pkg $end
$upscope $end
$scope module utilint_pkg $end
$upscope $end
$scope module streamelementcounter_8_3_63_6_tc $end
$scope module tv $end
$upscope $end
$scope module tb $end
$var reg 1 # clk $end
$var reg 1 $ reset $end
$var reg 1 % a_valid $end
$var reg 1 & a_ready $end
$var reg 1 ' a_dvalid $end
$var reg 3 ( a_count[2:0] $end
$var reg 1 ) a_last $end
$var reg 1 * b_valid $end
$var reg 1 + b_ready $end
$var reg 1 , b_dvalid $end
$var reg 6 - b_data[5:0] $end
$var reg 1 . b_last $end
$scope module clkgen $end
$var reg 1 / clk $end
$var reg 1 0 clk_n $end
$var reg 1 1 reset $end
$var reg 1 2 reset_n $end
$var reg 1 3 sync $end
$var reg 1 4 clk_i $end
$upscope $end
$scope module a_source $end
$var reg 1 5 clk $end
$var reg 1 6 reset $end
$var reg 1 7 valid $end
$var reg 1 8 ready $end
$var reg 1 9 dvalid $end
$var reg 64 : data[63:0] $end
$var reg 3 ; count[2:0] $end
$var reg 1 < last $end
$var reg 1 = ctrl[0:0] $end
$var reg 1 > x[0:0] $end
$var reg 1 ? y[0:0] $end
$var reg 1 @ z[0:0] $end
$scope module monitor $end
$var reg 1 A clk $end
$var reg 1 B reset $end
$var reg 1 C valid $end
$var reg 1 D ready $end
$var reg 1 E dvalid $end
$var reg 64 F data[63:0] $end
$var reg 3 G count[2:0] $end
$var reg 1 H last $end
$var reg 1 I ctrl[0:0] $end
$var reg 1 J x[0:0] $end
$var reg 1 K y[0:0] $end
$var reg 1 L z[0:0] $end
$upscope $end
$upscope $end
$scope module uut $end
$var reg 1 M clk $end
$var reg 1 N reset $end
$var reg 1 O in_valid $end
$var reg 1 P in_ready $end
$var reg 1 Q in_last $end
$var reg 3 R in_count[2:0] $end
$var reg 1 S in_dvalid $end
$var reg 1 T out_valid $end
$var reg 1 U out_ready $end
$var reg 6 V out_count[5:0] $end
$var reg 1 W out_last $end
$comment r is not handled $end
$comment d is not handled $end
$upscope $end
$scope module b_sink $end
$var reg 1 X clk $end
$var reg 1 Y reset $end
$var reg 1 Z valid $end
$var reg 1 [ ready $end
$var reg 1 \ dvalid $end
$var reg 6 ] data[5:0] $end
$var reg 1 ^ count[0:0] $end
$var reg 1 _ last $end
$var reg 1 ` ctrl[0:0] $end
$var reg 1 a x[0:0] $end
$var reg 1 b y[0:0] $end
$var reg 1 c z[0:0] $end
$scope module monitor $end
$var reg 1 d clk $end
$var reg 1 e reset $end
$var reg 1 f valid $end
$var reg 1 g ready $end
$var reg 1 h dvalid $end
$var reg 6 i data[5:0] $end
$var reg 1 j count[0:0] $end
$var reg 1 k last $end
$var reg 1 l ctrl[0:0] $end
$var reg 1 m x[0:0] $end
$var reg 1 n y[0:0] $end
$var reg 1 o z[0:0] $end
$upscope $end
$upscope $end
$upscope $end
$upscope $end
$enddefinitions $end
#0
1!
1"
0#
1$
U%
1&
U'
bUUU (
U)
U*
U+
U,
bUUUUUU -
U.
0/
10
11
02
03
04
05
16
U7
18
U9
bUUUUUUUUUUUUUUUUUUUUUUUUUUUUUUUUUUUUUUUUUUUUUUUUUUUUUUUUUUUUUUUU :
bUUU ;
U<
bU =
bU >
bU ?
bU @
0A
1B
UC
1D
UE
bUUUUUUUUUUUUUUUUUUUUUUUUUUUUUUUUUUUUUUUUUUUUUUUUUUUUUUUUUUUUUUUU F
bUUU G
UH
bU I
bU J
bU K
bU L
0M
1N
UO
1P
UQ
bUUU R
US
UT
UU
bUUUUUU V
UW
0X
1Y
UZ
U[
1\
bUUUUUU ]
b1 ^
U_
b0 `
b0 a
b0 b
b0 c
0d
1e
Uf
Ug
1h
bUUUUUU i
b1 j
Uk
b0 l
b0 m
b0 n
b0 o
#500000000
#600000000
#1000000000
13
#2000000000
1#
0%
0*
0+
b000000 -
0.
1/
00
03
14
15
07
1A
0C
1M
0O
0T
0U
b000000 V
0W
1X
0Z
0[
b000000 ]
0_
1d
0f
0g
b000000 i
0k
#2005000000
0#
0/
10
04
05
0A
0M
0X
0d
#2010000000
1#
1/
00
14
15
1A
1M
1X
1d
#2015000000
0#
0/
10
04
05
0A
0M
0X
0d
#2020000000
1#
1/
00
14
15
1A
1M
1X
1d
#2025000000
0#
0/
10
04
05
0A
0M
0X
0d
#2030000000
1#
1/
00
14
15
1A
1M
1X
1d
#2035000000
0#
0/
10
04
05
0A
0M
0X
0d
#2040000000
1#
1/
00
14
15
1A
1M
1X
1d
#2045000000
0#
0/
10
04
05
0A
0M
0X
0d
#2050000000
1#
1/
00
14
15
1A
1M
1X
1d
#2055000000
0#
0/
10
04
05
0A
0M
0X
0d
#2060000000
1#
1/
00
14
15
1A
1M
1X
1d
#2065000000
0#
0/
10
04
05
0A
0M
0X
0d
#2070000000
1#
1/
00
14
15
1A
1M
1X
1d
#2075000000
0#
0/
10
04
05
0A
0M
0X
0d
#2080000000
1#
1/
00
14
15
1A
1M
1X
1d
#2085000000
0#
0/
10
04
05
0A
0M
0X
0d
#2090000000
1#
1/
00
14
15
1A
1M
1X
1d
#2095000000
0#
0/
10
04
05
0A
0M
0X
0d
#2100000000
1#
0$
1/
00
01
12
14
15
06
1A
0B
1M
0N
1X
0Y
1d
0e
#2105000000
Z"
0#
0/
10
04
05
0A
0M
0X
0d
#2110000000
1#
1%
1'
b111 (
0)
1/
00
14
15
17
19
bUUUUUUUU00000000000000000000000000000000000000000000000000000000 :
b111 ;
0<
1A
1C
1E
bUUUUUUUU00000000000000000000000000000000000000000000000000000000 F
b111 G
0H
1M
1O
0Q
b111 R
1S
1X
1d
#2115000000
0#
0/
10
04
05
0A
0M
0X
0d
#2120000000
1#
0%
1/
00
14
15
07
1A
0C
1M
0O
1X
1d
#2125000000
0#
0/
10
04
05
0A
0M
0X
0d
#2130000000
1#
1+
1/
00
14
15
1A
1M
1U
1X
1[
1d
1g
#2135000000
0#
0/
10
04
05
0A
0M
0X
0d
#2140000000
1#
1/
00
14
15
1A
1M
1X
1d
#2145000000
0#
0/
10
04
05
0A
0M
0X
0d
#2150000000
1#
1/
00
14
15
1A
1M
1X
1d
#2155000000
0#
0/
10
04
05
0A
0M
0X
0d
#2160000000
1#
1%
b001 (
1/
00
14
15
17
bUUUUUUUUUUUUUUUUUUUUUUUUUUUUUUUUUUUUUUUUUUUUUUUUUUUUUUUU00000000 :
b001 ;
1A
1C
bUUUUUUUUUUUUUUUUUUUUUUUUUUUUUUUUUUUUUUUUUUUUUUUUUUUUUUUU00000000 F
b001 G
1M
1O
b001 R
1X
1d
#2165000000
0#
0/
10
04
05
0A
0M
0X
0d
#2170000000
1#
b011 (
1/
00
14
15
bUUUUUUUUUUUUUUUUUUUUUUUUUUUUUUUUUUUUUUUU000000000000000000000000 :
b011 ;
1A
bUUUUUUUUUUUUUUUUUUUUUUUUUUUUUUUUUUUUUUUU000000000000000000000000 F
b011 G
1M
b011 R
1X
1d
#2175000000
0#
0/
10
04
05
0A
0M
0X
0d
#2180000000
1#
b101 (
1/
00
14
15
bUUUUUUUUUUUUUUUUUUUUUUUU0000000000000000000000000000000000000000 :
b101 ;
1A
bUUUUUUUUUUUUUUUUUUUUUUUU0000000000000000000000000000000000000000 F
b101 G
1M
b101 R
1X
1d
#2185000000
0#
0/
10
04
05
0A
0M
0X
0d
#2190000000
1#
b100 (
1/
00
14
15
bUUUUUUUUUUUUUUUUUUUUUUUUUUUUUUUU00000000000000000000000000000000 :
b100 ;
1A
bUUUUUUUUUUUUUUUUUUUUUUUUUUUUUUUU00000000000000000000000000000000 F
b100 G
1M
b100 R
1X
1d
#2195000000
0#
0/
10
04
05
0A
0M
0X
0d
#2200000000
1#
b101 (
1)
1/
00
14
15
bUUUUUUUUUUUUUUUUUUUUUUUU0000000000000000000000000000000000000000 :
b101 ;
1<
1A
bUUUUUUUUUUUUUUUUUUUUUUUU0000000000000000000000000000000000000000 F
b101 G
1H
1M
1Q
b101 R
1X
1d
#2205000000
0#
0/
10
04
05
0A
0M
0X
0d
#2210000000
1#
0%
1*
b011001 -
1.
1/
00
14
15
07
1A
0C
1M
0O
1T
b011001 V
1W
1X
1Z
b011001 ]
1_
1d
1f
b011001 i
1k
#2215000000
0#
0/
10
04
05
0A
0M
0X
0d
#2220000000
1#
0*
0+
0.
1/
00
14
15
1A
1M
0T
0U
0W
1X
0Z
0[
0_
1d
0f
0g
0k
#2225000000
0#
0/
10
04
05
0A
0M
0X
0d
#2230000000
1#
1/
00
14
15
1A
1M
1X
1d
#2235000000
0#
0/
10
04
05
0A
0M
0X
0d
#2240000000
1#
1/
00
14
15
1A
1M
1X
1d
#2245000000
0#
0/
10
04
05
0A
0M
0X
0d
#2250000000
1#
1%
b111 (
0)
1/
00
14
15
17
bUUUUUUUU00000000000000000000000000000000000000000000000000000000 :
b111 ;
0<
1A
1C
bUUUUUUUU00000000000000000000000000000000000000000000000000000000 F
b111 G
0H
1M
1O
0Q
b111 R
1X
1d
#2255000000
0#
0/
10
04
05
0A
0M
0X
0d
#2260000000
1#
b011 (
1/
00
14
15
bUUUUUUUUUUUUUUUUUUUUUUUUUUUUUUUUUUUUUUUU000000000000000000000000 :
b011 ;
1A
bUUUUUUUUUUUUUUUUUUUUUUUUUUUUUUUUUUUUUUUU000000000000000000000000 F
b011 G
1M
b011 R
1X
1d
#2265000000
0#
0/
10
04
05
0A
0M
0X
0d
#2270000000
1#
b001 (
1+
1/
00
14
15
bUUUUUUUUUUUUUUUUUUUUUUUUUUUUUUUUUUUUUUUUUUUUUUUUUUUUUUUU00000000 :
b001 ;
1A
bUUUUUUUUUUUUUUUUUUUUUUUUUUUUUUUUUUUUUUUUUUUUUUUUUUUUUUUU00000000 F
b001 G
1M
b001 R
1U
1X
1[
1d
1g
#2275000000
0#
0/
10
04
05
0A
0M
0X
0d
#2280000000
1#
b000 (
1/
00
14
15
b0000000000000000000000000000000000000000000000000000000000000000 :
b000 ;
1A
b0000000000000000000000000000000000000000000000000000000000000000 F
b000 G
1M
b000 R
1X
1d
#2285000000
0#
0/
10
04
05
0A
0M
0X
0d
#2290000000
1#
0%
1/
00
14
15
07
1A
0C
1M
0O
1X
1d
#2295000000
0#
0/
10
04
05
0A
0M
0X
0d
#2300000000
1#
1%
1/
00
14
15
17
1A
1C
1M
1O
1X
1d
#2305000000
0#
0/
10
04
05
0A
0M
0X
0d
#2310000000
1#
b001 (
1/
00
14
15
bUUUUUUUUUUUUUUUUUUUUUUUUUUUUUUUUUUUUUUUUUUUUUUUUUUUUUUUU00000000 :
b001 ;
1A
bUUUUUUUUUUUUUUUUUUUUUUUUUUUUUUUUUUUUUUUUUUUUUUUUUUUUUUUU00000000 F
b001 G
1M
b001 R
1X
1d
#2315000000
0#
0/
10
04
05
0A
0M
0X
0d
#2320000000
1#
0'
bUUU (
1/
00
14
15
09
bUUUUUUUUUUUUUUUUUUUUUUUUUUUUUUUUUUUUUUUUUUUUUUUUUUUUUUUUUUUUUUUU :
bUUU ;
1A
0E
bUUUUUUUUUUUUUUUUUUUUUUUUUUUUUUUUUUUUUUUUUUUUUUUUUUUUUUUUUUUUUUUU F
bUUU G
1M
bUUU R
0S
1X
1d
#2325000000
0#
0/
10
04
05
0A
0M
0X
0d
#2330000000
1#
0%
1/
00
14
15
07
1A
0C
1M
0O
1X
1d
#2335000000
0#
0/
10
04
05
0A
0M
0X
0d
#2340000000
1#
1%
1'
b010 (
1)
1/
00
14
15
17
19
bUUUUUUUUUUUUUUUUUUUUUUUUUUUUUUUUUUUUUUUUUUUUUUUU0000000000000000 :
b010 ;
1<
1A
1C
1E
bUUUUUUUUUUUUUUUUUUUUUUUUUUUUUUUUUUUUUUUUUUUUUUUU0000000000000000 F
b010 G
1H
1M
1O
1Q
b010 R
1S
1X
1d
#2345000000
0#
0/
10
04
05
0A
0M
0X
0d
#2350000000
1#
b100 (
0)
1*
b011110 -
1.
1/
00
14
15
bUUUUUUUUUUUUUUUUUUUUUUUUUUUUUUUU00000000000000000000000000000000 :
b100 ;
0<
1A
bUUUUUUUUUUUUUUUUUUUUUUUUUUUUUUUU00000000000000000000000000000000 F
b100 G
0H
1M
0Q
b100 R
1T
b011110 V
1W
1X
1Z
b011110 ]
1_
1d
1f
b011110 i
1k
#2355000000
0#
0/
10
04
05
0A
0M
0X
0d
#2360000000
1#
0%
0*
0.
1/
00
14
15
07
1A
0C
1M
0O
0T
0W
1X
0Z
0_
1d
0f
0k
#2365000000
0#
0/
10
04
05
0A
0M
0X
0d
#2370000000
1#
1%
b111 (
1/
00
14
15
17
bUUUUUUUU00000000000000000000000000000000000000000000000000000000 :
b111 ;
1A
1C
bUUUUUUUU00000000000000000000000000000000000000000000000000000000 F
b111 G
1M
1O
b111 R
1X
1d
#2375000000
0#
0/
10
04
05
0A
0M
0X
0d
#2380000000
1#
b110 (
1/
00
14
15
bUUUUUUUUUUUUUUUU000000000000000000000000000000000000000000000000 :
b110 ;
1A
bUUUUUUUUUUUUUUUU000000000000000000000000000000000000000000000000 F
b110 G
1M
b110 R
1X
1d
#2385000000
0#
0/
10
04
05
0A
0M
0X
0d
#2390000000
1#
b001 (
1/
00
14
15
bUUUUUUUUUUUUUUUUUUUUUUUUUUUUUUUUUUUUUUUUUUUUUUUUUUUUUUUU00000000 :
b001 ;
1A
bUUUUUUUUUUUUUUUUUUUUUUUUUUUUUUUUUUUUUUUUUUUUUUUUUUUUUUUU00000000 F
b001 G
1M
b001 R
1X
1d
#2395000000
0#
0/
10
04
05
0A
0M
0X
0d
#2400000000
1#
b111 (
1/
00
14
15
bUUUUUUUU00000000000000000000000000000000000000000000000000000000 :
b111 ;
1A
bUUUUUUUU00000000000000000000000000000000000000000000000000000000 F
b111 G
1M
b111 R
1X
1d
#2405000000
0#
0/
10
04
05
0A
0M
0X
0d
#2410000000
1#
b100 (
1/
00
14
15
bUUUUUUUUUUUUUUUUUUUUUUUUUUUUUUUU00000000000000000000000000000000 :
b100 ;
1A
bUUUUUUUUUUUUUUUUUUUUUUUUUUUUUUUU00000000000000000000000000000000 F
b100 G
1M
b100 R
1X
1d
#2415000000
0#
0/
10
04
05
0A
0M
0X
0d
#2420000000
1#
b011 (
1/
00
14
15
bUUUUUUUUUUUUUUUUUUUUUUUUUUUUUUUUUUUUUUUU000000000000000000000000 :
b011 ;
1A
bUUUUUUUUUUUUUUUUUUUUUUUUUUUUUUUUUUUUUUUU000000000000000000000000 F
b011 G
1M
b011 R
1X
1d
#2425000000
0#
0/
10
04
05
0A
0M
0X
0d
#2430000000
1#
1)
1/
00
14
15
1<
1A
1H
1M
1Q
1X
1d
#2435000000
0#
0/
10
04
05
0A
0M
0X
0d
#2440000000
1#
b101 (
0)
1*
b100011 -
1.
1/
00
14
15
bUUUUUUUUUUUUUUUUUUUUUUUU0000000000000000000000000000000000000000 :
b101 ;
0<
1A
bUUUUUUUUUUUUUUUUUUUUUUUU0000000000000000000000000000000000000000 F
b101 G
0H
1M
0Q
b101 R
1T
b100011 V
1W
1X
1Z
b100011 ]
1_
1d
1f
b100011 i
1k
#2445000000
0#
0/
10
04
05
0A
0M
0X
0d
#2450000000
1#
b000 (
0*
0+
0.
1/
00
14
15
b0000000000000000000000000000000000000000000000000000000000000000 :
b000 ;
1A
b0000000000000000000000000000000000000000000000000000000000000000 F
b000 G
1M
b000 R
0T
0U
0W
1X
0Z
0[
0_
1d
0f
0g
0k
#2455000000
0#
0/
10
04
05
0A
0M
0X
0d
#2460000000
1#
b001 (
1/
00
14
15
bUUUUUUUUUUUUUUUUUUUUUUUUUUUUUUUUUUUUUUUUUUUUUUUUUUUUUUUU00000000 :
b001 ;
1A
bUUUUUUUUUUUUUUUUUUUUUUUUUUUUUUUUUUUUUUUUUUUUUUUUUUUUUUUU00000000 F
b001 G
1M
b001 R
1X
1d
#2465000000
0#
0/
10
04
05
0A
0M
0X
0d
#2470000000
1#
b100 (
1/
00
14
15
bUUUUUUUUUUUUUUUUUUUUUUUUUUUUUUUU00000000000000000000000000000000 :
b100 ;
1A
bUUUUUUUUUUUUUUUUUUUUUUUUUUUUUUUU00000000000000000000000000000000 F
b100 G
1M
b100 R
1X
1d
#2475000000
0#
0/
10
04
05
0A
0M
0X
0d
#2480000000
1#
b110 (
1/
00
14
15
bUUUUUUUUUUUUUUUU000000000000000000000000000000000000000000000000 :
b110 ;
1A
bUUUUUUUUUUUUUUUU000000000000000000000000000000000000000000000000 F
b110 G
1M
b110 R
1X
1d
#2485000000
0#
0/
10
04
05
0A
0M
0X
0d
#2490000000
1#
0%
1+
1/
00
14
15
07
1A
0C
1M
0O
1U
1X
1[
1d
1g
#2495000000
0#
0/
10
04
05
0A
0M
0X
0d
#2500000000
1#
1/
00
14
15
1A
1M
1X
1d
#2505000000
0#
0/
10
04
05
0A
0M
0X
0d
#2510000000
1#
1/
00
14
15
1A
1M
1X
1d
#2515000000
0#
0/
10
04
05
0A
0M
0X
0d
#2520000000
1#
1%
b111 (
1/
00
14
15
17
bUUUUUUUU00000000000000000000000000000000000000000000000000000000 :
b111 ;
1A
1C
bUUUUUUUU00000000000000000000000000000000000000000000000000000000 F
b111 G
1M
1O
b111 R
1X
1d
#2525000000
0#
0/
10
04
05
0A
0M
0X
0d
#2530000000
1#
0%
1/
00
14
15
07
1A
0C
1M
0O
1X
1d
#2535000000
0#
0/
10
04
05
0A
0M
0X
0d
#2540000000
1#
1/
00
14
15
1A
1M
1X
1d
#2545000000
0#
0/
10
04
05
0A
0M
0X
0d
#2550000000
1#
1/
00
14
15
1A
1M
1X
1d
#2555000000
0#
0/
10
04
05
0A
0M
0X
0d
#2560000000
1#
1%
b110 (
1/
00
14
15
17
bUUUUUUUUUUUUUUUU000000000000000000000000000000000000000000000000 :
b110 ;
1A
1C
bUUUUUUUUUUUUUUUU000000000000000000000000000000000000000000000000 F
b110 G
1M
1O
b110 R
1X
1d
#2565000000
0#
0/
10
04
05
0A
0M
0X
0d
#2570000000
1#
0%
1/
00
14
15
07
1A
0C
1M
0O
1X
1d
#2575000000
0#
0/
10
04
05
0A
0M
0X
0d
#2580000000
1#
1/
00
14
15
1A
1M
1X
1d
#2585000000
0#
0/
10
04
05
0A
0M
0X
0d
#2590000000
1#
1/
00
14
15
1A
1M
1X
1d
#2595000000
0#
0/
10
04
05
0A
0M
0X
0d
#2600000000
1#
1/
00
14
15
1A
1M
1X
1d
#2605000000
0#
0/
10
04
05
0A
0M
0X
0d
#2610000000
1#
1/
00
14
15
1A
1M
1X
1d
#2615000000
0#
0/
10
04
05
0A
0M
0X
0d
#2620000000
1#
1%
b001 (
1/
00
14
15
17
bUUUUUUUUUUUUUUUUUUUUUUUUUUUUUUUUUUUUUUUUUUUUUUUUUUUUUUUU00000000 :
b001 ;
1A
1C
bUUUUUUUUUUUUUUUUUUUUUUUUUUUUUUUUUUUUUUUUUUUUUUUUUUUUUUUU00000000 F
b001 G
1M
1O
b001 R
1X
1d
#2625000000
0#
0/
10
04
05
0A
0M
0X
0d
#2630000000
1#
b010 (
1)
1/
00
14
15
bUUUUUUUUUUUUUUUUUUUUUUUUUUUUUUUUUUUUUUUUUUUUUUUU0000000000000000 :
b010 ;
1<
1A
bUUUUUUUUUUUUUUUUUUUUUUUUUUUUUUUUUUUUUUUUUUUUUUUU0000000000000000 F
b010 G
1H
1M
1Q
b010 R
1X
1d
#2635000000
0#
0/
10
04
05
0A
0M
0X
0d
#2640000000
1#
0%
1*
b101000 -
1.
1/
00
14
15
07
1A
0C
1M
0O
1T
b101000 V
1W
1X
1Z
b101000 ]
1_
1d
1f
b101000 i
1k
#2645000000
0#
0/
10
04
05
0A
0M
0X
0d
#2650000000
1#
0*
0.
1/
00
14
15
1A
1M
0T
0W
1X
0Z
0_
1d
0f
0k
#2655000000
0#
0/
10
04
05
0A
0M
0X
0d
#2660000000
1#
1/
00
14
15
1A
1M
1X
1d
#2665000000
0#
0/
10
04
05
0A
0M
0X
0d
#2670000000
1#
1/
00
14
15
1A
1M
1X
1d
#2675000000
0#
0/
10
04
05
0A
0M
0X
0d
#2680000000
1#
1%
b000 (
0)
1/
00
14
15
17
b0000000000000000000000000000000000000000000000000000000000000000 :
b000 ;
0<
1A
1C
b0000000000000000000000000000000000000000000000000000000000000000 F
b000 G
0H
1M
1O
0Q
b000 R
1X
1d
#2685000000
0#
0/
10
04
05
0A
0M
0X
0d
#2690000000
1#
b011 (
1/
00
14
15
bUUUUUUUUUUUUUUUUUUUUUUUUUUUUUUUUUUUUUUUU000000000000000000000000 :
b011 ;
1A
bUUUUUUUUUUUUUUUUUUUUUUUUUUUUUUUUUUUUUUUU000000000000000000000000 F
b011 G
1M
b011 R
1X
1d
#2695000000
0#
0/
10
04
05
0A
0M
0X
0d
#2700000000
1#
0%
1/
00
14
15
07
1A
0C
1M
0O
1X
1d
#2705000000
0#
0/
10
04
05
0A
0M
0X
0d
#2710000000
1#
1%
b010 (
1/
00
14
15
17
bUUUUUUUUUUUUUUUUUUUUUUUUUUUUUUUUUUUUUUUUUUUUUUUU0000000000000000 :
b010 ;
1A
1C
bUUUUUUUUUUUUUUUUUUUUUUUUUUUUUUUUUUUUUUUUUUUUUUUU0000000000000000 F
b010 G
1M
1O
b010 R
1X
1d
#2715000000
0#
0/
10
04
05
0A
0M
0X
0d
#2720000000
1#
0%
1/
00
14
15
07
1A
0C
1M
0O
1X
1d
#2725000000
0#
0/
10
04
05
0A
0M
0X
0d
#2730000000
1#
1/
00
14
15
1A
1M
1X
1d
#2735000000
0#
0/
10
04
05
0A
0M
0X
0d
#2740000000
1#
1/
00
14
15
1A
1M
1X
1d
#2745000000
0#
0/
10
04
05
0A
0M
0X
0d
#2750000000
1#
1/
00
14
15
1A
1M
1X
1d
#2755000000
0#
0/
10
04
05
0A
0M
0X
0d
#2760000000
1#
1/
00
14
15
1A
1M
1X
1d
#2765000000
0#
0/
10
04
05
0A
0M
0X
0d
#2770000000
1#
1%
b100 (
1/
00
14
15
17
bUUUUUUUUUUUUUUUUUUUUUUUUUUUUUUUU00000000000000000000000000000000 :
b100 ;
1A
1C
bUUUUUUUUUUUUUUUUUUUUUUUUUUUUUUUU00000000000000000000000000000000 F
b100 G
1M
1O
b100 R
1X
1d
#2775000000
0#
0/
10
04
05
0A
0M
0X
0d
#2780000000
1#
b110 (
1/
00
14
15
bUUUUUUUUUUUUUUUU000000000000000000000000000000000000000000000000 :
b110 ;
1A
bUUUUUUUUUUUUUUUU000000000000000000000000000000000000000000000000 F
b110 G
1M
b110 R
1X
1d
#2785000000
0#
0/
10
04
05
0A
0M
0X
0d
#2790000000
1#
0%
1/
00
14
15
07
1A
0C
1M
0O
1X
1d
#2795000000
0#
0/
10
04
05
0A
0M
0X
0d
#2800000000
1#
1/
00
14
15
1A
1M
1X
1d
#2805000000
0#
0/
10
04
05
0A
0M
0X
0d
#2810000000
1#
1/
00
14
15
1A
1M
1X
1d
#2815000000
0#
0/
10
04
05
0A
0M
0X
0d
#2820000000
1#
1/
00
14
15
1A
1M
1X
1d
#2825000000
0#
0/
10
04
05
0A
0M
0X
0d
#2830000000
1#
1%
b011 (
1/
00
14
15
17
bUUUUUUUUUUUUUUUUUUUUUUUUUUUUUUUUUUUUUUUU000000000000000000000000 :
b011 ;
1A
1C
bUUUUUUUUUUUUUUUUUUUUUUUUUUUUUUUUUUUUUUUU000000000000000000000000 F
b011 G
1M
1O
b011 R
1X
1d
#2835000000
0#
0/
10
04
05
0A
0M
0X
0d
#2840000000
1#
0%
1/
00
14
15
07
1A
0C
1M
0O
1X
1d
#2845000000
0#
0/
10
04
05
0A
0M
0X
0d
#2850000000
1#
1/
00
14
15
1A
1M
1X
1d
#2855000000
0#
0/
10
04
05
0A
0M
0X
0d
#2860000000
1#
1/
00
14
15
1A
1M
1X
1d
#2865000000
0#
0/
10
04
05
0A
0M
0X
0d
#2870000000
1#
1%
b100 (
1/
00
14
15
17
bUUUUUUUUUUUUUUUUUUUUUUUUUUUUUUUU00000000000000000000000000000000 :
b100 ;
1A
1C
bUUUUUUUUUUUUUUUUUUUUUUUUUUUUUUUU00000000000000000000000000000000 F
b100 G
1M
1O
b100 R
1X
1d
#2875000000
0#
0/
10
04
05
0A
0M
0X
0d
#2880000000
1#
b000 (
1/
00
14
15
b0000000000000000000000000000000000000000000000000000000000000000 :
b000 ;
1A
b0000000000000000000000000000000000000000000000000000000000000000 F
b000 G
1M
b000 R
1X
1d
#2885000000
0#
0/
10
04
05
0A
0M
0X
0d
#2890000000
1#
b111 (
1)
1/
00
14
15
bUUUUUUUU00000000000000000000000000000000000000000000000000000000 :
b111 ;
1<
1A
bUUUUUUUU00000000000000000000000000000000000000000000000000000000 F
b111 G
1H
1M
1Q
b111 R
1X
1d
#2895000000
0#
0/
10
04
05
0A
0M
0X
0d
#2900000000
1#
0%
1*
b101101 -
1.
1/
00
14
15
07
1A
0C
1M
0O
1T
b101101 V
1W
1X
1Z
b101101 ]
1_
1d
1f
b101101 i
1k
#2905000000
0#
0/
10
04
05
0A
0M
0X
0d
#2910000000
1#
0*
0+
0.
1/
00
14
15
1A
1M
0T
0U
0W
1X
0Z
0[
0_
1d
0f
0g
0k
#2915000000
0#
0/
10
04
05
0A
0M
0X
0d
#2920000000
1#
1+
1/
00
14
15
1A
1M
1U
1X
1[
1d
1g
#2925000000
0#
0/
10
04
05
0A
0M
0X
0d
#2930000000
1#
1%
0'
bUUU (
0)
1/
00
14
15
17
09
bUUUUUUUUUUUUUUUUUUUUUUUUUUUUUUUUUUUUUUUUUUUUUUUUUUUUUUUUUUUUUUUU :
bUUU ;
0<
1A
1C
0E
bUUUUUUUUUUUUUUUUUUUUUUUUUUUUUUUUUUUUUUUUUUUUUUUUUUUUUUUUUUUUUUUU F
bUUU G
0H
1M
1O
0Q
bUUU R
0S
1X
1d
#2935000000
0#
0/
10
04
05
0A
0M
0X
0d
#2940000000
1#
1'
b111 (
1/
00
14
15
19
bUUUUUUUU00000000000000000000000000000000000000000000000000000000 :
b111 ;
1A
1E
bUUUUUUUU00000000000000000000000000000000000000000000000000000000 F
b111 G
1M
b111 R
1S
1X
1d
#2945000000
0#
0/
10
04
05
0A
0M
0X
0d
#2950000000
1#
0%
1/
00
14
15
07
1A
0C
1M
0O
1X
1d
#2955000000
0#
0/
10
04
05
0A
0M
0X
0d
#2960000000
1#
1/
00
14
15
1A
1M
1X
1d
#2965000000
0#
0/
10
04
05
0A
0M
0X
0d
#2970000000
1#
1%
b100 (
1/
00
14
15
17
bUUUUUUUUUUUUUUUUUUUUUUUUUUUUUUUU00000000000000000000000000000000 :
b100 ;
1A
1C
bUUUUUUUUUUUUUUUUUUUUUUUUUUUUUUUU00000000000000000000000000000000 F
b100 G
1M
1O
b100 R
1X
1d
#2975000000
0#
0/
10
04
05
0A
0M
0X
0d
#2980000000
1#
b001 (
1/
00
14
15
bUUUUUUUUUUUUUUUUUUUUUUUUUUUUUUUUUUUUUUUUUUUUUUUUUUUUUUUU00000000 :
b001 ;
1A
bUUUUUUUUUUUUUUUUUUUUUUUUUUUUUUUUUUUUUUUUUUUUUUUUUUUUUUUU00000000 F
b001 G
1M
b001 R
1X
1d
#2985000000
0#
0/
10
04
05
0A
0M
0X
0d
#2990000000
1#
b010 (
1/
00
14
15
bUUUUUUUUUUUUUUUUUUUUUUUUUUUUUUUUUUUUUUUUUUUUUUUU0000000000000000 :
b010 ;
1A
bUUUUUUUUUUUUUUUUUUUUUUUUUUUUUUUUUUUUUUUUUUUUUUUU0000000000000000 F
b010 G
1M
b010 R
1X
1d
#2995000000
0#
0/
10
04
05
0A
0M
0X
0d
#3000000000
1#
1/
00
13
14
15
1A
1M
1X
1d
#3005000000
0#
0/
10
04
05
0A
0M
0X
0d
#3010000000
1#
0'
bUUU (
1/
00
14
15
09
bUUUUUUUUUUUUUUUUUUUUUUUUUUUUUUUUUUUUUUUUUUUUUUUUUUUUUUUUUUUUUUUU :
bUUU ;
1A
0E
bUUUUUUUUUUUUUUUUUUUUUUUUUUUUUUUUUUUUUUUUUUUUUUUUUUUUUUUUUUUUUUUU F
bUUU G
1M
bUUU R
0S
1X
1d
#3015000000
0#
0/
10
04
05
0A
0M
0X
0d
#3020000000
1#
1'
b111 (
1/
00
14
15
19
bUUUUUUUU00000000000000000000000000000000000000000000000000000000 :
b111 ;
1A
1E
bUUUUUUUU00000000000000000000000000000000000000000000000000000000 F
b111 G
1M
b111 R
1S
1X
1d
#3025000000
0#
0/
10
04
05
0A
0M
0X
0d
#3030000000
1#
0%
1/
00
14
15
07
1A
0C
1M
0O
1X
1d
#3035000000
0#
0/
10
04
05
0A
0M
0X
0d
#3040000000
1#
1/
00
14
15
1A
1M
1X
1d
#3045000000
0#
0/
10
04
05
0A
0M
0X
0d
#3050000000
1#
1%
b101 (
1/
00
14
15
17
bUUUUUUUUUUUUUUUUUUUUUUUU0000000000000000000000000000000000000000 :
b101 ;
1A
1C
bUUUUUUUUUUUUUUUUUUUUUUUU0000000000000000000000000000000000000000 F
b101 G
1M
1O
b101 R
1X
1d
#3055000000
0#
0/
10
04
05
0A
0M
0X
0d
