tests/complex/vhlib/wave/work.streampipelinecontrol_20_3_t_tc.vcd
$date
  Wed Jun 19 10:58:20 2019
$end
$version
  GHDL v0
$end
$timescale
  1 fs
$end
$scope module standard $end
$upscope $end
$scope module textio $end
$upscope $end
$scope module std_logic_1164 $end
$upscope $end
$scope module numeric_std $end
$upscope $end
$scope module std_logic_misc $end
$upscope $end
$scope module stream_pkg $end
$upscope $end
$scope module math_real $end
$upscope $end
$scope module testcase_pkg $end
$var reg 1 ! test $end
$var reg 1 " tc_model_init $end
$upscope $end
$scope module simdatacomms_pkg $end
$upscope $end
$scope module clockgen_pkg $end
$upscope $end
$scope module streammonitor_pkg $end
$upscope $end
$scope module streamsource_pkg $end
$upscope $end
$scope module streamsink_pkg $end
$upscope $end
$scope module utilint_pkg $end
$upscope $end
$scope module utilram_pkg $end
$upscope $end
$scope module streampipelinecontrol_20_3_t_tc $end
$scope module tv $end
$upscope $end
$scope module tb $end
$var reg 1 # clk $end
$var reg 1 $ reset $end
$var reg 1 % a_valid $end
$var reg 1 & a_ready $end
$var reg 8 ' a_data[7:0] $end
$var reg 1 ( b_valid $end
$var reg 1 ) b_ready $end
$var reg 8 * b_data[7:0] $end
$var reg 1 + pipe_stall $end
$var reg 1 , pipe_insert $end
$var reg 1 - pipe_delete $end
$var reg 21 . pipe_valid[0:20] $end
$var reg 8 / pipe_input[7:0] $end
$comment pipe_regs is not handled $end
$scope module clkgen $end
$var reg 1 0 clk $end
$var reg 1 1 clk_n $end
$var reg 1 2 reset $end
$var reg 1 3 reset_n $end
$var reg 1 4 sync $end
$var reg 1 5 clk_i $end
$upscope $end
$scope module a_source $end
$var reg 1 6 clk $end
$var reg 1 7 reset $end
$var reg 1 8 valid $end
$var reg 1 9 ready $end
$var reg 1 : dvalid $end
$var reg 8 ; data[7:0] $end
$var reg 1 < count[0:0] $end
$var reg 1 = last $end
$var reg 1 > ctrl[0:0] $end
$var reg 1 ? x[0:0] $end
$var reg 1 @ y[0:0] $end
$var reg 1 A z[0:0] $end
$scope module monitor $end
$var reg 1 B clk $end
$var reg 1 C reset $end
$var reg 1 D valid $end
$var reg 1 E ready $end
$var reg 1 F dvalid $end
$var reg 8 G data[7:0] $end
$var reg 1 H count[0:0] $end
$var reg 1 I last $end
$var reg 1 J ctrl[0:0] $end
$var reg 1 K x[0:0] $end
$var reg 1 L y[0:0] $end
$var reg 1 M z[0:0] $end
$upscope $end
$upscope $end
$scope module uut $end
$var reg 1 N clk $end
$var reg 1 O reset $end
$var reg 1 P in_valid $end
$var reg 1 Q in_ready $end
$var reg 8 R in_data[7:0] $end
$var reg 1 S out_valid $end
$var reg 1 T out_ready $end
$var reg 8 U out_data[7:0] $end
$var reg 1 V pipe_stall $end
$var reg 1 W pipe_insert $end
$var reg 1 X pipe_delete $end
$var reg 21 Y pipe_valid[0:20] $end
$var reg 8 Z pipe_input[7:0] $end
$var reg 8 [ pipe_output[7:0] $end
$var reg 1 \ ins_valid $end
$var reg 1 ] ins_ready $end
$var reg 8 ^ ins_data[7:0] $end
$var reg 21 _ pipe_valid_s[0:20] $end
$var reg 1 ` rate_limiter $end
$var reg 5 a fifo_reserved[4:0] $end
$var reg 1 b fifo_push $end
$var reg 1 c out_valid_s $end
$scope module input_slice_gen $end
$scope module slice_inst $end
$var reg 1 d clk $end
$var reg 1 e reset $end
$var reg 1 f in_valid $end
$var reg 1 g in_ready $end
$var reg 8 h in_data[7:0] $end
$var reg 1 i out_valid $end
$var reg 1 j out_ready $end
$var reg 8 k out_data[7:0] $end
$var reg 1 l in_ready_s $end
$var reg 1 m out_valid_s $end
$var reg 8 n saved_data[7:0] $end
$var reg 1 o saved_valid $end
$upscope $end
$upscope $end
$scope module output_buffer_inst $end
$var reg 1 p clk $end
$var reg 1 q reset $end
$var reg 1 r in_valid $end
$var reg 1 s in_ready $end
$var reg 8 t in_data[7:0] $end
$var reg 1 u out_valid $end
$var reg 1 v out_ready $end
$var reg 8 w out_data[7:0] $end
$var reg 1 x ins_valid $end
$var reg 1 y ins_ready $end
$var reg 8 z ins_data[7:0] $end
$var reg 1 { outs_valid $end
$var reg 1 | outs_ready $end
$var reg 8 } outs_data[7:0] $end
$scope module input_slice_gen $end
$scope module slice_inst $end
$var reg 1 !" clk $end
$var reg 1 "" reset $end
$var reg 1 #" in_valid $end
$var reg 1 $" in_ready $end
$var reg 8 %" in_data[7:0] $end
$var reg 1 &" out_valid $end
$var reg 1 '" out_ready $end
$var reg 8 (" out_data[7:0] $end
$var reg 1 )" in_ready_s $end
$var reg 1 *" out_valid_s $end
$var reg 8 +" saved_data[7:0] $end
$var reg 1 ," saved_valid $end
$upscope $end
$upscope $end
$scope module fifo_gen $end
$scope module slice_inst $end
$var reg 1 -" in_clk $end
$var reg 1 ." in_reset $end
$var reg 1 /" in_valid $end
$var reg 1 0" in_ready $end
$var reg 8 1" in_data[7:0] $end
$var reg 5 2" in_rptr[4:0] $end
$var reg 5 3" in_wptr[4:0] $end
$var reg 1 4" out_clk $end
$var reg 1 5" out_reset $end
$var reg 1 6" out_valid $end
$var reg 1 7" out_ready $end
$var reg 8 8" out_data[7:0] $end
$var reg 5 9" out_rptr[4:0] $end
$var reg 5 :" out_wptr[4:0] $end
$var reg 5 ;" in_rptr_s[4:0] $end
$var reg 5 <" in_wptr_s[4:0] $end
$var reg 5 =" out_rptr_s[4:0] $end
$var reg 5 >" out_wptr_s[4:0] $end
$var reg 1 ?" in_full $end
$var reg 1 @" in_next $end
$var reg 1 A" out_nonempty $end
$var reg 1 B" out_next $end
$var reg 8 C" out_readdata[7:0] $end
$var reg 1 D" out_readvalid $end
$var reg 8 E" out_bufdata[7:0] $end
$var reg 1 F" out_bufvalid $end
$scope module wptr_inst $end
$var reg 1 G" a_clk $end
$var reg 1 H" a_reset $end
$var reg 1 I" a_increment $end
$var reg 5 J" a_counter[4:0] $end
$var reg 1 K" b_clk $end
$var reg 1 L" b_reset $end
$var reg 5 M" b_counter[4:0] $end
$var reg 5 N" a_counter_s[4:0] $end
$scope module no_xclk $end
$upscope $end
$upscope $end
$scope module ram_inst $end
$var reg 1 O" w_clk $end
$var reg 1 P" w_ena $end
$var reg 4 Q" w_addr[3:0] $end
$var reg 8 R" w_data[7:0] $end
$var reg 1 S" r_clk $end
$var reg 1 T" r_ena $end
$var reg 4 U" r_addr[3:0] $end
$var reg 8 V" r_data[7:0] $end
$comment mem is not handled $end
$upscope $end
$scope module rptr_inst $end
$var reg 1 W" a_clk $end
$var reg 1 X" a_reset $end
$var reg 1 Y" a_increment $end
$var reg 5 Z" a_counter[4:0] $end
$var reg 1 [" b_clk $end
$var reg 1 \" b_reset $end
$var reg 5 ]" b_counter[4:0] $end
$var reg 5 ^" a_counter_s[4:0] $end
$scope module no_xclk $end
$upscope $end
$upscope $end
$upscope $end
$upscope $end
$scope module output_slice_gen $end
$scope module slice_inst $end
$var reg 1 _" clk $end
$var reg 1 `" reset $end
$var reg 1 a" in_valid $end
$var reg 1 b" in_ready $end
$var reg 8 c" in_data[7:0] $end
$var reg 1 d" out_valid $end
$var reg 1 e" out_ready $end
$var reg 8 f" out_data[7:0] $end
$var reg 1 g" in_ready_s $end
$var reg 1 h" out_valid_s $end
$var reg 8 i" saved_data[7:0] $end
$var reg 1 j" saved_valid $end
$upscope $end
$upscope $end
$upscope $end
$upscope $end
$scope module b_sink $end
$var reg 1 k" clk $end
$var reg 1 l" reset $end
$var reg 1 m" valid $end
$var reg 1 n" ready $end
$var reg 1 o" dvalid $end
$var reg 8 p" data[7:0] $end
$var reg 1 q" count[0:0] $end
$var reg 1 r" last $end
$var reg 1 s" ctrl[0:0] $end
$var reg 1 t" x[0:0] $end
$var reg 1 u" y[0:0] $end
$var reg 1 v" z[0:0] $end
$scope module monitor $end
$var reg 1 w" clk $end
$var reg 1 x" reset $end
$var reg 1 y" valid $end
$var reg 1 z" ready $end
$var reg 1 {" dvalid $end
$var reg 8 |" data[7:0] $end
$var reg 1 }" count[0:0] $end
$var reg 1 !# last $end
$var reg 1 "# ctrl[0:0] $end
$var reg 1 ## x[0:0] $end
$var reg 1 $# y[0:0] $end
$var reg 1 %# z[0:0] $end
$upscope $end
$upscope $end
$upscope $end
$upscope $end
$enddefinitions $end
#0
1!
1"
0#
1$
U%
U&
bUUUUUUUU '
U(
U)
bUUUUUUUU *
0+
0,
0-
bUUUUUUUUUUUUUUUUUUUUU .
bUUUUUUUU /
00
11
12
03
04
05
06
17
U8
U9
U:
bUUUUUUUU ;
bU <
U=
bU >
bU ?
bU @
bU A
0B
1C
UD
UE
UF
bUUUUUUUU G
bU H
UI
bU J
bU K
bU L
bU M
0N
1O
UP
UQ
bUUUUUUUU R
US
UT
bUUUUUUUU U
0V
0W
0X
bUUUUUUUUUUUUUUUUUUUUU Y
bUUUUUUUU Z
bUUUUUUUU [
U\
U]
bUUUUUUUU ^
bUUUUUUUUUUUUUUUUUUUUU _
0`
bUUUUU a
Ub
Uc
0d
1e
Uf
Ug
bUUUUUUUU h
Ui
Uj
bUUUUUUUU k
Ul
Um
bUUUUUUUU n
Uo
0p
1q
Ur
Us
bUUUUUUUU t
Uu
Uv
bUUUUUUUU w
Ux
Uy
bUUUUUUUU z
U{
U|
bUUUUUUUU }
0!"
1""
U#"
U$"
bUUUUUUUU %"
U&"
U'"
bUUUUUUUU ("
U)"
U*"
bUUUUUUUU +"
U,"
0-"
1."
U/"
U0"
bUUUUUUUU 1"
bUUUUU 2"
bUUUUU 3"
04"
15"
U6"
U7"
bUUUUUUUU 8"
bUUUUU 9"
bUUUUU :"
bUUUUU ;"
bUUUUU <"
bUUUUU ="
bUUUUU >"
0?"
U@"
0A"
0B"
bUUUUUUUU C"
UD"
bUUUUUUUU E"
UF"
0G"
1H"
UI"
bUUUUU J"
0K"
1L"
bUUUUU M"
bUUUUU N"
0O"
UP"
bUUUU Q"
bUUUUUUUU R"
0S"
0T"
bUUUU U"
bUUUUUUUU V"
0W"
1X"
0Y"
bUUUUU Z"
0["
1\"
bUUUUU ]"
bUUUUU ^"
0_"
1`"
Ua"
Ub"
bUUUUUUUU c"
Ud"
Ue"
bUUUUUUUU f"
Ug"
Uh"
bUUUUUUUU i"
Uj"
0k"
1l"
Um"
Un"
1o"
bUUUUUUUU p"
b1 q"
1r"
b0 s"
b0 t"
b0 u"
b0 v"
0w"
1x"
Uy"
Uz"
1{"
bUUUUUUUU |"
b1 }"
1!#
b0 "#
b0 ##
b0 $#
b0 %#
#500000000
#600000000
#1000000000
14
#2000000000
1#
0%
0&
0(
0)
b000000000000000000000 .
10
01
04
15
16
08
09
U:
bUUUUUUUU ;
bU <
U=
bU >
bU ?
bU @
bU A
1B
0D
0E
1N
0P
0Q
0S
0T
b000000000000000000000 Y
0\
0]
b000000000000000000000 _
b00000 a
0b
0c
1d
0f
0g
0i
0j
0l
0m
0o
1p
0r
0s
0u
0v
0x
0y
0{
0|
1!"
0#"
0$"
0&"
0'"
0)"
0*"
0,"
1-"
0/"
00"
b00000 2"
b00000 3"
14"
06"
07"
b00000 9"
b00000 :"
b00000 ;"
b00000 <"
b00000 ="
b00000 >"
0@"
0D"
0F"
1G"
0I"
b00000 J"
1K"
b00000 M"
b00000 N"
1O"
0P"
b0000 Q"
1S"
b0000 U"
1W"
b00000 Z"
1["
b00000 ]"
b00000 ^"
1_"
0a"
0b"
0d"
0e"
0g"
0h"
0j"
1k"
0m"
0n"
1w"
0y"
0z"
#2005000000
0#
00
11
05
06
0B
0N
0d
0p
0!"
0-"
04"
0G"
0K"
0O"
0S"
0W"
0["
0_"
0k"
0w"
#2010000000
1#
10
01
15
16
1B
1N
1d
1p
1!"
1-"
14"
1G"
1K"
1O"
1S"
1W"
1["
1_"
1k"
1w"
#2015000000
0#
00
11
05
06
0B
0N
0d
0p
0!"
0-"
04"
0G"
0K"
0O"
0S"
0W"
0["
0_"
0k"
0w"
#2020000000
1#
10
01
15
16
1B
1N
1d
1p
1!"
1-"
14"
1G"
1K"
1O"
1S"
1W"
1["
1_"
1k"
1w"
#2025000000
0#
00
11
05
06
0B
0N
0d
0p
0!"
0-"
04"
0G"
0K"
0O"
0S"
0W"
0["
0_"
0k"
0w"
#2030000000
1#
10
01
15
16
1B
1N
1d
1p
1!"
1-"
14"
1G"
1K"
1O"
1S"
1W"
1["
1_"
1k"
1w"
#2035000000
0#
00
11
05
06
0B
0N
0d
0p
0!"
0-"
04"
0G"
0K"
0O"
0S"
0W"
0["
0_"
0k"
0w"
#2040000000
1#
10
01
15
16
1B
1N
1d
1p
1!"
1-"
14"
1G"
1K"
1O"
1S"
1W"
1["
1_"
1k"
1w"
#2045000000
0#
00
11
05
06
0B
0N
0d
0p
0!"
0-"
04"
0G"
0K"
0O"
0S"
0W"
0["
0_"
0k"
0w"
#2050000000
1#
10
01
15
16
1B
1N
1d
1p
1!"
1-"
14"
1G"
1K"
1O"
1S"
1W"
1["
1_"
1k"
1w"
#2055000000
0#
00
11
05
06
0B
0N
0d
0p
0!"
0-"
04"
0G"
0K"
0O"
0S"
0W"
0["
0_"
0k"
0w"
#2060000000
1#
10
01
15
16
1B
1N
1d
1p
1!"
1-"
14"
1G"
1K"
1O"
1S"
1W"
1["
1_"
1k"
1w"
#2065000000
0#
00
11
05
06
0B
0N
0d
0p
0!"
0-"
04"
0G"
0K"
0O"
0S"
0W"
0["
0_"
0k"
0w"
#2070000000
1#
10
01
15
16
1B
1N
1d
1p
1!"
1-"
14"
1G"
1K"
1O"
1S"
1W"
1["
1_"
1k"
1w"
#2075000000
0#
00
11
05
06
0B
0N
0d
0p
0!"
0-"
04"
0G"
0K"
0O"
0S"
0W"
0["
0_"
0k"
0w"
#2080000000
1#
10
01
15
16
1B
1N
1d
1p
1!"
1-"
14"
1G"
1K"
1O"
1S"
1W"
1["
1_"
1k"
1w"
#2085000000
0#
00
11
05
06
0B
0N
0d
0p
0!"
0-"
04"
0G"
0K"
0O"
0S"
0W"
0["
0_"
0k"
0w"
#2090000000
1#
10
01
15
16
1B
1N
1d
1p
1!"
1-"
14"
1G"
1K"
1O"
1S"
1W"
1["
1_"
1k"
1w"
#2095000000
0#
00
11
05
06
0B
0N
0d
0p
0!"
0-"
04"
0G"
0K"
0O"
0S"
0W"
0["
0_"
0k"
0w"
#2100000000
1#
0$
10
01
02
13
15
16
07
1B
0C
1N
0O
1d
0e
1p
0q
1!"
0""
1-"
0."
14"
05"
1G"
0H"
1K"
0L"
1O"
1S"
1W"
0X"
1["
0\"
1_"
0`"
1k"
0l"
1w"
0x"
#2105000000
Z"
0#
00
11
05
06
0B
0N
0d
0p
0!"
0-"
04"
0G"
0K"
0O"
0S"
0W"
0["
0_"
0k"
0w"
#2110000000
1#
1%
1&
b01010100 '
10
01
15
16
18
19
1:
b01010100 ;
b1 <
0=
1B
1D
1E
1F
b01010100 G
b1 H
0I
1N
1P
1Q
b01010100 R
1d
1f
1g
b01010100 h
1l
1p
1s
1|
1!"
1$"
1)"
1-"
14"
17"
1G"
1K"
1O"
1S"
1W"
1["
1_"
1b"
1g"
1k"
1w"
#2115000000
0#
00
11
05
06
0B
0N
0d
0p
0!"
0-"
04"
0G"
0K"
0O"
0S"
0W"
0["
0_"
0k"
0w"
#2120000000
1#
0%
b100000000000000000000 .
b01010100 /
10
01
15
16
08
1B
0D
1N
0P
b100000000000000000000 Y
b01010100 Z
1\
1]
b01010100 ^
b100000000000000000000 _
1d
0f
1i
1j
b01010100 k
1m
1p
1!"
1-"
14"
1G"
1K"
1O"
1S"
1W"
1["
1_"
1k"
1w"
#2125000000
0#
00
11
05
06
0B
0N
0d
0p
0!"
0-"
04"
0G"
0K"
0O"
0S"
0W"
0["
0_"
0k"
0w"
#2130000000
1#
1)
1,
b010000000000000000000 .
10
01
15
16
1B
1N
1T
1W
b010000000000000000000 Y
0\
0]
b010000000000000000000 _
1`
b00001 a
1d
0i
0j
0m
1p
1v
1!"
1-"
14"
1G"
1K"
1O"
1S"
1W"
1["
1_"
1e"
1k"
1n"
1w"
1z"
#2135000000
0#
00
11
05
06
0B
0N
0d
0p
0!"
0-"
04"
0G"
0K"
0O"
0S"
0W"
0["
0_"
0k"
0w"
#2140000000
1#
b001000000000000000000 .
10
01
15
16
1B
1N
b001000000000000000000 Y
b001000000000000000000 _
1d
1p
1!"
1-"
14"
1G"
1K"
1O"
1S"
1W"
1["
1_"
1k"
1w"
#2145000000
0#
00
11
05
06
0B
0N
0d
0p
0!"
0-"
04"
0G"
0K"
0O"
0S"
0W"
0["
0_"
0k"
0w"
#2150000000
1#
b100100000000000000000 .
10
01
15
16
1B
1N
b100100000000000000000 Y
b100100000000000000000 _
0`
1d
1p
1!"
1-"
14"
1G"
1K"
1O"
1S"
1W"
1["
1_"
1k"
1w"
#2155000000
0#
00
11
05
06
0B
0N
0d
0p
0!"
0-"
04"
0G"
0K"
0O"
0S"
0W"
0["
0_"
0k"
0w"
#2160000000
1#
1%
b01101000 '
0,
b010010000000000000000 .
10
01
15
16
18
b01101000 ;
1B
1D
b01101000 G
1N
1P
b01101000 R
0W
b010010000000000000000 Y
0]
b010010000000000000000 _
1`
b00010 a
1d
1f
b01101000 h
0j
1p
1!"
1-"
14"
1G"
1K"
1O"
1S"
1W"
1["
1_"
1k"
1w"
#2165000000
0#
00
11
05
06
0B
0N
0d
0p
0!"
0-"
04"
0G"
0K"
0O"
0S"
0W"
0["
0_"
0k"
0w"
#2170000000
1#
b01100101 '
b001001000000000000000 .
b01101000 /
10
01
15
16
b01100101 ;
1B
b01100101 G
1N
b01100101 R
b001001000000000000000 Y
b01101000 Z
1\
b01101000 ^
b001001000000000000000 _
1d
b01100101 h
1i
b01101000 k
1m
1p
1!"
1-"
14"
1G"
1K"
1O"
1S"
1W"
1["
1_"
1k"
1w"
#2175000000
0#
00
11
05
06
0B
0N
0d
0p
0!"
0-"
04"
0G"
0K"
0O"
0S"
0W"
0["
0_"
0k"
0w"
#2180000000
1#
0&
b00100000 '
b100100100000000000000 .
10
01
15
16
09
b00100000 ;
1B
0E
b00100000 G
1N
0Q
b00100000 R
b100100100000000000000 Y
1]
b100100100000000000000 _
0`
1d
0g
b00100000 h
1j
0l
b01100101 n
1o
1p
1!"
1-"
14"
1G"
1K"
1O"
1S"
1W"
1["
1_"
1k"
1w"
#2185000000
0#
00
11
05
06
0B
0N
0d
0p
0!"
0-"
04"
0G"
0K"
0O"
0S"
0W"
0["
0_"
0k"
0w"
#2190000000
1#
1&
b010010010000000000000 .
b01100101 /
10
01
15
16
19
1B
1E
1N
1Q
b010010010000000000000 Y
b01100101 Z
0]
b01100101 ^
b010010010000000000000 _
1`
b00011 a
1d
1g
0j
b01100101 k
1l
0o
1p
1!"
1-"
14"
1G"
1K"
1O"
1S"
1W"
1["
1_"
1k"
1w"
#2195000000
0#
00
11
05
06
0B
0N
0d
0p
0!"
0-"
04"
0G"
0K"
0O"
0S"
0W"
0["
0_"
0k"
0w"
#2200000000
1#
0&
b01010001 '
b001001001000000000000 .
10
01
15
16
09
b01010001 ;
1B
0E
b01010001 G
1N
0Q
b01010001 R
b001001001000000000000 Y
b001001001000000000000 _
1d
0g
b01010001 h
0l
b00100000 n
1o
1p
1!"
1-"
14"
1G"
1K"
1O"
1S"
1W"
1["
1_"
1k"
1w"
#2205000000
0#
00
11
05
06
0B
0N
0d
0p
0!"
0-"
04"
0G"
0K"
0O"
0S"
0W"
0["
0_"
0k"
0w"
#2210000000
1#
b100100100100000000000 .
10
01
15
16
1B
1N
b100100100100000000000 Y
1]
b100100100100000000000 _
0`
1d
1j
1p
1!"
1-"
14"
1G"
1K"
1O"
1S"
1W"
1["
1_"
1k"
1w"
#2215000000
0#
00
11
05
06
0B
0N
0d
0p
0!"
0-"
04"
0G"
0K"
0O"
0S"
0W"
0["
0_"
0k"
0w"
#2220000000
1#
1&
b010010010010000000000 .
b00100000 /
10
01
15
16
19
1B
1E
1N
1Q
b010010010010000000000 Y
b00100000 Z
0]
b00100000 ^
b010010010010000000000 _
1`
b00100 a
1d
1g
0j
b00100000 k
1l
0o
1p
1!"
1-"
14"
1G"
1K"
1O"
1S"
1W"
1["
1_"
1k"
1w"
#2225000000
0#
00
11
05
06
0B
0N
0d
0p
0!"
0-"
04"
0G"
0K"
0O"
0S"
0W"
0["
0_"
0k"
0w"
#2230000000
1#
0&
b01110101 '
b001001001001000000000 .
10
01
15
16
09
b01110101 ;
1B
0E
b01110101 G
1N
0Q
b01110101 R
b001001001001000000000 Y
b001001001001000000000 _
1d
0g
b01110101 h
0l
b01010001 n
1o
1p
1!"
1-"
14"
1G"
1K"
1O"
1S"
1W"
1["
1_"
1k"
1w"
#2235000000
0#
00
11
05
06
0B
0N
0d
0p
0!"
0-"
04"
0G"
0K"
0O"
0S"
0W"
0["
0_"
0k"
0w"
#2240000000
1#
b100100100100100000000 .
10
01
15
16
1B
1N
b100100100100100000000 Y
1]
b100100100100100000000 _
0`
1d
1j
1p
1!"
1-"
14"
1G"
1K"
1O"
1S"
1W"
1["
1_"
1k"
1w"
#2245000000
0#
00
11
05
06
0B
0N
0d
0p
0!"
0-"
04"
0G"
0K"
0O"
0S"
0W"
0["
0_"
0k"
0w"
#2250000000
1#
1&
b010010010010010000000 .
b01010001 /
10
01
15
16
19
1B
1E
1N
1Q
b010010010010010000000 Y
b01010001 Z
0]
b01010001 ^
b010010010010010000000 _
1`
b00101 a
1d
1g
0j
b01010001 k
1l
0o
1p
1!"
1-"
14"
1G"
1K"
1O"
1S"
1W"
1["
1_"
1k"
1w"
#2255000000
0#
00
11
05
06
0B
0N
0d
0p
0!"
0-"
04"
0G"
0K"
0O"
0S"
0W"
0["
0_"
0k"
0w"
#2260000000
1#
0%
0&
b001001001001001000000 .
10
01
15
16
08
09
1B
0D
0E
1N
0P
0Q
b001001001001001000000 Y
b001001001001001000000 _
1d
0f
0g
0l
b01110101 n
1o
1p
1!"
1-"
14"
1G"
1K"
1O"
1S"
1W"
1["
1_"
1k"
1w"
#2265000000
0#
00
11
05
06
0B
0N
0d
0p
0!"
0-"
04"
0G"
0K"
0O"
0S"
0W"
0["
0_"
0k"
0w"
#2270000000
1#
b100100100100100100000 .
10
01
15
16
1B
1N
b100100100100100100000 Y
1]
b100100100100100100000 _
0`
1d
1j
1p
1!"
1-"
14"
1G"
1K"
1O"
1S"
1W"
1["
1_"
1k"
1w"
#2275000000
0#
00
11
05
06
0B
0N
0d
0p
0!"
0-"
04"
0G"
0K"
0O"
0S"
0W"
0["
0_"
0k"
0w"
#2280000000
1#
1&
1,
b010010010010010010000 .
b01110101 /
10
01
15
16
19
1B
1E
1N
1Q
1W
b010010010010010010000 Y
b01110101 Z
0]
b01110101 ^
b010010010010010010000 _
1`
b00110 a
1d
1g
0j
b01110101 k
1l
0o
1p
1!"
1-"
14"
1G"
1K"
1O"
1S"
1W"
1["
1_"
1k"
1w"
#2285000000
0#
00
11
05
06
0B
0N
0d
0p
0!"
0-"
04"
0G"
0K"
0O"
0S"
0W"
0["
0_"
0k"
0w"
#2290000000
1#
1+
b001001001001001001000 .
10
01
15
16
1B
1N
1V
b001001001001001001000 Y
b001001001001001001000 _
1d
1p
1!"
1-"
14"
1G"
1K"
1O"
1S"
1W"
1["
1_"
1k"
1w"
#2295000000
0#
00
11
05
06
0B
0N
0d
0p
0!"
0-"
04"
0G"
0K"
0O"
0S"
0W"
0["
0_"
0k"
0w"
#2300000000
1#
1%
b01101001 '
b000100100100100100100 .
10
01
15
16
18
b01101001 ;
1B
1D
b01101001 G
1N
1P
b01101001 R
b000100100100100100100 Y
b000100100100100100100 _
0`
1d
1f
b01101001 h
1p
1!"
1-"
14"
1G"
1K"
1O"
1S"
1W"
1["
1_"
1k"
1w"
#2305000000
0#
00
11
05
06
0B
0N
0d
0p
0!"
0-"
04"
0G"
0K"
0O"
0S"
0W"
0["
0_"
0k"
0w"
#2310000000
1#
0%
0&
b000010010010010010010 .
10
01
15
16
08
09
1B
0D
0E
1N
0P
0Q
b000010010010010010010 Y
b000010010010010010010 _
1d
0f
0g
0l
b01101001 n
1o
1p
1!"
1-"
14"
1G"
1K"
1O"
1S"
1W"
1["
1_"
1k"
1w"
#2315000000
0#
00
11
05
06
0B
0N
0d
0p
0!"
0-"
04"
0G"
0K"
0O"
0S"
0W"
0["
0_"
0k"
0w"
#2320000000
1#
b000001001001001001001 .
10
01
15
16
1B
1N
b000001001001001001001 Y
b01010100 [
b000001001001001001001 _
1b
1d
1p
1r
b01010100 t
1!"
1#"
b01010100 %"
1-"
14"
1G"
1K"
1O"
1S"
1W"
1["
1_"
1k"
1w"
#2325000000
0#
00
11
05
06
0B
0N
0d
0p
0!"
0-"
04"
0G"
0K"
0O"
0S"
0W"
0["
0_"
0k"
0w"
#2330000000
1#
1%
b01100011 '
b000000100100100100100 .
10
01
15
16
18
b01100011 ;
1B
1D
b01100011 G
1N
1P
b01100011 R
b000000100100100100100 Y
b00100001 [
b000000100100100100100 _
0b
1d
1f
b01100011 h
1p
0r
b00100001 t
1x
1y
b01010100 z
1!"
0#"
b00100001 %"
1&"
1'"
b01010100 ("
1*"
1-"
1/"
10"
b01010100 1"
14"
1@"
1G"
1I"
1K"
1O"
1P"
b01010100 R"
1S"
1W"
1["
1_"
1k"
1w"
#2335000000
0#
00
11
05
06
0B
0N
0d
0p
0!"
0-"
04"
0G"
0K"
0O"
0S"
0W"
0["
0_"
0k"
0w"
#2340000000
1#
b000000010010010010010 .
10
01
15
16
1B
1N
b000000010010010010010 Y
b000000010010010010010 _
1d
1p
0x
0y
1!"
0&"
0'"
0*"
1-"
0/"
00"
b00001 3"
14"
b00001 :"
b00001 <"
b00001 >"
0@"
1A"
1B"
1G"
0I"
b00001 J"
1K"
b00001 M"
b00001 N"
1O"
0P"
b0001 Q"
1S"
1T"
1W"
1Y"
1["
1_"
1k"
1w"
#2345000000
0#
00
11
05
06
0B
0N
0d
0p
0!"
0-"
04"
0G"
0K"
0O"
0S"
0W"
0["
0_"
0k"
0w"
#2350000000
1#
b000000001001001001001 .
10
01
15
16
1B
1N
b000000001001001001001 Y
b000000001001001001001 _
1b
1d
1p
1r
1{
b01010100 }
1!"
1#"
1-"
b00001 2"
14"
16"
b01010100 8"
b00001 9"
b00001 ;"
b00001 ="
0A"
0B"
b01010100 C"
1D"
1G"
1K"
1O"
1S"
0T"
b0001 U"
b01010100 V"
1W"
0Y"
b00001 Z"
1["
b00001 ]"
b00001 ^"
1_"
1a"
b01010100 c"
1k"
1w"
#2355000000
0#
00
11
05
06
0B
0N
0d
0p
0!"
0-"
04"
0G"
0K"
0O"
0S"
0W"
0["
0_"
0k"
0w"
#2360000000
1#
1(
b01010100 *
b000000000100100100100 .
10
01
15
16
1B
1N
1S
b01010100 U
b000000000100100100100 Y
b01010100 [
b000000000100100100100 _
0b
1c
1d
1p
0r
b01010100 t
1u
b01010100 w
1x
1y
b00100001 z
0{
bUUUUUUUU }
1!"
0#"
b01010100 %"
1&"
1'"
b00100001 ("
1*"
1-"
1/"
10"
b00100001 1"
14"
06"
bUUUUUUUU 8"
1@"
bUUUUUUUU C"
0D"
b01010100 E"
1G"
1I"
1K"
1O"
1P"
b00100001 R"
1S"
bUUUUUUUU V"
1W"
1["
1_"
0a"
bUUUUUUUU c"
1d"
b01010100 f"
1h"
1k"
1m"
b01010100 p"
1w"
1y"
b01010100 |"
#2365000000
0#
00
11
05
06
0B
0N
0d
0p
0!"
0-"
04"
0G"
0K"
0O"
0S"
0W"
0["
0_"
0k"
0w"
#2370000000
1#
0(
0)
b000000000010010010010 .
10
01
15
16
1B
1N
0S
0T
b000000000010010010010 Y
b01101000 [
b000000000010010010010 _
b00101 a
0c
1d
1p
b01101000 t
0u
0v
0x
0y
1!"
b01101000 %"
0&"
0'"
0*"
1-"
0/"
00"
b00010 3"
14"
b00010 :"
b00010 <"
b00010 >"
0@"
1A"
1B"
1G"
0I"
b00010 J"
1K"
b00010 M"
b00010 N"
1O"
0P"
b0010 Q"
1S"
1T"
1W"
1Y"
1["
1_"
0d"
0e"
0h"
1k"
0m"
0n"
1w"
0y"
0z"
#2375000000
0#
00
11
05
06
0B
0N
0d
0p
0!"
0-"
04"
0G"
0K"
0O"
0S"
0W"
0["
0_"
0k"
0w"
#2380000000
1#
b000000000001001001001 .
10
01
15
16
1B
1N
b000000000001001001001 Y
b000000000001001001001 _
1b
1d
1p
1r
1{
b00100001 }
1!"
1#"
1-"
b00010 2"
14"
16"
b00100001 8"
b00010 9"
b00010 ;"
b00010 ="
0A"
0B"
b00100001 C"
1D"
1G"
1K"
1O"
1S"
0T"
b0010 U"
b00100001 V"
1W"
0Y"
b00010 Z"
1["
b00010 ]"
b00010 ^"
1_"
1a"
b00100001 c"
1k"
1w"
#2385000000
0#
00
11
05
06
0B
0N
0d
0p
0!"
0-"
04"
0G"
0K"
0O"
0S"
0W"
0["
0_"
0k"
0w"
#2390000000
1#
1(
b00100001 *
0+
b100000000000100100100 .
10
01
15
16
1B
1N
1S
b00100001 U
0V
b100000000000100100100 Y
b01100101 [
b100000000000100100100 _
0b
1c
1d
1p
0r
b01100101 t
1u
b00100001 w
1x
1y
b01101000 z
0{
bUUUUUUUU }
1!"
0#"
b01100101 %"
1&"
1'"
b01101000 ("
1*"
1-"
1/"
10"
b01101000 1"
14"
06"
bUUUUUUUU 8"
1@"
bUUUUUUUU C"
0D"
b00100001 E"
1G"
1I"
1K"
1O"
1P"
b01101000 R"
1S"
bUUUUUUUU V"
1W"
1["
1_"
0a"
bUUUUUUUU c"
1d"
b00100001 f"
1h"
1k"
1m"
b00100001 p"
1w"
1y"
b00100001 |"
