tests/complex/vhlib/wave/work.streamprng_8_tc.vcd
$date
  Wed Jun 19 10:58:20 2019
$end
$version
  GHDL v0
$end
$timescale
  1 fs
$end
$scope module standard $end
$upscope $end
$scope module textio $end
$upscope $end
$scope module std_logic_1164 $end
$upscope $end
$scope module numeric_std $end
$upscope $end
$scope module std_logic_misc $end
$upscope $end
$scope module stream_pkg $end
$upscope $end
$scope module math_real $end
$upscope $end
$scope module testcase_pkg $end
$var reg 1 ! test $end
$var reg 1 " tc_model_init $end
$upscope $end
$scope module simdatacomms_pkg $end
$upscope $end
$scope module clockgen_pkg $end
$upscope $end
$scope module streammonitor_pkg $end
$upscope $end
$scope module streamsource_pkg $end
$upscope $end
$scope module streamsink_pkg $end
$upscope $end
$scope module utilint_pkg $end
$upscope $end
$scope module streamprng_8_tc $end
$scope module tv $end
$upscope $end
$scope module tb $end
$var reg 1 # clk $end
$var reg 1 $ reset $end
$var reg 1 % a_valid $end
$var reg 1 & a_ready $end
$var reg 8 ' a_data[7:0] $end
$scope module clkgen $end
$var reg 1 ( clk $end
$var reg 1 ) clk_n $end
$var reg 1 * reset $end
$var reg 1 + reset_n $end
$var reg 1 , sync $end
$var reg 1 - clk_i $end
$upscope $end
$scope module uut $end
$var reg 1 . clk $end
$var reg 1 / reset $end
$var reg 8 0 seed[7:0] $end
$var reg 1 1 out_valid $end
$var reg 1 2 out_ready $end
$var reg 8 3 out_data[7:0] $end
$comment r is not handled $end
$comment d is not handled $end
$upscope $end
$scope module a_sink $end
$var reg 1 4 clk $end
$var reg 1 5 reset $end
$var reg 1 6 valid $end
$var reg 1 7 ready $end
$var reg 1 8 dvalid $end
$var reg 8 9 data[7:0] $end
$var reg 1 : count[0:0] $end
$var reg 1 ; last $end
$var reg 1 < ctrl[0:0] $end
$var reg 1 = x[0:0] $end
$var reg 1 > y[0:0] $end
$var reg 1 ? z[0:0] $end
$scope module monitor $end
$var reg 1 @ clk $end
$var reg 1 A reset $end
$var reg 1 B valid $end
$var reg 1 C ready $end
$var reg 1 D dvalid $end
$var reg 8 E data[7:0] $end
$var reg 1 F count[0:0] $end
$var reg 1 G last $end
$var reg 1 H ctrl[0:0] $end
$var reg 1 I x[0:0] $end
$var reg 1 J y[0:0] $end
$var reg 1 K z[0:0] $end
$upscope $end
$upscope $end
$upscope $end
$upscope $end
$enddefinitions $end
#0
1!
1"
0#
1$
U%
U&
bUUUUUUUU '
0(
1)
1*
0+
0,
0-
0.
1/
b00000000 0
U1
U2
bUUUUUUUU 3
04
15
U6
U7
18
bUUUUUUUU 9
b1 :
1;
b0 <
b0 =
b0 >
b0 ?
0@
1A
UB
UC
1D
bUUUUUUUU E
b1 F
1G
b0 H
b0 I
b0 J
b0 K
#500000000
#600000000
#1000000000
1,
#2000000000
1#
0%
0&
b00000000 '
1(
0)
0,
1-
1.
01
02
b00000000 3
14
06
07
b00000000 9
1@
0B
0C
b00000000 E
#2005000000
0#
0(
1)
0-
0.
04
0@
#2010000000
1#
1(
0)
1-
1.
14
1@
#2015000000
0#
0(
1)
0-
0.
04
0@
#2020000000
1#
1(
0)
1-
1.
14
1@
#2025000000
0#
0(
1)
0-
0.
04
0@
#2030000000
1#
1(
0)
1-
1.
14
1@
#2035000000
0#
0(
1)
0-
0.
04
0@
#2040000000
1#
1(
0)
1-
1.
14
1@
#2045000000
0#
0(
1)
0-
0.
04
0@
#2050000000
1#
1(
0)
1-
1.
14
1@
#2055000000
0#
0(
1)
0-
0.
04
0@
#2060000000
1#
1(
0)
1-
1.
14
1@
#2065000000
0#
0(
1)
0-
0.
04
0@
#2070000000
1#
1(
0)
1-
1.
14
1@
#2075000000
0#
0(
1)
0-
0.
04
0@
#2080000000
1#
1(
0)
1-
1.
14
1@
#2085000000
0#
0(
1)
0-
0.
04
0@
#2090000000
1#
1(
0)
1-
1.
14
1@
#2095000000
0#
0(
1)
0-
0.
04
0@
#2100000000
1#
0$
1(
0)
0*
1+
1-
1.
0/
14
05
1@
0A
#2105000000
Z"
0#
0(
1)
0-
0.
04
0@
#2110000000
1#
1%
1&
b00000001 '
1(
0)
1-
1.
11
12
b00000001 3
14
16
17
b00000001 9
1@
1B
1C
b00000001 E
#2115000000
0#
0(
1)
0-
0.
04
0@
#2120000000
1#
0&
b00000011 '
1(
0)
1-
1.
02
b00000011 3
14
07
b00000011 9
1@
0C
b00000011 E
#2125000000
0#
0(
1)
0-
0.
04
0@
#2130000000
1#
1(
0)
1-
1.
14
1@
#2135000000
0#
0(
1)
0-
0.
04
0@
#2140000000
1#
1&
1(
0)
1-
1.
12
14
17
1@
1C
#2145000000
0#
0(
1)
0-
0.
04
0@
#2150000000
1#
b00000111 '
1(
0)
1-
1.
b00000111 3
14
b00000111 9
1@
b00000111 E
#2155000000
0#
0(
1)
0-
0.
04
0@
#2160000000
1#
0&
b00001111 '
1(
0)
1-
1.
02
b00001111 3
14
07
b00001111 9
1@
0C
b00001111 E
#2165000000
0#
0(
1)
0-
0.
04
0@
#2170000000
1#
1&
1(
0)
1-
1.
12
14
17
1@
1C
#2175000000
0#
0(
1)
0-
0.
04
0@
#2180000000
1#
0&
b00011110 '
1(
0)
1-
1.
02
b00011110 3
14
07
b00011110 9
1@
0C
b00011110 E
#2185000000
0#
0(
1)
0-
0.
04
0@
#2190000000
1#
1(
0)
1-
1.
14
1@
#2195000000
0#
0(
1)
0-
0.
04
0@
#2200000000
1#
1&
1(
0)
1-
1.
12
14
17
1@
1C
#2205000000
0#
0(
1)
0-
0.
04
0@
#2210000000
1#
b00111101 '
1(
0)
1-
1.
b00111101 3
14
b00111101 9
1@
b00111101 E
#2215000000
0#
0(
1)
0-
0.
04
0@
#2220000000
1#
b01111010 '
1(
0)
1-
1.
b01111010 3
14
b01111010 9
1@
b01111010 E
#2225000000
0#
0(
1)
0-
0.
04
0@
#2230000000
1#
b11110100 '
1(
0)
1-
1.
b11110100 3
14
b11110100 9
1@
b11110100 E
#2235000000
0#
0(
1)
0-
0.
04
0@
#2240000000
1#
b11101000 '
1(
0)
1-
1.
b11101000 3
14
b11101000 9
1@
b11101000 E
#2245000000
0#
0(
1)
0-
0.
04
0@
#2250000000
1#
b11010000 '
1(
0)
1-
1.
b11010000 3
14
b11010000 9
1@
b11010000 E
#2255000000
0#
0(
1)
0-
0.
04
0@
#2260000000
1#
b10100001 '
1(
0)
1-
1.
b10100001 3
14
b10100001 9
1@
b10100001 E
#2265000000
0#
0(
1)
0-
0.
04
0@
#2270000000
1#
b01000011 '
1(
0)
1-
1.
b01000011 3
14
b01000011 9
1@
b01000011 E
#2275000000
0#
0(
1)
0-
0.
04
0@
#2280000000
1#
0&
b10000111 '
1(
0)
1-
1.
02
b10000111 3
14
07
b10000111 9
1@
0C
b10000111 E
#2285000000
0#
0(
1)
0-
0.
04
0@
#2290000000
1#
1&
1(
0)
1-
1.
12
14
17
1@
1C
#2295000000
0#
0(
1)
0-
0.
04
0@
#2300000000
1#
b00001110 '
1(
0)
1-
1.
b00001110 3
14
b00001110 9
1@
b00001110 E
#2305000000
0#
0(
1)
0-
0.
04
0@
#2310000000
1#
b00011100 '
1(
0)
1-
1.
b00011100 3
14
b00011100 9
1@
b00011100 E
#2315000000
0#
0(
1)
0-
0.
04
0@
#2320000000
1#
b00111001 '
1(
0)
1-
1.
b00111001 3
14
b00111001 9
1@
b00111001 E
#2325000000
0#
0(
1)
0-
0.
04
0@
#2330000000
1#
b01110010 '
1(
0)
1-
1.
b01110010 3
14
b01110010 9
1@
b01110010 E
#2335000000
0#
0(
1)
0-
0.
04
0@
#2340000000
1#
0&
b11100101 '
1(
0)
1-
1.
02
b11100101 3
14
07
b11100101 9
1@
0C
b11100101 E
#2345000000
0#
0(
1)
0-
0.
04
0@
#2350000000
1#
1(
0)
1-
1.
14
1@
#2355000000
0#
0(
1)
0-
0.
04
0@
#2360000000
1#
1&
1(
0)
1-
1.
12
14
17
1@
1C
#2365000000
0#
0(
1)
0-
0.
04
0@
#2370000000
1#
b11001011 '
1(
0)
1-
1.
b11001011 3
14
b11001011 9
1@
b11001011 E
#2375000000
0#
0(
1)
0-
0.
04
0@
#2380000000
1#
0&
b10010111 '
1(
0)
1-
1.
02
b10010111 3
14
07
b10010111 9
1@
0C
b10010111 E
#2385000000
0#
0(
1)
0-
0.
04
0@
#2390000000
1#
1(
0)
1-
1.
14
1@
#2395000000
0#
0(
1)
0-
0.
04
0@
#2400000000
1#
1&
1(
0)
1-
1.
12
14
17
1@
1C
#2405000000
0#
0(
1)
0-
0.
04
0@
#2410000000
1#
b00101111 '
1(
0)
1-
1.
b00101111 3
14
b00101111 9
1@
b00101111 E
#2415000000
0#
0(
1)
0-
0.
04
0@
#2420000000
1#
b01011111 '
1(
0)
1-
1.
b01011111 3
14
b01011111 9
1@
b01011111 E
#2425000000
0#
0(
1)
0-
0.
04
0@
#2430000000
1#
b10111111 '
1(
0)
1-
1.
b10111111 3
14
b10111111 9
1@
b10111111 E
#2435000000
0#
0(
1)
0-
0.
04
0@
#2440000000
1#
b01111111 '
1(
0)
1-
1.
b01111111 3
14
b01111111 9
1@
b01111111 E
#2445000000
0#
0(
1)
0-
0.
04
0@
#2450000000
1#
b11111110 '
1(
0)
1-
1.
b11111110 3
14
b11111110 9
1@
b11111110 E
#2455000000
0#
0(
1)
0-
0.
04
0@
#2460000000
1#
b11111101 '
1(
0)
1-
1.
b11111101 3
14
b11111101 9
1@
b11111101 E
#2465000000
0#
0(
1)
0-
0.
04
0@
#2470000000
1#
b11111011 '
1(
0)
1-
1.
b11111011 3
14
b11111011 9
1@
b11111011 E
#2475000000
0#
0(
1)
0-
0.
04
0@
#2480000000
1#
0&
b11110111 '
1(
0)
1-
1.
02
b11110111 3
14
07
b11110111 9
1@
0C
b11110111 E
#2485000000
0#
0(
1)
0-
0.
04
0@
#2490000000
1#
1(
0)
1-
1.
14
1@
#2495000000
0#
0(
1)
0-
0.
04
0@
#2500000000
1#
1&
1(
0)
1-
1.
12
14
17
1@
1C
#2505000000
0#
0(
1)
0-
0.
04
0@
#2510000000
1#
b11101110 '
1(
0)
1-
1.
b11101110 3
14
b11101110 9
1@
b11101110 E
#2515000000
0#
0(
1)
0-
0.
04
0@
#2520000000
1#
b11011100 '
1(
0)
1-
1.
b11011100 3
14
b11011100 9
1@
b11011100 E
#2525000000
0#
0(
1)
0-
0.
04
0@
#2530000000
1#
b10111000 '
1(
0)
1-
1.
b10111000 3
14
b10111000 9
1@
b10111000 E
#2535000000
0#
0(
1)
0-
0.
04
0@
#2540000000
1#
b01110001 '
1(
0)
1-
1.
b01110001 3
14
b01110001 9
1@
b01110001 E
#2545000000
0#
0(
1)
0-
0.
04
0@
#2550000000
1#
b11100011 '
1(
0)
1-
1.
b11100011 3
14
b11100011 9
1@
b11100011 E
#2555000000
0#
0(
1)
0-
0.
04
0@
#2560000000
1#
b11000111 '
1(
0)
1-
1.
b11000111 3
14
b11000111 9
1@
b11000111 E
#2565000000
0#
0(
1)
0-
0.
04
0@
#2570000000
1#
b10001110 '
1(
0)
1-
1.
b10001110 3
14
b10001110 9
1@
b10001110 E
#2575000000
0#
0(
1)
0-
0.
04
0@
#2580000000
1#
b00011101 '
1(
0)
1-
1.
b00011101 3
14
b00011101 9
1@
b00011101 E
#2585000000
0#
0(
1)
0-
0.
04
0@
#2590000000
1#
b00111011 '
1(
0)
1-
1.
b00111011 3
14
b00111011 9
1@
b00111011 E
#2595000000
0#
0(
1)
0-
0.
04
0@
#2600000000
1#
b01110110 '
1(
0)
1-
1.
b01110110 3
14
b01110110 9
1@
b01110110 E
#2605000000
0#
0(
1)
0-
0.
04
0@
#2610000000
1#
0&
b11101101 '
1(
0)
1-
1.
02
b11101101 3
14
07
b11101101 9
1@
0C
b11101101 E
#2615000000
0#
0(
1)
0-
0.
04
0@
#2620000000
1#
1&
1(
0)
1-
1.
12
14
17
1@
1C
#2625000000
0#
0(
1)
0-
0.
04
0@
#2630000000
1#
b11011010 '
1(
0)
1-
1.
b11011010 3
14
b11011010 9
1@
b11011010 E
#2635000000
0#
0(
1)
0-
0.
04
0@
#2640000000
1#
b10110100 '
1(
0)
1-
1.
b10110100 3
14
b10110100 9
1@
b10110100 E
#2645000000
0#
0(
1)
0-
0.
04
0@
#2650000000
1#
b01101000 '
1(
0)
1-
1.
b01101000 3
14
b01101000 9
1@
b01101000 E
#2655000000
0#
0(
1)
0-
0.
04
0@
#2660000000
1#
b11010001 '
1(
0)
1-
1.
b11010001 3
14
b11010001 9
1@
b11010001 E
#2665000000
0#
0(
1)
0-
0.
04
0@
#2670000000
1#
0&
b10100011 '
1(
0)
1-
1.
02
b10100011 3
14
07
b10100011 9
1@
0C
b10100011 E
#2675000000
0#
0(
1)
0-
0.
04
0@
#2680000000
1#
1(
0)
1-
1.
14
1@
#2685000000
0#
0(
1)
0-
0.
04
0@
#2690000000
1#
1&
1(
0)
1-
1.
12
14
17
1@
1C
#2695000000
0#
0(
1)
0-
0.
04
0@
#2700000000
1#
0&
b01000111 '
1(
0)
1-
1.
02
b01000111 3
14
07
b01000111 9
1@
0C
b01000111 E
#2705000000
0#
0(
1)
0-
0.
04
0@
#2710000000
1#
1&
1(
0)
1-
1.
12
14
17
1@
1C
#2715000000
0#
0(
1)
0-
0.
04
0@
#2720000000
1#
b10001111 '
1(
0)
1-
1.
b10001111 3
14
b10001111 9
1@
b10001111 E
#2725000000
0#
0(
1)
0-
0.
04
0@
#2730000000
1#
b00011111 '
1(
0)
1-
1.
b00011111 3
14
b00011111 9
1@
b00011111 E
#2735000000
0#
0(
1)
0-
0.
04
0@
#2740000000
1#
b00111111 '
1(
0)
1-
1.
b00111111 3
14
b00111111 9
1@
b00111111 E
#2745000000
0#
0(
1)
0-
0.
04
0@
#2750000000
1#
b01111110 '
1(
0)
1-
1.
b01111110 3
14
b01111110 9
1@
b01111110 E
#2755000000
0#
0(
1)
0-
0.
04
0@
#2760000000
1#
0&
b11111100 '
1(
0)
1-
1.
02
b11111100 3
14
07
b11111100 9
1@
0C
b11111100 E
#2765000000
0#
0(
1)
0-
0.
04
0@
#2770000000
1#
1(
0)
1-
1.
14
1@
#2775000000
0#
0(
1)
0-
0.
04
0@
#2780000000
1#
1&
1(
0)
1-
1.
12
14
17
1@
1C
#2785000000
0#
0(
1)
0-
0.
04
0@
#2790000000
1#
b11111001 '
1(
0)
1-
1.
b11111001 3
14
b11111001 9
1@
b11111001 E
#2795000000
0#
0(
1)
0-
0.
04
0@
#2800000000
1#
b11110011 '
1(
0)
1-
1.
b11110011 3
14
b11110011 9
1@
b11110011 E
#2805000000
0#
0(
1)
0-
0.
04
0@
#2810000000
1#
0&
b11100110 '
1(
0)
1-
1.
02
b11100110 3
14
07
b11100110 9
1@
0C
b11100110 E
#2815000000
0#
0(
1)
0-
0.
04
0@
#2820000000
1#
1&
1(
0)
1-
1.
12
14
17
1@
1C
#2825000000
0#
0(
1)
0-
0.
04
0@
#2830000000
1#
0&
b11001101 '
1(
0)
1-
1.
02
b11001101 3
14
07
b11001101 9
1@
0C
b11001101 E
#2835000000
0#
0(
1)
0-
0.
04
0@
#2840000000
1#
1&
1(
0)
1-
1.
12
14
17
1@
1C
#2845000000
0#
0(
1)
0-
0.
04
0@
#2850000000
1#
b10011011 '
1(
0)
1-
1.
b10011011 3
14
b10011011 9
1@
b10011011 E
#2855000000
0#
0(
1)
0-
0.
04
0@
#2860000000
1#
b00110110 '
1(
0)
1-
1.
b00110110 3
14
b00110110 9
1@
b00110110 E
#2865000000
0#
0(
1)
0-
0.
04
0@
#2870000000
1#
b01101101 '
1(
0)
1-
1.
b01101101 3
14
b01101101 9
1@
b01101101 E
#2875000000
0#
0(
1)
0-
0.
04
0@
#2880000000
1#
b11011011 '
1(
0)
1-
1.
b11011011 3
14
b11011011 9
1@
b11011011 E
#2885000000
0#
0(
1)
0-
0.
04
0@
#2890000000
1#
b10110110 '
1(
0)
1-
1.
b10110110 3
14
b10110110 9
1@
b10110110 E
#2895000000
0#
0(
1)
0-
0.
04
0@
#2900000000
1#
b01101100 '
1(
0)
1-
1.
b01101100 3
14
b01101100 9
1@
b01101100 E
#2905000000
0#
0(
1)
0-
0.
04
0@
#2910000000
1#
0&
b11011001 '
1(
0)
1-
1.
02
b11011001 3
14
07
b11011001 9
1@
0C
b11011001 E
#2915000000
0#
0(
1)
0-
0.
04
0@
#2920000000
1#
1(
0)
1-
1.
14
1@
#2925000000
0#
0(
1)
0-
0.
04
0@
#2930000000
1#
1&
1(
0)
1-
1.
12
14
17
1@
1C
#2935000000
0#
0(
1)
0-
0.
04
0@
#2940000000
1#
0&
b10110010 '
1(
0)
1-
1.
02
b10110010 3
14
07
b10110010 9
1@
0C
b10110010 E
#2945000000
0#
0(
1)
0-
0.
04
0@
#2950000000
1#
1&
1(
0)
1-
1.
12
14
17
1@
1C
#2955000000
0#
0(
1)
0-
0.
04
0@
#2960000000
1#
b01100100 '
1(
0)
1-
1.
b01100100 3
14
b01100100 9
1@
b01100100 E
#2965000000
0#
0(
1)
0-
0.
04
0@
#2970000000
1#
b11001000 '
1(
0)
1-
1.
b11001000 3
14
b11001000 9
1@
b11001000 E
#2975000000
0#
0(
1)
0-
0.
04
0@
#2980000000
1#
b10010001 '
1(
0)
1-
1.
b10010001 3
14
b10010001 9
1@
b10010001 E
#2985000000
0#
0(
1)
0-
0.
04
0@
#2990000000
1#
b00100011 '
1(
0)
1-
1.
b00100011 3
14
b00100011 9
1@
b00100011 E
#2995000000
0#
0(
1)
0-
0.
04
0@
#3000000000
1#
b01000110 '
1(
0)
1,
1-
1.
b01000110 3
14
b01000110 9
1@
b01000110 E
#3005000000
0#
0(
1)
0-
0.
04
0@
#3010000000
1#
0&
b10001101 '
1(
0)
1-
1.
02
b10001101 3
14
07
b10001101 9
1@
0C
b10001101 E
#3015000000
0#
0(
1)
0-
0.
04
0@
#3020000000
1#
1(
0)
1-
1.
14
1@
#3025000000
0#
0(
1)
0-
0.
04
0@
#3030000000
1#
1&
1(
0)
1-
1.
12
14
17
1@
1C
#3035000000
0#
0(
1)
0-
0.
04
0@
#3040000000
1#
b00011011 '
1(
0)
1-
1.
b00011011 3
14
b00011011 9
1@
b00011011 E
#3045000000
0#
0(
1)
0-
0.
04
0@
#3050000000
1#
b00110111 '
1(
0)
1-
1.
b00110111 3
14
b00110111 9
1@
b00110111 E
#3055000000
0#
0(
1)
0-
0.
04
0@
#3060000000
1#
b01101111 '
1(
0)
1-
1.
b01101111 3
14
b01101111 9
1@
b01101111 E
#3065000000
0#
0(
1)
0-
0.
04
0@
#3070000000
1#
0&
b11011111 '
1(
0)
1-
1.
02
b11011111 3
14
07
b11011111 9
1@
0C
b11011111 E
#3075000000
0#
0(
1)
0-
0.
04
0@
#3080000000
1#
1&
1(
0)
1-
1.
12
14
17
1@
1C
#3085000000
0#
0(
1)
0-
0.
04
0@
#3090000000
1#
b10111110 '
1(
0)
1-
1.
b10111110 3
14
b10111110 9
1@
b10111110 E
#3095000000
0#
0(
1)
0-
0.
04
0@
#3100000000
1#
b01111101 '
1(
0)
1-
1.
b01111101 3
14
b01111101 9
1@
b01111101 E
#3105000000
0#
0(
1)
0-
0.
04
0@
#3110000000
1#
0&
b11111010 '
1(
0)
1-
1.
02
b11111010 3
14
07
b11111010 9
1@
0C
b11111010 E
#3115000000
0#
0(
1)
0-
0.
04
0@
#3120000000
1#
1(
0)
1-
1.
14
1@
#3125000000
0#
0(
1)
0-
0.
04
0@
#3130000000
1#
1&
1(
0)
1-
1.
12
14
17
1@
1C
#3135000000
0#
0(
1)
0-
0.
04
0@
#3140000000
1#
b11110101 '
1(
0)
1-
1.
b11110101 3
14
b11110101 9
1@
b11110101 E
#3145000000
0#
0(
1)
0-
0.
04
0@
#3150000000
1#
0&
b11101010 '
1(
0)
1-
1.
02
b11101010 3
14
07
b11101010 9
1@
0C
b11101010 E
#3155000000
0#
0(
1)
0-
0.
04
0@
#3160000000
1#
1(
0)
1-
1.
14
1@
#3165000000
0#
0(
1)
0-
0.
04
0@
#3170000000
1#
1&
1(
0)
1-
1.
12
14
17
1@
1C
#3175000000
0#
0(
1)
0-
0.
04
0@
#3180000000
1#
b11010100 '
1(
0)
1-
1.
b11010100 3
14
b11010100 9
1@
b11010100 E
#3185000000
0#
0(
1)
0-
0.
04
0@
#3190000000
1#
b10101001 '
1(
0)
1-
1.
b10101001 3
14
b10101001 9
1@
b10101001 E
#3195000000
0#
0(
1)
0-
0.
04
0@
#3200000000
1#
b01010010 '
1(
0)
1-
1.
b01010010 3
14
b01010010 9
1@
b01010010 E
#3205000000
0#
0(
1)
0-
0.
04
0@
#3210000000
1#
b10100100 '
1(
0)
1-
1.
b10100100 3
14
b10100100 9
1@
b10100100 E
#3215000000
0#
0(
1)
0-
0.
04
0@
#3220000000
1#
b01001001 '
1(
0)
1-
1.
b01001001 3
14
b01001001 9
1@
b01001001 E
#3225000000
0#
0(
1)
0-
0.
04
0@
#3230000000
1#
0&
b10010010 '
1(
0)
1-
1.
02
b10010010 3
14
07
b10010010 9
1@
0C
b10010010 E
#3235000000
0#
0(
1)
0-
0.
04
0@
#3240000000
1#
1(
0)
1-
1.
14
1@
#3245000000
0#
0(
1)
0-
0.
04
0@
#3250000000
1#
1&
1(
0)
1-
1.
12
14
17
1@
1C
#3255000000
0#
0(
1)
0-
0.
04
0@
#3260000000
1#
b00100101 '
1(
0)
1-
1.
b00100101 3
14
b00100101 9
1@
b00100101 E
#3265000000
0#
0(
1)
0-
0.
04
0@
#3270000000
1#
b01001010 '
1(
0)
1-
1.
b01001010 3
14
b01001010 9
1@
b01001010 E
#3275000000
0#
0(
1)
0-
0.
04
0@
#3280000000
1#
b10010100 '
1(
0)
1-
1.
b10010100 3
14
b10010100 9
1@
b10010100 E
#3285000000
0#
0(
1)
0-
0.
04
0@
#3290000000
1#
b00101001 '
1(
0)
1-
1.
b00101001 3
14
b00101001 9
1@
b00101001 E
#3295000000
0#
0(
1)
0-
0.
04
0@
#3300000000
1#
b01010011 '
1(
0)
1-
1.
b01010011 3
14
b01010011 9
1@
b01010011 E
#3305000000
0#
0(
1)
0-
0.
04
0@
#3310000000
1#
b10100110 '
1(
0)
1-
1.
b10100110 3
14
b10100110 9
1@
b10100110 E
#3315000000
0#
0(
1)
0-
0.
04
0@
#3320000000
1#
b01001101 '
1(
0)
1-
1.
b01001101 3
14
b01001101 9
1@
b01001101 E
#3325000000
0#
0(
1)
0-
0.
04
0@
#3330000000
1#
0&
b10011010 '
1(
0)
1-
1.
02
b10011010 3
14
07
b10011010 9
1@
0C
b10011010 E
#3335000000
0#
0(
1)
0-
0.
04
0@
#3340000000
1#
1(
0)
1-
1.
14
1@
#3345000000
0#
0(
1)
0-
0.
04
0@
#3350000000
1#
1&
1(
0)
1-
1.
12
14
17
1@
1C
#3355000000
0#
0(
1)
0-
0.
04
0@
#3360000000
1#
b00110100 '
1(
0)
1-
1.
b00110100 3
14
b00110100 9
1@
b00110100 E
#3365000000
0#
0(
1)
0-
0.
04
0@
#3370000000
1#
b01101001 '
1(
0)
1-
1.
b01101001 3
14
b01101001 9
1@
b01101001 E
#3375000000
0#
0(
1)
0-
0.
04
0@
#3380000000
1#
b11010011 '
1(
0)
1-
1.
b11010011 3
14
b11010011 9
1@
b11010011 E
#3385000000
0#
0(
1)
0-
0.
04
0@
#3390000000
1#
b10100111 '
1(
0)
1-
1.
b10100111 3
14
b10100111 9
1@
b10100111 E
#3395000000
0#
0(
1)
0-
0.
04
0@
#3400000000
1#
b01001111 '
1(
0)
1-
1.
b01001111 3
14
b01001111 9
1@
b01001111 E
#3405000000
0#
0(
1)
0-
0.
04
0@
#3410000000
1#
b10011110 '
1(
0)
1-
1.
b10011110 3
14
b10011110 9
1@
b10011110 E
#3415000000
0#
0(
1)
0-
0.
04
0@
#3420000000
1#
b00111100 '
1(
0)
1-
1.
b00111100 3
14
b00111100 9
1@
b00111100 E
#3425000000
0#
0(
1)
0-
0.
04
0@
#3430000000
1#
b01111000 '
1(
0)
1-
1.
b01111000 3
14
b01111000 9
1@
b01111000 E
#3435000000
0#
0(
1)
0-
0.
04
0@
#3440000000
1#
0&
b11110000 '
1(
0)
1-
1.
02
b11110000 3
14
07
b11110000 9
1@
0C
b11110000 E
#3445000000
0#
0(
1)
0-
0.
04
0@
#3450000000
1#
1&
1(
0)
1-
1.
12
14
17
1@
1C
#3455000000
0#
0(
1)
0-
0.
04
0@
#3460000000
1#
b11100000 '
1(
0)
1-
1.
b11100000 3
14
b11100000 9
1@
b11100000 E
#3465000000
0#
0(
1)
0-
0.
04
0@
#3470000000
1#
0&
b11000001 '
1(
0)
1-
1.
02
b11000001 3
14
07
b11000001 9
1@
0C
b11000001 E
#3475000000
0#
0(
1)
0-
0.
04
0@
#3480000000
1#
1&
1(
0)
1-
1.
12
14
17
1@
1C
#3485000000
0#
0(
1)
0-
0.
04
0@
#3490000000
1#
b10000010 '
1(
0)
1-
1.
b10000010 3
14
b10000010 9
1@
b10000010 E
#3495000000
0#
0(
1)
0-
0.
04
0@
#3500000000
1#
b00000100 '
1(
0)
1-
1.
b00000100 3
14
b00000100 9
1@
b00000100 E
#3505000000
0#
0(
1)
0-
0.
04
0@
#3510000000
1#
b00001001 '
1(
0)
1-
1.
b00001001 3
14
b00001001 9
1@
b00001001 E
#3515000000
0#
0(
1)
0-
0.
04
0@
#3520000000
1#
0&
b00010010 '
1(
0)
1-
1.
02
b00010010 3
14
07
b00010010 9
1@
0C
b00010010 E
#3525000000
0#
0(
1)
0-
0.
04
0@
#3530000000
1#
1&
1(
0)
1-
1.
12
14
17
1@
1C
#3535000000
0#
0(
1)
0-
0.
04
0@
#3540000000
1#
b00100100 '
1(
0)
1-
1.
b00100100 3
14
b00100100 9
1@
b00100100 E
#3545000000
0#
0(
1)
0-
0.
04
0@
#3550000000
1#
0&
b01001000 '
1(
0)
1-
1.
02
b01001000 3
14
07
b01001000 9
1@
0C
b01001000 E
#3555000000
0#
0(
1)
0-
0.
04
0@
#3560000000
1#
1&
1(
0)
1-
1.
12
14
17
1@
1C
#3565000000
0#
0(
1)
0-
0.
04
0@
#3570000000
1#
b10010000 '
1(
0)
1-
1.
b10010000 3
14
b10010000 9
1@
b10010000 E
#3575000000
0#
0(
1)
0-
0.
04
0@
#3580000000
1#
b00100001 '
1(
0)
1-
1.
b00100001 3
14
b00100001 9
1@
b00100001 E
#3585000000
0#
0(
1)
0-
0.
04
0@
#3590000000
1#
b01000010 '
1(
0)
1-
1.
b01000010 3
14
b01000010 9
1@
b01000010 E
#3595000000
0#
0(
1)
0-
0.
04
0@
#3600000000
1#
0&
b10000101 '
1(
0)
1-
1.
02
b10000101 3
14
07
b10000101 9
1@
0C
b10000101 E
#3605000000
0#
0(
1)
0-
0.
04
0@
#3610000000
1#
1&
1(
0)
1-
1.
12
14
17
1@
1C
#3615000000
0#
0(
1)
0-
0.
04
0@
#3620000000
1#
b00001010 '
1(
0)
1-
1.
b00001010 3
14
b00001010 9
1@
b00001010 E
#3625000000
0#
0(
1)
0-
0.
04
0@
#3630000000
1#
b00010100 '
1(
0)
1-
1.
b00010100 3
14
b00010100 9
1@
b00010100 E
#3635000000
0#
0(
1)
0-
0.
04
0@
#3640000000
1#
b00101000 '
1(
0)
1-
1.
b00101000 3
14
b00101000 9
1@
b00101000 E
#3645000000
0#
0(
1)
0-
0.
04
0@
#3650000000
1#
b01010001 '
1(
0)
1-
1.
b01010001 3
14
b01010001 9
1@
b01010001 E
#3655000000
0#
0(
1)
0-
0.
04
0@
#3660000000
1#
b10100010 '
1(
0)
1-
1.
b10100010 3
14
b10100010 9
1@
b10100010 E
#3665000000
0#
0(
1)
0-
0.
04
0@
#3670000000
1#
b01000101 '
1(
0)
1-
1.
b01000101 3
14
b01000101 9
1@
b01000101 E
#3675000000
0#
0(
1)
0-
0.
04
0@
#3680000000
1#
b10001011 '
1(
0)
1-
1.
b10001011 3
14
b10001011 9
1@
b10001011 E
#3685000000
0#
0(
1)
0-
0.
04
0@
#3690000000
1#
b00010111 '
1(
0)
1-
1.
b00010111 3
14
b00010111 9
1@
b00010111 E
#3695000000
0#
0(
1)
0-
0.
04
0@
#3700000000
1#
b00101110 '
1(
0)
1-
1.
b00101110 3
14
b00101110 9
1@
b00101110 E
#3705000000
0#
0(
1)
0-
0.
04
0@
#3710000000
1#
b01011101 '
1(
0)
1-
1.
b01011101 3
14
b01011101 9
1@
b01011101 E
#3715000000
0#
0(
1)
0-
0.
04
0@
#3720000000
1#
0&
b10111011 '
1(
0)
1-
1.
02
b10111011 3
14
07
b10111011 9
1@
0C
b10111011 E
#3725000000
0#
0(
1)
0-
0.
04
0@
#3730000000
1#
1(
0)
1-
1.
14
1@
#3735000000
0#
0(
1)
0-
0.
04
0@
#3740000000
1#
1&
1(
0)
1-
1.
12
14
17
1@
1C
#3745000000
0#
0(
1)
0-
0.
04
0@
#3750000000
1#
b01110111 '
1(
0)
1-
1.
b01110111 3
14
b01110111 9
1@
b01110111 E
#3755000000
0#
0(
1)
0-
0.
04
0@
#3760000000
1#
b11101111 '
1(
0)
1-
1.
b11101111 3
14
b11101111 9
1@
b11101111 E
#3765000000
0#
0(
1)
0-
0.
04
0@
#3770000000
1#
b11011110 '
1(
0)
1-
1.
b11011110 3
14
b11011110 9
1@
b11011110 E
#3775000000
0#
0(
1)
0-
0.
04
0@
#3780000000
1#
b10111100 '
1(
0)
1-
1.
b10111100 3
14
b10111100 9
1@
b10111100 E
#3785000000
0#
0(
1)
0-
0.
04
0@
#3790000000
1#
b01111001 '
1(
0)
1-
1.
b01111001 3
14
b01111001 9
1@
b01111001 E
#3795000000
0#
0(
1)
0-
0.
04
0@
