tests/complex/vhlib/wave/work.streamgearbox_32_5_16_4_tc.vcd
$date
  Wed Jun 19 10:58:20 2019
$end
$version
  GHDL v0
$end
$timescale
  1 fs
$end
$scope module standard $end
$upscope $end
$scope module textio $end
$upscope $end
$scope module std_logic_1164 $end
$upscope $end
$scope module numeric_std $end
$upscope $end
$scope module std_logic_misc $end
$upscope $end
$scope module stream_pkg $end
$upscope $end
$scope module math_real $end
$upscope $end
$scope module testcase_pkg $end
$var reg 1 ! test $end
$var reg 1 " tc_model_init $end
$upscope $end
$scope module simdatacomms_pkg $end
$upscope $end
$scope module clockgen_pkg $end
$upscope $end
$scope module streammonitor_pkg $end
$upscope $end
$scope module streamsource_pkg $end
$upscope $end
$scope module streamsink_pkg $end
$upscope $end
$scope module utilint_pkg $end
$upscope $end
$scope module streamgearbox_32_5_16_4_tc $end
$scope module tv $end
$upscope $end
$scope module tb $end
$var reg 1 # clk $end
$var reg 1 $ reset $end
$var reg 1 % a_valid $end
$var reg 1 & a_ready $end
$var reg 256 ' a_data[255:0] $end
$var reg 5 ( a_count[4:0] $end
$var reg 1 ) a_last $end
$var reg 1 * b_valid $end
$var reg 1 + b_ready $end
$var reg 128 , b_data[127:0] $end
$var reg 4 - b_count[3:0] $end
$var reg 1 . b_last $end
$scope module clkgen $end
$var reg 1 / clk $end
$var reg 1 0 clk_n $end
$var reg 1 1 reset $end
$var reg 1 2 reset_n $end
$var reg 1 3 sync $end
$var reg 1 4 clk_i $end
$upscope $end
$scope module a_source $end
$var reg 1 5 clk $end
$var reg 1 6 reset $end
$var reg 1 7 valid $end
$var reg 1 8 ready $end
$var reg 1 9 dvalid $end
$var reg 256 : data[255:0] $end
$var reg 5 ; count[4:0] $end
$var reg 1 < last $end
$var reg 1 = ctrl[0:0] $end
$var reg 1 > x[0:0] $end
$var reg 1 ? y[0:0] $end
$var reg 1 @ z[0:0] $end
$scope module monitor $end
$var reg 1 A clk $end
$var reg 1 B reset $end
$var reg 1 C valid $end
$var reg 1 D ready $end
$var reg 1 E dvalid $end
$var reg 256 F data[255:0] $end
$var reg 5 G count[4:0] $end
$var reg 1 H last $end
$var reg 1 I ctrl[0:0] $end
$var reg 1 J x[0:0] $end
$var reg 1 K y[0:0] $end
$var reg 1 L z[0:0] $end
$upscope $end
$upscope $end
$scope module uut $end
$var reg 1 M clk $end
$var reg 1 N reset $end
$var reg 1 O in_valid $end
$var reg 1 P in_ready $end
$var reg 256 Q in_data[255:0] $end
$var reg 5 R in_count[4:0] $end
$var reg 1 S in_last $end
$var reg 1 T out_valid $end
$var reg 1 U out_ready $end
$var reg 128 V out_data[127:0] $end
$var reg 4 W out_count[3:0] $end
$var reg 1 X out_last $end
$scope module serialize $end
$scope module inst $end
$var reg 1 Y clk $end
$var reg 1 Z reset $end
$var reg 1 [ in_valid $end
$var reg 1 \ in_ready $end
$var reg 256 ] in_data[255:0] $end
$var reg 5 ^ in_count[4:0] $end
$var reg 1 _ in_last $end
$var reg 1 ` out_valid $end
$var reg 1 a out_ready $end
$var reg 128 b out_data[127:0] $end
$var reg 4 c out_count[3:0] $end
$var reg 1 d out_last $end
$var reg 1 e in_ready_s $end
$var reg 1 f last_subword $end
$var reg 256 g data_r[255:0] $end
$var reg 1 h last_r $end
$var reg 5 i count_r[4:0] $end
$var reg 1 j null_r $end
$var reg 1 k reg_valid $end
$scope module no_ctrl_data_gen $end
$upscope $end
$upscope $end
$upscope $end
$upscope $end
$scope module b_sink $end
$var reg 1 l clk $end
$var reg 1 m reset $end
$var reg 1 n valid $end
$var reg 1 o ready $end
$var reg 1 p dvalid $end
$var reg 128 q data[127:0] $end
$var reg 4 r count[3:0] $end
$var reg 1 s last $end
$var reg 1 t ctrl[0:0] $end
$var reg 1 u x[0:0] $end
$var reg 1 v y[0:0] $end
$var reg 1 w z[0:0] $end
$scope module monitor $end
$var reg 1 x clk $end
$var reg 1 y reset $end
$var reg 1 z valid $end
$var reg 1 { ready $end
$var reg 1 | dvalid $end
$var reg 128 } data[127:0] $end
$var reg 4 !" count[3:0] $end
$var reg 1 "" last $end
$var reg 1 #" ctrl[0:0] $end
$var reg 1 $" x[0:0] $end
$var reg 1 %" y[0:0] $end
$var reg 1 &" z[0:0] $end
$upscope $end
$upscope $end
$upscope $end
$upscope $end
$enddefinitions $end
#0
1!
1"
0#
1$
U%
U&
bUUUUUUUUUUUUUUUUUUUUUUUUUUUUUUUUUUUUUUUUUUUUUUUUUUUUUUUUUUUUUUUUUUUUUUUUUUUUUUUUUUUUUUUUUUUUUUUUUUUUUUUUUUUUUUUUUUUUUUUUUUUUUUUUUUUUUUUUUUUUUUUUUUUUUUUUUUUUUUUUUUUUUUUUUUUUUUUUUUUUUUUUUUUUUUUUUUUUUUUUUUUUUUUUUUUUUUUUUUUUUUUUUUUUUUUUUUUUUUUUUUUUUUUUUUUUUUUU '
bUUUUU (
U)
U*
U+
bUUUUUUUUUUUUUUUUUUUUUUUUUUUUUUUUUUUUUUUUUUUUUUUUUUUUUUUUUUUUUUUUUUUUUUUUUUUUUUUUUUUUUUUUUUUUUUUUUUUUUUUUUUUUUUUUUUUUUUUUUUUUUUUU ,
b0000 -
U.
0/
10
11
02
03
04
05
16
U7
U8
U9
bUUUUUUUUUUUUUUUUUUUUUUUUUUUUUUUUUUUUUUUUUUUUUUUUUUUUUUUUUUUUUUUUUUUUUUUUUUUUUUUUUUUUUUUUUUUUUUUUUUUUUUUUUUUUUUUUUUUUUUUUUUUUUUUUUUUUUUUUUUUUUUUUUUUUUUUUUUUUUUUUUUUUUUUUUUUUUUUUUUUUUUUUUUUUUUUUUUUUUUUUUUUUUUUUUUUUUUUUUUUUUUUUUUUUUUUUUUUUUUUUUUUUUUUUUUUUUUUU :
bUUUUU ;
U<
bU =
bU >
bU ?
bU @
0A
1B
UC
UD
UE
bUUUUUUUUUUUUUUUUUUUUUUUUUUUUUUUUUUUUUUUUUUUUUUUUUUUUUUUUUUUUUUUUUUUUUUUUUUUUUUUUUUUUUUUUUUUUUUUUUUUUUUUUUUUUUUUUUUUUUUUUUUUUUUUUUUUUUUUUUUUUUUUUUUUUUUUUUUUUUUUUUUUUUUUUUUUUUUUUUUUUUUUUUUUUUUUUUUUUUUUUUUUUUUUUUUUUUUUUUUUUUUUUUUUUUUUUUUUUUUUUUUUUUUUUUUUUUUUU F
bUUUUU G
UH
bU I
bU J
bU K
bU L
0M
1N
UO
UP
bUUUUUUUUUUUUUUUUUUUUUUUUUUUUUUUUUUUUUUUUUUUUUUUUUUUUUUUUUUUUUUUUUUUUUUUUUUUUUUUUUUUUUUUUUUUUUUUUUUUUUUUUUUUUUUUUUUUUUUUUUUUUUUUUUUUUUUUUUUUUUUUUUUUUUUUUUUUUUUUUUUUUUUUUUUUUUUUUUUUUUUUUUUUUUUUUUUUUUUUUUUUUUUUUUUUUUUUUUUUUUUUUUUUUUUUUUUUUUUUUUUUUUUUUUUUUUUUU Q
bUUUUU R
US
UT
UU
bUUUUUUUUUUUUUUUUUUUUUUUUUUUUUUUUUUUUUUUUUUUUUUUUUUUUUUUUUUUUUUUUUUUUUUUUUUUUUUUUUUUUUUUUUUUUUUUUUUUUUUUUUUUUUUUUUUUUUUUUUUUUUUUU V
b0000 W
UX
0Y
1Z
U[
U\
bUUUUUUUUUUUUUUUUUUUUUUUUUUUUUUUUUUUUUUUUUUUUUUUUUUUUUUUUUUUUUUUUUUUUUUUUUUUUUUUUUUUUUUUUUUUUUUUUUUUUUUUUUUUUUUUUUUUUUUUUUUUUUUUUUUUUUUUUUUUUUUUUUUUUUUUUUUUUUUUUUUUUUUUUUUUUUUUUUUUUUUUUUUUUUUUUUUUUUUUUUUUUUUUUUUUUUUUUUUUUUUUUUUUUUUUUUUUUUUUUUUUUUUUUUUUUUUUU ]
bUUUUU ^
U_
U`
Ua
bUUUUUUUUUUUUUUUUUUUUUUUUUUUUUUUUUUUUUUUUUUUUUUUUUUUUUUUUUUUUUUUUUUUUUUUUUUUUUUUUUUUUUUUUUUUUUUUUUUUUUUUUUUUUUUUUUUUUUUUUUUUUUUUU b
b0000 c
Ud
Ue
Uf
bUUUUUUUUUUUUUUUUUUUUUUUUUUUUUUUUUUUUUUUUUUUUUUUUUUUUUUUUUUUUUUUUUUUUUUUUUUUUUUUUUUUUUUUUUUUUUUUUUUUUUUUUUUUUUUUUUUUUUUUUUUUUUUUUUUUUUUUUUUUUUUUUUUUUUUUUUUUUUUUUUUUUUUUUUUUUUUUUUUUUUUUUUUUUUUUUUUUUUUUUUUUUUUUUUUUUUUUUUUUUUUUUUUUUUUUUUUUUUUUUUUUUUUUUUUUUUUUU g
Uh
bUUUUU i
Uj
Uk
0l
1m
Un
Uo
1p
bUUUUUUUUUUUUUUUUUUUUUUUUUUUUUUUUUUUUUUUUUUUUUUUUUUUUUUUUUUUUUUUUUUUUUUUUUUUUUUUUUUUUUUUUUUUUUUUUUUUUUUUUUUUUUUUUUUUUUUUUUUUUUUUU q
b0000 r
Us
b0 t
b0 u
b0 v
b0 w
0x
1y
Uz
U{
1|
bUUUUUUUUUUUUUUUUUUUUUUUUUUUUUUUUUUUUUUUUUUUUUUUUUUUUUUUUUUUUUUUUUUUUUUUUUUUUUUUUUUUUUUUUUUUUUUUUUUUUUUUUUUUUUUUUUUUUUUUUUUUUUUUU }
b0000 !"
U""
b0 #"
b0 $"
b0 %"
b0 &"
#500000000
#600000000
#1000000000
13
#2000000000
1#
0%
1&
0*
0+
1/
00
03
14
15
07
18
U9
bUUUUUUUUUUUUUUUUUUUUUUUUUUUUUUUUUUUUUUUUUUUUUUUUUUUUUUUUUUUUUUUUUUUUUUUUUUUUUUUUUUUUUUUUUUUUUUUUUUUUUUUUUUUUUUUUUUUUUUUUUUUUUUUUUUUUUUUUUUUUUUUUUUUUUUUUUUUUUUUUUUUUUUUUUUUUUUUUUUUUUUUUUUUUUUUUUUUUUUUUUUUUUUUUUUUUUUUUUUUUUUUUUUUUUUUUUUUUUUUUUUUUUUUUUUUUUUUU :
bUUUUU ;
U<
bU =
bU >
bU ?
bU @
1A
0C
1D
1M
0O
1P
0T
0U
1Y
0[
1\
0`
0a
1e
0k
1l
0n
0o
1x
0z
0{
#2005000000
0#
0/
10
04
05
0A
0M
0Y
0l
0x
#2010000000
1#
1/
00
14
15
1A
1M
1Y
1l
1x
#2015000000
0#
0/
10
04
05
0A
0M
0Y
0l
0x
#2020000000
1#
1/
00
14
15
1A
1M
1Y
1l
1x
#2025000000
0#
0/
10
04
05
0A
0M
0Y
0l
0x
#2030000000
1#
1/
00
14
15
1A
1M
1Y
1l
1x
#2035000000
0#
0/
10
04
05
0A
0M
0Y
0l
0x
#2040000000
1#
1/
00
14
15
1A
1M
1Y
1l
1x
#2045000000
0#
0/
10
04
05
0A
0M
0Y
0l
0x
#2050000000
1#
1/
00
14
15
1A
1M
1Y
1l
1x
#2055000000
0#
0/
10
04
05
0A
0M
0Y
0l
0x
#2060000000
1#
1/
00
14
15
1A
1M
1Y
1l
1x
#2065000000
0#
0/
10
04
05
0A
0M
0Y
0l
0x
#2070000000
1#
1/
00
14
15
1A
1M
1Y
1l
1x
#2075000000
0#
0/
10
04
05
0A
0M
0Y
0l
0x
#2080000000
1#
1/
00
14
15
1A
1M
1Y
1l
1x
#2085000000
0#
0/
10
04
05
0A
0M
0Y
0l
0x
#2090000000
1#
1/
00
14
15
1A
1M
1Y
1l
1x
#2095000000
0#
0/
10
04
05
0A
0M
0Y
0l
0x
#2100000000
1#
0$
1/
00
01
12
14
15
06
1A
0B
1M
0N
1Y
0Z
1l
0m
1x
0y
#2105000000
Z"
0#
0/
10
04
05
0A
0M
0Y
0l
0x
#2110000000
1#
1%
b0111010000100000011100100110010101110110011011110010000001110011011100000110110101110101011010100010000001111000011011110110011000100000011011100111011101101111011100100110001000100000011010110110001101101001011101010111000100100000011001010110100001010100 '
b00000 (
0)
1/
00
14
15
17
19
b0111010000100000011100100110010101110110011011110010000001110011011100000110110101110101011010100010000001111000011011110110011000100000011011100111011101101111011100100110001000100000011010110110001101101001011101010111000100100000011001010110100001010100 :
b00000 ;
0<
1A
1C
1E
b0111010000100000011100100110010101110110011011110010000001110011011100000110110101110101011010100010000001111000011011110110011000100000011011100111011101101111011100100110001000100000011010110110001101101001011101010111000100100000011001010110100001010100 F
b00000 G
0H
1M
1O
b0111010000100000011100100110010101110110011011110010000001110011011100000110110101110101011010100010000001111000011011110110011000100000011011100111011101101111011100100110001000100000011010110110001101101001011101010111000100100000011001010110100001010100 Q
b00000 R
0S
1Y
1[
b0111010000100000011100100110010101110110011011110010000001110011011100000110110101110101011010100010000001111000011011110110011000100000011011100111011101101111011100100110001000100000011010110110001101101001011101010111000100100000011001010110100001010100 ]
b00000 ^
0_
1l
1x
#2115000000
0#
0/
10
04
05
0A
0M
0Y
0l
0x
#2120000000
1#
0%
0&
1*
b00100000011011100111011101101111011100100110001000100000011010110110001101101001011101010111000100100000011001010110100001010100 ,
0.
1/
00
14
15
07
08
1A
0C
0D
1M
0O
0P
1T
b00100000011011100111011101101111011100100110001000100000011010110110001101101001011101010111000100100000011001010110100001010100 V
0X
1Y
0[
0\
1`
b00100000011011100111011101101111011100100110001000100000011010110110001101101001011101010111000100100000011001010110100001010100 b
0d
0e
0f
b0111010000100000011100100110010101110110011011110010000001110011011100000110110101110101011010100010000001111000011011110110011000100000011011100111011101101111011100100110001000100000011010110110001101101001011101010111000100100000011001010110100001010100 g
0h
b00000 i
0j
1k
1l
1n
b00100000011011100111011101101111011100100110001000100000011010110110001101101001011101010111000100100000011001010110100001010100 q
0s
1x
1z
b00100000011011100111011101101111011100100110001000100000011010110110001101101001011101010111000100100000011001010110100001010100 }
0""
#2125000000
0#
0/
10
04
05
0A
0M
0Y
0l
0x
#2130000000
1#
1+
1/
00
14
15
1A
1M
1U
1Y
1a
1l
1o
1x
1{
#2135000000
0#
0/
10
04
05
0A
0M
0Y
0l
0x
#2140000000
1#
0+
b01110100001000000111001001100101011101100110111100100000011100110111000001101101011101010110101000100000011110000110111101100110 ,
1/
00
14
15
1A
1M
0U
b01110100001000000111001001100101011101100110111100100000011100110111000001101101011101010110101000100000011110000110111101100110 V
1Y
0a
b01110100001000000111001001100101011101100110111100100000011100110111000001101101011101010110101000100000011110000110111101100110 b
1f
b0111010000100000011100100110010101110110011011110010000001110011011100000110110101110101011010100010000001111000011011110110011001110100001000000111001001100101011101100110111100100000011100110111000001101101011101010110101000100000011110000110111101100110 g
b10000 i
1l
0o
b01110100001000000111001001100101011101100110111100100000011100110111000001101101011101010110101000100000011110000110111101100110 q
1x
0{
b01110100001000000111001001100101011101100110111100100000011100110111000001101101011101010110101000100000011110000110111101100110 }
#2145000000
0#
0/
10
04
05
0A
0M
0Y
0l
0x
#2150000000
1#
1/
00
14
15
1A
1M
1Y
1l
1x
#2155000000
0#
0/
10
04
05
0A
0M
0Y
0l
0x
#2160000000
1#
1%
bUUUUUUUUUUUUUUUUUUUUUUUUUUUUUUUUUUUUUUUUUUUUUUUUUUUUUUUUUUUUUUUUUUUUUUUUUUUUUUUUUUUUUUUUUUUUUUUUUUUUUUUUUUUUUUUUUUUUUUUUUUUUUUUUUUUUUUUUUUUUUUUUUUUUUUUUUUUUUUUU001011100110011101101111011001000010000001111001011110100110000101101100001000000110010101101000 '
b01100 (
1)
1/
00
14
15
17
bUUUUUUUUUUUUUUUUUUUUUUUUUUUUUUUUUUUUUUUUUUUUUUUUUUUUUUUUUUUUUUUUUUUUUUUUUUUUUUUUUUUUUUUUUUUUUUUUUUUUUUUUUUUUUUUUUUUUUUUUUUUUUUUUUUUUUUUUUUUUUUUUUUUUUUUUUUUUUUUU001011100110011101101111011001000010000001111001011110100110000101101100001000000110010101101000 :
b01100 ;
1<
1A
1C
bUUUUUUUUUUUUUUUUUUUUUUUUUUUUUUUUUUUUUUUUUUUUUUUUUUUUUUUUUUUUUUUUUUUUUUUUUUUUUUUUUUUUUUUUUUUUUUUUUUUUUUUUUUUUUUUUUUUUUUUUUUUUUUUUUUUUUUUUUUUUUUUUUUUUUUUUUUUUUUUU001011100110011101101111011001000010000001111001011110100110000101101100001000000110010101101000 F
b01100 G
1H
1M
1O
bUUUUUUUUUUUUUUUUUUUUUUUUUUUUUUUUUUUUUUUUUUUUUUUUUUUUUUUUUUUUUUUUUUUUUUUUUUUUUUUUUUUUUUUUUUUUUUUUUUUUUUUUUUUUUUUUUUUUUUUUUUUUUUUUUUUUUUUUUUUUUUUUUUUUUUUUUUUUUUUU001011100110011101101111011001000010000001111001011110100110000101101100001000000110010101101000 Q
b01100 R
1S
1Y
1[
bUUUUUUUUUUUUUUUUUUUUUUUUUUUUUUUUUUUUUUUUUUUUUUUUUUUUUUUUUUUUUUUUUUUUUUUUUUUUUUUUUUUUUUUUUUUUUUUUUUUUUUUUUUUUUUUUUUUUUUUUUUUUUUUUUUUUUUUUUUUUUUUUUUUUUUUUUUUUUUUU001011100110011101101111011001000010000001111001011110100110000101101100001000000110010101101000 ]
b01100 ^
1_
1l
1x
#2165000000
0#
0/
10
04
05
0A
0M
0Y
0l
0x
#2170000000
1#
1/
00
14
15
1A
1M
1Y
1l
1x
#2175000000
0#
0/
10
04
05
0A
0M
0Y
0l
0x
#2180000000
1#
1/
00
14
15
1A
1M
1Y
1l
1x
#2185000000
0#
0/
10
04
05
0A
0M
0Y
0l
0x
#2190000000
1#
1&
1+
1/
00
14
15
18
1A
1D
1M
1P
1U
1Y
1\
1a
1e
1l
1o
1x
1{
#2195000000
0#
0/
10
04
05
0A
0M
0Y
0l
0x
#2200000000
1#
0%
bUUUUUUUUUUUUUUUUUUUUUUUUUUUUUUUU001011100110011101101111011001000010000001111001011110100110000101101100001000000110010101101000 ,
b1100 -
1.
1/
00
14
15
07
1A
0C
1M
0O
bUUUUUUUUUUUUUUUUUUUUUUUUUUUUUUUU001011100110011101101111011001000010000001111001011110100110000101101100001000000110010101101000 V
b1100 W
1X
1Y
0[
bUUUUUUUUUUUUUUUUUUUUUUUUUUUUUUUU001011100110011101101111011001000010000001111001011110100110000101101100001000000110010101101000 b
b1100 c
1d
bUUUUUUUUUUUUUUUUUUUUUUUUUUUUUUUUUUUUUUUUUUUUUUUUUUUUUUUUUUUUUUUUUUUUUUUUUUUUUUUUUUUUUUUUUUUUUUUUUUUUUUUUUUUUUUUUUUUUUUUUUUUUUUUUUUUUUUUUUUUUUUUUUUUUUUUUUUUUUUUU001011100110011101101111011001000010000001111001011110100110000101101100001000000110010101101000 g
1h
b01100 i
1l
bUUUUUUUUUUUUUUUUUUUUUUUUUUUUUUUU001011100110011101101111011001000010000001111001011110100110000101101100001000000110010101101000 q
b1100 r
1s
1x
bUUUUUUUUUUUUUUUUUUUUUUUUUUUUUUUU001011100110011101101111011001000010000001111001011110100110000101101100001000000110010101101000 }
b1100 !"
1""
#2205000000
0#
0/
10
04
05
0A
0M
0Y
0l
0x
#2210000000
1#
0*
0+
bUUUUUUUUUUUUUUUUUUUUUUUUUUUUUUUUUUUUUUUUUUUUUUUUUUUUUUUUUUUUUUUUUUUUUUUUUUUUUUUUUUUUUUUUUUUUUUUUUUUUUUUUUUUUUUUUUUUUUUUUUUUUUUUU ,
1/
00
14
15
1A
1M
0T
0U
bUUUUUUUUUUUUUUUUUUUUUUUUUUUUUUUUUUUUUUUUUUUUUUUUUUUUUUUUUUUUUUUUUUUUUUUUUUUUUUUUUUUUUUUUUUUUUUUUUUUUUUUUUUUUUUUUUUUUUUUUUUUUUUUU V
1Y
0`
0a
bUUUUUUUUUUUUUUUUUUUUUUUUUUUUUUUUUUUUUUUUUUUUUUUUUUUUUUUUUUUUUUUUUUUUUUUUUUUUUUUUUUUUUUUUUUUUUUUUUUUUUUUUUUUUUUUUUUUUUUUUUUUUUUUU b
bUUUUUUUUUUUUUUUUUUUUUUUUUUUUUUUUUUUUUUUUUUUUUUUUUUUUUUUUUUUUUUUUUUUUUUUUUUUUUUUUUUUUUUUUUUUUUUUUUUUUUUUUUUUUUUUUUUUUUUUUUUUUUUUUUUUUUUUUUUUUUUUUUUUUUUUUUUUUUUUUUUUUUUUUUUUUUUUUUUUUUUUUUUUUUUUUUUUUUUUUUUUUUUUUUUUUUUUUUUUUUUUUUUUUUUUUUUUUUUUUUUUUUUUUUUUUUUUU g
0k
1l
0n
0o
bUUUUUUUUUUUUUUUUUUUUUUUUUUUUUUUUUUUUUUUUUUUUUUUUUUUUUUUUUUUUUUUUUUUUUUUUUUUUUUUUUUUUUUUUUUUUUUUUUUUUUUUUUUUUUUUUUUUUUUUUUUUUUUUU q
1x
0z
0{
bUUUUUUUUUUUUUUUUUUUUUUUUUUUUUUUUUUUUUUUUUUUUUUUUUUUUUUUUUUUUUUUUUUUUUUUUUUUUUUUUUUUUUUUUUUUUUUUUUUUUUUUUUUUUUUUUUUUUUUUUUUUUUUUU }
#2215000000
0#
0/
10
04
05
0A
0M
0Y
0l
0x
#2220000000
1#
1/
00
14
15
1A
1M
1Y
1l
1x
#2225000000
0#
0/
10
04
05
0A
0M
0Y
0l
0x
#2230000000
1#
1/
00
14
15
1A
1M
1Y
1l
1x
#2235000000
0#
0/
10
04
05
0A
0M
0Y
0l
0x
#2240000000
1#
1/
00
14
15
1A
1M
1Y
1l
1x
#2245000000
0#
0/
10
04
05
0A
0M
0Y
0l
0x
#2250000000
1#
1%
b0111010000100000011100100110010101110110011011110010000001110011011100000110110101110101011010100010000001111000011011110110011000100000011011100111011101101111011100100110001000100000011010110110001101101001011101010111000100100000011001010110100001010100 '
b00000 (
0)
1+
1/
00
14
15
17
b0111010000100000011100100110010101110110011011110010000001110011011100000110110101110101011010100010000001111000011011110110011000100000011011100111011101101111011100100110001000100000011010110110001101101001011101010111000100100000011001010110100001010100 :
b00000 ;
0<
1A
1C
b0111010000100000011100100110010101110110011011110010000001110011011100000110110101110101011010100010000001111000011011110110011000100000011011100111011101101111011100100110001000100000011010110110001101101001011101010111000100100000011001010110100001010100 F
b00000 G
0H
1M
1O
b0111010000100000011100100110010101110110011011110010000001110011011100000110110101110101011010100010000001111000011011110110011000100000011011100111011101101111011100100110001000100000011010110110001101101001011101010111000100100000011001010110100001010100 Q
b00000 R
0S
1U
1Y
1[
b0111010000100000011100100110010101110110011011110010000001110011011100000110110101110101011010100010000001111000011011110110011000100000011011100111011101101111011100100110001000100000011010110110001101101001011101010111000100100000011001010110100001010100 ]
b00000 ^
0_
1a
1l
1o
1x
1{
#2255000000
0#
0/
10
04
05
0A
0M
0Y
0l
0x
#2260000000
1#
0&
bUUUUUUUUUUUUUUUUUUUUUUUUUUUUUUUUUUUUUUUUUUUUUUUUUUUUUUUUUUUUUUUUUUUUUUUUUUUUUUUUUUUUUUUUUUUUUUUUUUUUUUUUUUUUUUUUUUUUUUUUUUUUUUUUUUUUUUUUUUUUUUUUUUUUUUUUUUUUUUUUUUUUUUUU0110011101101111011001000010000001111001011110100110000101101100001000000110010101101000 '
b01011 (
1)
1*
b00100000011011100111011101101111011100100110001000100000011010110110001101101001011101010111000100100000011001010110100001010100 ,
b0000 -
0.
1/
00
14
15
08
bUUUUUUUUUUUUUUUUUUUUUUUUUUUUUUUUUUUUUUUUUUUUUUUUUUUUUUUUUUUUUUUUUUUUUUUUUUUUUUUUUUUUUUUUUUUUUUUUUUUUUUUUUUUUUUUUUUUUUUUUUUUUUUUUUUUUUUUUUUUUUUUUUUUUUUUUUUUUUUUUUUUUUUUU0110011101101111011001000010000001111001011110100110000101101100001000000110010101101000 :
b01011 ;
1<
1A
0D
bUUUUUUUUUUUUUUUUUUUUUUUUUUUUUUUUUUUUUUUUUUUUUUUUUUUUUUUUUUUUUUUUUUUUUUUUUUUUUUUUUUUUUUUUUUUUUUUUUUUUUUUUUUUUUUUUUUUUUUUUUUUUUUUUUUUUUUUUUUUUUUUUUUUUUUUUUUUUUUUUUUUUUUUU0110011101101111011001000010000001111001011110100110000101101100001000000110010101101000 F
b01011 G
1H
1M
0P
bUUUUUUUUUUUUUUUUUUUUUUUUUUUUUUUUUUUUUUUUUUUUUUUUUUUUUUUUUUUUUUUUUUUUUUUUUUUUUUUUUUUUUUUUUUUUUUUUUUUUUUUUUUUUUUUUUUUUUUUUUUUUUUUUUUUUUUUUUUUUUUUUUUUUUUUUUUUUUUUUUUUUUUUU0110011101101111011001000010000001111001011110100110000101101100001000000110010101101000 Q
b01011 R
1S
1T
b00100000011011100111011101101111011100100110001000100000011010110110001101101001011101010111000100100000011001010110100001010100 V
b0000 W
0X
1Y
0\
bUUUUUUUUUUUUUUUUUUUUUUUUUUUUUUUUUUUUUUUUUUUUUUUUUUUUUUUUUUUUUUUUUUUUUUUUUUUUUUUUUUUUUUUUUUUUUUUUUUUUUUUUUUUUUUUUUUUUUUUUUUUUUUUUUUUUUUUUUUUUUUUUUUUUUUUUUUUUUUUUUUUUUUUU0110011101101111011001000010000001111001011110100110000101101100001000000110010101101000 ]
b01011 ^
1_
1`
b00100000011011100111011101101111011100100110001000100000011010110110001101101001011101010111000100100000011001010110100001010100 b
b0000 c
0d
0e
0f
b0111010000100000011100100110010101110110011011110010000001110011011100000110110101110101011010100010000001111000011011110110011000100000011011100111011101101111011100100110001000100000011010110110001101101001011101010111000100100000011001010110100001010100 g
0h
b00000 i
1k
1l
1n
b00100000011011100111011101101111011100100110001000100000011010110110001101101001011101010111000100100000011001010110100001010100 q
b0000 r
0s
1x
1z
b00100000011011100111011101101111011100100110001000100000011010110110001101101001011101010111000100100000011001010110100001010100 }
b0000 !"
0""
#2265000000
0#
0/
10
04
05
0A
0M
0Y
0l
0x
#2270000000
1#
1&
b01110100001000000111001001100101011101100110111100100000011100110111000001101101011101010110101000100000011110000110111101100110 ,
1/
00
14
15
18
1A
1D
1M
1P
b01110100001000000111001001100101011101100110111100100000011100110111000001101101011101010110101000100000011110000110111101100110 V
1Y
1\
b01110100001000000111001001100101011101100110111100100000011100110111000001101101011101010110101000100000011110000110111101100110 b
1e
1f
b0111010000100000011100100110010101110110011011110010000001110011011100000110110101110101011010100010000001111000011011110110011001110100001000000111001001100101011101100110111100100000011100110111000001101101011101010110101000100000011110000110111101100110 g
b10000 i
1l
b01110100001000000111001001100101011101100110111100100000011100110111000001101101011101010110101000100000011110000110111101100110 q
1x
b01110100001000000111001001100101011101100110111100100000011100110111000001101101011101010110101000100000011110000110111101100110 }
#2275000000
0#
0/
10
04
05
0A
0M
0Y
0l
0x
#2280000000
1#
0%
0&
0+
bUUUUUUUUUUUUUUUUUUUUUUUUUUUUUUUUUUUUUUUU0110011101101111011001000010000001111001011110100110000101101100001000000110010101101000 ,
b1011 -
1.
1/
00
14
15
07
08
1A
0C
0D
1M
0O
0P
0U
bUUUUUUUUUUUUUUUUUUUUUUUUUUUUUUUUUUUUUUUU0110011101101111011001000010000001111001011110100110000101101100001000000110010101101000 V
b1011 W
1X
1Y
0[
0\
0a
bUUUUUUUUUUUUUUUUUUUUUUUUUUUUUUUUUUUUUUUU0110011101101111011001000010000001111001011110100110000101101100001000000110010101101000 b
b1011 c
1d
0e
bUUUUUUUUUUUUUUUUUUUUUUUUUUUUUUUUUUUUUUUUUUUUUUUUUUUUUUUUUUUUUUUUUUUUUUUUUUUUUUUUUUUUUUUUUUUUUUUUUUUUUUUUUUUUUUUUUUUUUUUUUUUUUUUUUUUUUUUUUUUUUUUUUUUUUUUUUUUUUUUUUUUUUUUU0110011101101111011001000010000001111001011110100110000101101100001000000110010101101000 g
1h
b01011 i
1l
0o
bUUUUUUUUUUUUUUUUUUUUUUUUUUUUUUUUUUUUUUUU0110011101101111011001000010000001111001011110100110000101101100001000000110010101101000 q
b1011 r
1s
1x
0{
bUUUUUUUUUUUUUUUUUUUUUUUUUUUUUUUUUUUUUUUU0110011101101111011001000010000001111001011110100110000101101100001000000110010101101000 }
b1011 !"
1""
#2285000000
0#
0/
10
04
05
0A
0M
0Y
0l
0x
#2290000000
1#
1&
1+
1/
00
14
15
18
1A
1D
1M
1P
1U
1Y
1\
1a
1e
1l
1o
1x
1{
#2295000000
0#
0/
10
04
05
0A
0M
0Y
0l
0x
