tests/complex/vhlib/wave/work.streamgearbox_5_4_3_2_tc.vcd
$date
  Wed Jun 19 10:58:20 2019
$end
$version
  GHDL v0
$end
$timescale
  1 fs
$end
$scope module standard $end
$upscope $end
$scope module textio $end
$upscope $end
$scope module std_logic_1164 $end
$upscope $end
$scope module numeric_std $end
$upscope $end
$scope module std_logic_misc $end
$upscope $end
$scope module stream_pkg $end
$upscope $end
$scope module math_real $end
$upscope $end
$scope module testcase_pkg $end
$var reg 1 ! test $end
$var reg 1 " tc_model_init $end
$upscope $end
$scope module simdatacomms_pkg $end
$upscope $end
$scope module clockgen_pkg $end
$upscope $end
$scope module streammonitor_pkg $end
$upscope $end
$scope module streamsource_pkg $end
$upscope $end
$scope module streamsink_pkg $end
$upscope $end
$scope module utilint_pkg $end
$upscope $end
$scope module streamgearbox_5_4_3_2_tc $end
$scope module tv $end
$upscope $end
$scope module tb $end
$var reg 1 # clk $end
$var reg 1 $ reset $end
$var reg 1 % a_valid $end
$var reg 1 & a_ready $end
$var reg 40 ' a_data[39:0] $end
$var reg 4 ( a_count[3:0] $end
$var reg 1 ) a_last $end
$var reg 1 * b_valid $end
$var reg 1 + b_ready $end
$var reg 24 , b_data[23:0] $end
$var reg 2 - b_count[1:0] $end
$var reg 1 . b_last $end
$scope module clkgen $end
$var reg 1 / clk $end
$var reg 1 0 clk_n $end
$var reg 1 1 reset $end
$var reg 1 2 reset_n $end
$var reg 1 3 sync $end
$var reg 1 4 clk_i $end
$upscope $end
$scope module a_source $end
$var reg 1 5 clk $end
$var reg 1 6 reset $end
$var reg 1 7 valid $end
$var reg 1 8 ready $end
$var reg 1 9 dvalid $end
$var reg 40 : data[39:0] $end
$var reg 4 ; count[3:0] $end
$var reg 1 < last $end
$var reg 1 = ctrl[0:0] $end
$var reg 1 > x[0:0] $end
$var reg 1 ? y[0:0] $end
$var reg 1 @ z[0:0] $end
$scope module monitor $end
$var reg 1 A clk $end
$var reg 1 B reset $end
$var reg 1 C valid $end
$var reg 1 D ready $end
$var reg 1 E dvalid $end
$var reg 40 F data[39:0] $end
$var reg 4 G count[3:0] $end
$var reg 1 H last $end
$var reg 1 I ctrl[0:0] $end
$var reg 1 J x[0:0] $end
$var reg 1 K y[0:0] $end
$var reg 1 L z[0:0] $end
$upscope $end
$upscope $end
$scope module uut $end
$var reg 1 M clk $end
$var reg 1 N reset $end
$var reg 1 O in_valid $end
$var reg 1 P in_ready $end
$var reg 40 Q in_data[39:0] $end
$var reg 4 R in_count[3:0] $end
$var reg 1 S in_last $end
$var reg 1 T out_valid $end
$var reg 1 U out_ready $end
$var reg 24 V out_data[23:0] $end
$var reg 2 W out_count[1:0] $end
$var reg 1 X out_last $end
$scope module serialize $end
$scope module inst $end
$var reg 1 Y clk $end
$var reg 1 Z reset $end
$var reg 1 [ in_valid $end
$var reg 1 \ in_ready $end
$var reg 40 ] in_data[39:0] $end
$var reg 4 ^ in_count[3:0] $end
$var reg 1 _ in_last $end
$var reg 1 ` out_valid $end
$var reg 1 a out_ready $end
$var reg 24 b out_data[23:0] $end
$var reg 2 c out_count[1:0] $end
$var reg 1 d out_last $end
$var reg 1 e in_ready_s $end
$var reg 1 f last_subword $end
$var reg 40 g data_r[39:0] $end
$var reg 1 h last_r $end
$var reg 4 i count_r[3:0] $end
$var reg 1 j null_r $end
$var reg 1 k reg_valid $end
$scope module no_ctrl_data_gen $end
$upscope $end
$upscope $end
$upscope $end
$upscope $end
$scope module b_sink $end
$var reg 1 l clk $end
$var reg 1 m reset $end
$var reg 1 n valid $end
$var reg 1 o ready $end
$var reg 1 p dvalid $end
$var reg 24 q data[23:0] $end
$var reg 2 r count[1:0] $end
$var reg 1 s last $end
$var reg 1 t ctrl[0:0] $end
$var reg 1 u x[0:0] $end
$var reg 1 v y[0:0] $end
$var reg 1 w z[0:0] $end
$scope module monitor $end
$var reg 1 x clk $end
$var reg 1 y reset $end
$var reg 1 z valid $end
$var reg 1 { ready $end
$var reg 1 | dvalid $end
$var reg 24 } data[23:0] $end
$var reg 2 !" count[1:0] $end
$var reg 1 "" last $end
$var reg 1 #" ctrl[0:0] $end
$var reg 1 $" x[0:0] $end
$var reg 1 %" y[0:0] $end
$var reg 1 &" z[0:0] $end
$upscope $end
$upscope $end
$upscope $end
$upscope $end
$enddefinitions $end
#0
1!
1"
0#
1$
U%
U&
bUUUUUUUUUUUUUUUUUUUUUUUUUUUUUUUUUUUUUUUU '
bUUUU (
U)
U*
U+
bUUUUUUUUUUUUUUUUUUUUUUUU ,
b11 -
U.
0/
10
11
02
03
04
05
16
U7
U8
U9
bUUUUUUUUUUUUUUUUUUUUUUUUUUUUUUUUUUUUUUUU :
bUUUU ;
U<
bU =
bU >
bU ?
bU @
0A
1B
UC
UD
UE
bUUUUUUUUUUUUUUUUUUUUUUUUUUUUUUUUUUUUUUUU F
bUUUU G
UH
bU I
bU J
bU K
bU L
0M
1N
UO
UP
bUUUUUUUUUUUUUUUUUUUUUUUUUUUUUUUUUUUUUUUU Q
bUUUU R
US
UT
UU
bUUUUUUUUUUUUUUUUUUUUUUUU V
b11 W
UX
0Y
1Z
U[
U\
bUUUUUUUUUUUUUUUUUUUUUUUUUUUUUUUUUUUUUUUU ]
bUUUU ^
U_
U`
Ua
bUUUUUUUUUUUUUUUUUUUUUUUU b
b11 c
Ud
Ue
Uf
bUUUUUUUUUUUUUUUUUUUUUUUUUUUUUUUUUUUUUUUU g
Uh
bUUUU i
Uj
Uk
0l
1m
Un
Uo
1p
bUUUUUUUUUUUUUUUUUUUUUUUU q
b11 r
Us
b0 t
b0 u
b0 v
b0 w
0x
1y
Uz
U{
1|
bUUUUUUUUUUUUUUUUUUUUUUUU }
b11 !"
U""
b0 #"
b0 $"
b0 %"
b0 &"
#500000000
#600000000
#1000000000
13
#2000000000
1#
0%
1&
0*
0+
1/
00
03
14
15
07
18
U9
bUUUUUUUUUUUUUUUUUUUUUUUUUUUUUUUUUUUUUUUU :
bUUUU ;
U<
bU =
bU >
bU ?
bU @
1A
0C
1D
1M
0O
1P
0T
0U
1Y
0[
1\
0`
0a
1e
0k
1l
0n
0o
1x
0z
0{
#2005000000
0#
0/
10
04
05
0A
0M
0Y
0l
0x
#2010000000
1#
1/
00
14
15
1A
1M
1Y
1l
1x
#2015000000
0#
0/
10
04
05
0A
0M
0Y
0l
0x
#2020000000
1#
1/
00
14
15
1A
1M
1Y
1l
1x
#2025000000
0#
0/
10
04
05
0A
0M
0Y
0l
0x
#2030000000
1#
1/
00
14
15
1A
1M
1Y
1l
1x
#2035000000
0#
0/
10
04
05
0A
0M
0Y
0l
0x
#2040000000
1#
1/
00
14
15
1A
1M
1Y
1l
1x
#2045000000
0#
0/
10
04
05
0A
0M
0Y
0l
0x
#2050000000
1#
1/
00
14
15
1A
1M
1Y
1l
1x
#2055000000
0#
0/
10
04
05
0A
0M
0Y
0l
0x
#2060000000
1#
1/
00
14
15
1A
1M
1Y
1l
1x
#2065000000
0#
0/
10
04
05
0A
0M
0Y
0l
0x
#2070000000
1#
1/
00
14
15
1A
1M
1Y
1l
1x
#2075000000
0#
0/
10
04
05
0A
0M
0Y
0l
0x
#2080000000
1#
1/
00
14
15
1A
1M
1Y
1l
1x
#2085000000
0#
0/
10
04
05
0A
0M
0Y
0l
0x
#2090000000
1#
1/
00
14
15
1A
1M
1Y
1l
1x
#2095000000
0#
0/
10
04
05
0A
0M
0Y
0l
0x
#2100000000
1#
0$
1/
00
01
12
14
15
06
1A
0B
1M
0N
1Y
0Z
1l
0m
1x
0y
#2105000000
Z"
0#
0/
10
04
05
0A
0M
0Y
0l
0x
#2110000000
1#
1%
b0111000100100000011001010110100001010100 '
b0101 (
0)
1/
00
14
15
17
19
b0111000100100000011001010110100001010100 :
b0101 ;
0<
1A
1C
1E
b0111000100100000011001010110100001010100 F
b0101 G
0H
1M
1O
b0111000100100000011001010110100001010100 Q
b0101 R
0S
1Y
1[
b0111000100100000011001010110100001010100 ]
b0101 ^
0_
1l
1x
#2115000000
0#
0/
10
04
05
0A
0M
0Y
0l
0x
#2120000000
1#
0%
0&
1*
b011001010110100001010100 ,
0.
1/
00
14
15
07
08
1A
0C
0D
1M
0O
0P
1T
b011001010110100001010100 V
0X
1Y
0[
0\
1`
b011001010110100001010100 b
0d
0e
0f
b0111000100100000011001010110100001010100 g
0h
b0101 i
0j
1k
1l
1n
b011001010110100001010100 q
0s
1x
1z
b011001010110100001010100 }
0""
#2125000000
0#
0/
10
04
05
0A
0M
0Y
0l
0x
#2130000000
1#
1+
1/
00
14
15
1A
1M
1U
1Y
1a
1l
1o
1x
1{
#2135000000
0#
0/
10
04
05
0A
0M
0Y
0l
0x
#2140000000
1#
0+
b011001010111000100100000 ,
b10 -
1/
00
14
15
1A
1M
0U
b011001010111000100100000 V
b10 W
1Y
0a
b011001010111000100100000 b
b10 c
1f
b0111000100100000011001010111000100100000 g
b0010 i
1l
0o
b011001010111000100100000 q
b10 r
1x
0{
b011001010111000100100000 }
b10 !"
#2145000000
0#
0/
10
04
05
0A
0M
0Y
0l
0x
#2150000000
1#
1/
00
14
15
1A
1M
1Y
1l
1x
#2155000000
0#
0/
10
04
05
0A
0M
0Y
0l
0x
#2160000000
1#
1%
bUUUUUUUUUUUUUUUUUUUUUUUU0110100101110101 '
b0010 (
1/
00
14
15
17
bUUUUUUUUUUUUUUUUUUUUUUUU0110100101110101 :
b0010 ;
1A
1C
bUUUUUUUUUUUUUUUUUUUUUUUU0110100101110101 F
b0010 G
1M
1O
bUUUUUUUUUUUUUUUUUUUUUUUU0110100101110101 Q
b0010 R
1Y
1[
bUUUUUUUUUUUUUUUUUUUUUUUU0110100101110101 ]
b0010 ^
1l
1x
#2165000000
0#
0/
10
04
05
0A
0M
0Y
0l
0x
#2170000000
1#
1/
00
14
15
1A
1M
1Y
1l
1x
#2175000000
0#
0/
10
04
05
0A
0M
0Y
0l
0x
#2180000000
1#
1/
00
14
15
1A
1M
1Y
1l
1x
#2185000000
0#
0/
10
04
05
0A
0M
0Y
0l
0x
#2190000000
1#
1&
1+
1/
00
14
15
18
1A
1D
1M
1P
1U
1Y
1\
1a
1e
1l
1o
1x
1{
#2195000000
0#
0/
10
04
05
0A
0M
0Y
0l
0x
#2200000000
1#
bUUUUUUUU01100010001000000110101101100011 '
b0100 (
bUUUUUUUU0110100101110101 ,
1/
00
14
15
bUUUUUUUU01100010001000000110101101100011 :
b0100 ;
1A
bUUUUUUUU01100010001000000110101101100011 F
b0100 G
1M
bUUUUUUUU01100010001000000110101101100011 Q
b0100 R
bUUUUUUUU0110100101110101 V
1Y
bUUUUUUUU01100010001000000110101101100011 ]
b0100 ^
bUUUUUUUU0110100101110101 b
bUUUUUUUUUUUUUUUUUUUUUUUU0110100101110101 g
1l
bUUUUUUUU0110100101110101 q
1x
bUUUUUUUU0110100101110101 }
#2205000000
0#
0/
10
04
05
0A
0M
0Y
0l
0x
#2210000000
1#
0&
b0010000001101110011101110110111101110010 '
b0101 (
0+
b001000000110101101100011 ,
b11 -
1/
00
14
15
08
b0010000001101110011101110110111101110010 :
b0101 ;
1A
0D
b0010000001101110011101110110111101110010 F
b0101 G
1M
0P
b0010000001101110011101110110111101110010 Q
b0101 R
0U
b001000000110101101100011 V
b11 W
1Y
0\
b0010000001101110011101110110111101110010 ]
b0101 ^
0a
b001000000110101101100011 b
b11 c
0e
0f
bUUUUUUUU01100010001000000110101101100011 g
b0100 i
1l
0o
b001000000110101101100011 q
b11 r
1x
0{
b001000000110101101100011 }
b11 !"
#2215000000
0#
0/
10
04
05
0A
0M
0Y
0l
0x
#2220000000
1#
1/
00
14
15
1A
1M
1Y
1l
1x
#2225000000
0#
0/
10
04
05
0A
0M
0Y
0l
0x
#2230000000
1#
1/
00
14
15
1A
1M
1Y
1l
1x
#2235000000
0#
0/
10
04
05
0A
0M
0Y
0l
0x
#2240000000
1#
1/
00
14
15
1A
1M
1Y
1l
1x
#2245000000
0#
0/
10
04
05
0A
0M
0Y
0l
0x
#2250000000
1#
1+
1/
00
14
15
1A
1M
1U
1Y
1a
1l
1o
1x
1{
#2255000000
0#
0/
10
04
05
0A
0M
0Y
0l
0x
#2260000000
1#
1&
b00100000UUUUUUUU01100010 ,
b01 -
1/
00
14
15
18
1A
1D
1M
1P
b00100000UUUUUUUU01100010 V
b01 W
1Y
1\
b00100000UUUUUUUU01100010 b
b01 c
1e
1f
bUUUUUUUU0110001000100000UUUUUUUU01100010 g
b0001 i
1l
b00100000UUUUUUUU01100010 q
b01 r
1x
b00100000UUUUUUUU01100010 }
b01 !"
#2265000000
0#
0/
10
04
05
0A
0M
0Y
0l
0x
#2270000000
1#
0&
b0110101000100000011110000110111101100110 '
0+
b011101110110111101110010 ,
b11 -
1/
00
14
15
08
b0110101000100000011110000110111101100110 :
1A
0D
b0110101000100000011110000110111101100110 F
1M
0P
b0110101000100000011110000110111101100110 Q
0U
b011101110110111101110010 V
b11 W
1Y
0\
b0110101000100000011110000110111101100110 ]
0a
b011101110110111101110010 b
b11 c
0e
0f
b0010000001101110011101110110111101110010 g
b0101 i
1l
0o
b011101110110111101110010 q
b11 r
1x
0{
b011101110110111101110010 }
b11 !"
#2275000000
0#
0/
10
04
05
0A
0M
0Y
0l
0x
#2280000000
1#
1+
1/
00
14
15
1A
1M
1U
1Y
1a
1l
1o
1x
1{
#2285000000
0#
0/
10
04
05
0A
0M
0Y
0l
0x
#2290000000
1#
0+
b011101110010000001101110 ,
b10 -
1/
00
14
15
1A
1M
0U
b011101110010000001101110 V
b10 W
1Y
0a
b011101110010000001101110 b
b10 c
1f
b0010000001101110011101110010000001101110 g
b0010 i
1l
0o
b011101110010000001101110 q
b10 r
1x
0{
b011101110010000001101110 }
b10 !"
#2295000000
0#
0/
10
04
05
0A
0M
0Y
0l
0x
#2300000000
1#
1&
1+
1/
00
14
15
18
1A
1D
1M
1P
1U
1Y
1\
1a
1e
1l
1o
1x
1{
#2305000000
0#
0/
10
04
05
0A
0M
0Y
0l
0x
#2310000000
1#
0&
b0010000001110011011100000110110101110101 '
0+
b011110000110111101100110 ,
b11 -
1/
00
14
15
08
b0010000001110011011100000110110101110101 :
1A
0D
b0010000001110011011100000110110101110101 F
1M
0P
b0010000001110011011100000110110101110101 Q
0U
b011110000110111101100110 V
b11 W
1Y
0\
b0010000001110011011100000110110101110101 ]
0a
b011110000110111101100110 b
b11 c
0e
0f
b0110101000100000011110000110111101100110 g
b0101 i
1l
0o
b011110000110111101100110 q
b11 r
1x
0{
b011110000110111101100110 }
b11 !"
#2315000000
0#
0/
10
04
05
0A
0M
0Y
0l
0x
#2320000000
1#
1/
00
14
15
1A
1M
1Y
1l
1x
#2325000000
0#
0/
10
04
05
0A
0M
0Y
0l
0x
#2330000000
1#
1/
00
14
15
1A
1M
1Y
1l
1x
#2335000000
0#
0/
10
04
05
0A
0M
0Y
0l
0x
#2340000000
1#
1+
1/
00
14
15
1A
1M
1U
1Y
1a
1l
1o
1x
1{
#2345000000
0#
0/
10
04
05
0A
0M
0Y
0l
0x
#2350000000
1#
0+
b011110000110101000100000 ,
b10 -
1/
00
14
15
1A
1M
0U
b011110000110101000100000 V
b10 W
1Y
0a
b011110000110101000100000 b
b10 c
1f
b0110101000100000011110000110101000100000 g
b0010 i
1l
0o
b011110000110101000100000 q
b10 r
1x
0{
b011110000110101000100000 }
b10 !"
#2355000000
0#
0/
10
04
05
0A
0M
0Y
0l
0x
#2360000000
1#
1/
00
14
15
1A
1M
1Y
1l
1x
#2365000000
0#
0/
10
04
05
0A
0M
0Y
0l
0x
#2370000000
1#
1/
00
14
15
1A
1M
1Y
1l
1x
#2375000000
0#
0/
10
04
05
0A
0M
0Y
0l
0x
#2380000000
1#
1&
1+
1/
00
14
15
18
1A
1D
1M
1P
1U
1Y
1\
1a
1e
1l
1o
1x
1{
#2385000000
0#
0/
10
04
05
0A
0M
0Y
0l
0x
#2390000000
1#
0%
0&
b011100000110110101110101 ,
b11 -
1/
00
14
15
07
08
1A
0C
0D
1M
0O
0P
b011100000110110101110101 V
b11 W
1Y
0[
0\
b011100000110110101110101 b
b11 c
0e
0f
b0010000001110011011100000110110101110101 g
b0101 i
1l
b011100000110110101110101 q
b11 r
1x
b011100000110110101110101 }
b11 !"
#2395000000
0#
0/
10
04
05
0A
0M
0Y
0l
0x
#2400000000
1#
1&
b011100000010000001110011 ,
b10 -
1/
00
14
15
18
1A
1D
1M
1P
b011100000010000001110011 V
b10 W
1Y
1\
b011100000010000001110011 b
b10 c
1e
1f
b0010000001110011011100000010000001110011 g
b0010 i
1l
b011100000010000001110011 q
b10 r
1x
b011100000010000001110011 }
b10 !"
#2405000000
0#
0/
10
04
05
0A
0M
0Y
0l
0x
#2410000000
1#
0*
0+
1/
00
14
15
1A
1M
0T
0U
1Y
0`
0a
0k
1l
0n
0o
1x
0z
0{
#2415000000
0#
0/
10
04
05
0A
0M
0Y
0l
0x
#2420000000
1#
1/
00
14
15
1A
1M
1Y
1l
1x
#2425000000
0#
0/
10
04
05
0A
0M
0Y
0l
0x
#2430000000
1#
1%
bUUUUUUUUUUUUUUUUUUUUUUUUUUUUUUUU01101111 '
b0001 (
1/
00
14
15
17
bUUUUUUUUUUUUUUUUUUUUUUUUUUUUUUUU01101111 :
b0001 ;
1A
1C
bUUUUUUUUUUUUUUUUUUUUUUUUUUUUUUUU01101111 F
b0001 G
1M
1O
bUUUUUUUUUUUUUUUUUUUUUUUUUUUUUUUU01101111 Q
b0001 R
1Y
1[
bUUUUUUUUUUUUUUUUUUUUUUUUUUUUUUUU01101111 ]
b0001 ^
1l
1x
#2435000000
0#
0/
10
04
05
0A
0M
0Y
0l
0x
#2440000000
1#
0%
0&
1*
bUUUUUUUUUUUUUUUU01101111 ,
b01 -
1/
00
14
15
07
08
1A
0C
0D
1M
0O
0P
1T
bUUUUUUUUUUUUUUUU01101111 V
b01 W
1Y
0[
0\
1`
bUUUUUUUUUUUUUUUU01101111 b
b01 c
0e
bUUUUUUUUUUUUUUUUUUUUUUUUUUUUUUUU01101111 g
b0001 i
1k
1l
1n
bUUUUUUUUUUUUUUUU01101111 q
b01 r
1x
1z
bUUUUUUUUUUUUUUUU01101111 }
b01 !"
#2445000000
0#
0/
10
04
05
0A
0M
0Y
0l
0x
#2450000000
1#
1&
1+
1/
00
14
15
18
1A
1D
1M
1P
1U
1Y
1\
1a
1e
1l
1o
1x
1{
#2455000000
0#
0/
10
04
05
0A
0M
0Y
0l
0x
#2460000000
1#
1%
bUUUUUUUUUUUUUUUUUUUUUUUU0110010101110110 '
b0010 (
0*
bUUUUUUUUUUUUUUUUUUUUUUUU ,
1/
00
14
15
17
bUUUUUUUUUUUUUUUUUUUUUUUU0110010101110110 :
b0010 ;
1A
1C
bUUUUUUUUUUUUUUUUUUUUUUUU0110010101110110 F
b0010 G
1M
1O
bUUUUUUUUUUUUUUUUUUUUUUUU0110010101110110 Q
b0010 R
0T
bUUUUUUUUUUUUUUUUUUUUUUUU V
1Y
1[
bUUUUUUUUUUUUUUUUUUUUUUUU0110010101110110 ]
b0010 ^
0`
bUUUUUUUUUUUUUUUUUUUUUUUU b
bUUUUUUUUUUUUUUUUUUUUUUUUUUUUUUUUUUUUUUUU g
0k
1l
0n
bUUUUUUUUUUUUUUUUUUUUUUUU q
1x
0z
bUUUUUUUUUUUUUUUUUUUUUUUU }
#2465000000
0#
0/
10
04
05
0A
0M
0Y
0l
0x
#2470000000
1#
b0110010101101000011101000010000001110010 '
b0101 (
1*
bUUUUUUUU0110010101110110 ,
b10 -
1/
00
14
15
b0110010101101000011101000010000001110010 :
b0101 ;
1A
b0110010101101000011101000010000001110010 F
b0101 G
1M
b0110010101101000011101000010000001110010 Q
b0101 R
1T
bUUUUUUUU0110010101110110 V
b10 W
1Y
b0110010101101000011101000010000001110010 ]
b0101 ^
1`
bUUUUUUUU0110010101110110 b
b10 c
bUUUUUUUUUUUUUUUUUUUUUUUU0110010101110110 g
b0010 i
1k
1l
1n
bUUUUUUUU0110010101110110 q
b10 r
1x
1z
bUUUUUUUU0110010101110110 }
b10 !"
#2475000000
0#
0/
10
04
05
0A
0M
0Y
0l
0x
#2480000000
1#
0%
0&
0+
b011101000010000001110010 ,
b11 -
1/
00
14
15
07
08
1A
0C
0D
1M
0O
0P
0U
b011101000010000001110010 V
b11 W
1Y
0[
0\
0a
b011101000010000001110010 b
b11 c
0e
0f
b0110010101101000011101000010000001110010 g
b0101 i
1l
0o
b011101000010000001110010 q
b11 r
1x
0{
b011101000010000001110010 }
b11 !"
#2485000000
0#
0/
10
04
05
0A
0M
0Y
0l
0x
#2490000000
1#
1/
00
14
15
1A
1M
1Y
1l
1x
#2495000000
0#
0/
10
04
05
0A
0M
0Y
0l
0x
#2500000000
1#
1%
b0111100101111010011000010110110000100000 '
1/
00
14
15
17
b0111100101111010011000010110110000100000 :
1A
1C
b0111100101111010011000010110110000100000 F
1M
1O
b0111100101111010011000010110110000100000 Q
1Y
1[
b0111100101111010011000010110110000100000 ]
1l
1x
#2505000000
0#
0/
10
04
05
0A
0M
0Y
0l
0x
#2510000000
1#
1+
1/
00
14
15
1A
1M
1U
1Y
1a
1l
1o
1x
1{
#2515000000
0#
0/
10
04
05
0A
0M
0Y
0l
0x
#2520000000
1#
0+
b011101000110010101101000 ,
b10 -
1/
00
14
15
1A
1M
0U
b011101000110010101101000 V
b10 W
1Y
0a
b011101000110010101101000 b
b10 c
1f
b0110010101101000011101000110010101101000 g
b0010 i
1l
0o
b011101000110010101101000 q
b10 r
1x
0{
b011101000110010101101000 }
b10 !"
#2525000000
0#
0/
10
04
05
0A
0M
0Y
0l
0x
#2530000000
1#
1/
00
14
15
1A
1M
1Y
1l
1x
#2535000000
0#
0/
10
04
05
0A
0M
0Y
0l
0x
#2540000000
1#
1/
00
14
15
1A
1M
1Y
1l
1x
#2545000000
0#
0/
10
04
05
0A
0M
0Y
0l
0x
#2550000000
1#
1/
00
14
15
1A
1M
1Y
1l
1x
#2555000000
0#
0/
10
04
05
0A
0M
0Y
0l
0x
#2560000000
1#
1&
1+
1/
00
14
15
18
1A
1D
1M
1P
1U
1Y
1\
1a
1e
1l
1o
1x
1{
#2565000000
0#
0/
10
04
05
0A
0M
0Y
0l
0x
#2570000000
1#
0%
0&
b011000010110110000100000 ,
b11 -
1/
00
14
15
07
08
1A
0C
0D
1M
0O
0P
b011000010110110000100000 V
b11 W
1Y
0[
0\
b011000010110110000100000 b
b11 c
0e
0f
b0111100101111010011000010110110000100000 g
b0101 i
1l
b011000010110110000100000 q
b11 r
1x
b011000010110110000100000 }
b11 !"
#2575000000
0#
0/
10
04
05
0A
0M
0Y
0l
0x
#2580000000
1#
1&
b011000010111100101111010 ,
b10 -
1/
00
14
15
18
1A
1D
1M
1P
b011000010111100101111010 V
b10 W
1Y
1\
b011000010111100101111010 b
b10 c
1e
1f
b0111100101111010011000010111100101111010 g
b0010 i
1l
b011000010111100101111010 q
b10 r
1x
b011000010111100101111010 }
b10 !"
#2585000000
0#
0/
10
04
05
0A
0M
0Y
0l
0x
#2590000000
1#
0*
1/
00
14
15
1A
1M
0T
1Y
0`
0k
1l
0n
1x
0z
#2595000000
0#
0/
10
04
05
0A
0M
0Y
0l
0x
#2600000000
1#
1/
00
14
15
1A
1M
1Y
1l
1x
#2605000000
0#
0/
10
04
05
0A
0M
0Y
0l
0x
#2610000000
1#
1%
b0010111001100111011011110110010000100000 '
1)
1/
00
14
15
17
b0010111001100111011011110110010000100000 :
1<
1A
1C
b0010111001100111011011110110010000100000 F
1H
1M
1O
b0010111001100111011011110110010000100000 Q
1S
1Y
1[
b0010111001100111011011110110010000100000 ]
1_
1l
1x
#2615000000
0#
0/
10
04
05
0A
0M
0Y
0l
0x
#2620000000
1#
0%
0&
1*
b011011110110010000100000 ,
b11 -
0.
1/
00
14
15
07
08
1A
0C
0D
1M
0O
0P
1T
b011011110110010000100000 V
b11 W
0X
1Y
0[
0\
1`
b011011110110010000100000 b
b11 c
0d
0e
0f
b0010111001100111011011110110010000100000 g
1h
b0101 i
1k
1l
1n
b011011110110010000100000 q
b11 r
0s
1x
1z
b011011110110010000100000 }
b11 !"
0""
#2625000000
0#
0/
10
04
05
0A
0M
0Y
0l
0x
#2630000000
1#
1%
1&
bUUUUUUUUUUUUUUUU011001010110100001010100 '
b0011 (
0)
b011011110010111001100111 ,
b10 -
1.
1/
00
14
15
17
18
bUUUUUUUUUUUUUUUU011001010110100001010100 :
b0011 ;
0<
1A
1C
1D
bUUUUUUUUUUUUUUUU011001010110100001010100 F
b0011 G
0H
1M
1O
1P
bUUUUUUUUUUUUUUUU011001010110100001010100 Q
b0011 R
0S
b011011110010111001100111 V
b10 W
1X
1Y
1[
1\
bUUUUUUUUUUUUUUUU011001010110100001010100 ]
b0011 ^
0_
b011011110010111001100111 b
b10 c
1d
1e
1f
b0010111001100111011011110010111001100111 g
b0010 i
1l
b011011110010111001100111 q
b10 r
1s
1x
b011011110010111001100111 }
b10 !"
1""
#2635000000
0#
0/
10
04
05
0A
0M
0Y
0l
0x
#2640000000
1#
0%
0&
0+
b011001010110100001010100 ,
b11 -
0.
1/
00
14
15
07
08
1A
0C
0D
1M
0O
0P
0U
b011001010110100001010100 V
b11 W
0X
1Y
0[
0\
0a
b011001010110100001010100 b
b11 c
0d
0e
bUUUUUUUUUUUUUUUU011001010110100001010100 g
0h
b0011 i
1l
0o
b011001010110100001010100 q
b11 r
0s
1x
0{
b011001010110100001010100 }
b11 !"
0""
#2645000000
0#
0/
10
04
05
0A
0M
0Y
0l
0x
#2650000000
1#
1&
1+
1/
00
14
15
18
1A
1D
1M
1P
1U
1Y
1\
1a
1e
1l
1o
1x
1{
#2655000000
0#
0/
10
04
05
0A
0M
0Y
0l
0x
#2660000000
1#
0*
b01100101UUUUUUUUUUUUUUUU ,
1/
00
14
15
1A
1M
0T
b01100101UUUUUUUUUUUUUUUU V
1Y
0`
b01100101UUUUUUUUUUUUUUUU b
bUUUUUUUUUUUUUUUU01100101UUUUUUUUUUUUUUUU g
0k
1l
0n
b01100101UUUUUUUUUUUUUUUU q
1x
0z
b01100101UUUUUUUUUUUUUUUU }
#2665000000
0#
0/
10
04
05
0A
0M
0Y
0l
0x
#2670000000
1#
1/
00
14
15
1A
1M
1Y
1l
1x
#2675000000
0#
0/
10
04
05
0A
0M
0Y
0l
0x
#2680000000
1#
1/
00
14
15
1A
1M
1Y
1l
1x
#2685000000
0#
0/
10
04
05
0A
0M
0Y
0l
0x
#2690000000
1#
1%
b0110001101101001011101010111000100100000 '
b0101 (
1/
00
14
15
17
b0110001101101001011101010111000100100000 :
b0101 ;
1A
1C
b0110001101101001011101010111000100100000 F
b0101 G
1M
1O
b0110001101101001011101010111000100100000 Q
b0101 R
1Y
1[
b0110001101101001011101010111000100100000 ]
b0101 ^
1l
1x
#2695000000
0#
0/
10
04
05
0A
0M
0Y
0l
0x
#2700000000
1#
0%
0&
1*
b011101010111000100100000 ,
b11 -
1/
00
14
15
07
08
1A
0C
0D
1M
0O
0P
1T
b011101010111000100100000 V
b11 W
1Y
0[
0\
1`
b011101010111000100100000 b
b11 c
0e
0f
b0110001101101001011101010111000100100000 g
b0101 i
1k
1l
1n
b011101010111000100100000 q
b11 r
1x
1z
b011101010111000100100000 }
b11 !"
#2705000000
0#
0/
10
04
05
0A
0M
0Y
0l
0x
#2710000000
1#
1&
b011101010110001101101001 ,
b10 -
1/
00
14
15
18
1A
1D
1M
1P
b011101010110001101101001 V
b10 W
1Y
1\
b011101010110001101101001 b
b10 c
1e
1f
b0110001101101001011101010110001101101001 g
b0010 i
1l
b011101010110001101101001 q
b10 r
1x
b011101010110001101101001 }
b10 !"
#2715000000
0#
0/
10
04
05
0A
0M
0Y
0l
0x
#2720000000
1#
0*
0+
1/
00
14
15
1A
1M
0T
0U
1Y
0`
0a
0k
1l
0n
0o
1x
0z
0{
#2725000000
0#
0/
10
04
05
0A
0M
0Y
0l
0x
#2730000000
1#
1%
b0110111101110010011000100010000001101011 '
1/
00
14
15
17
b0110111101110010011000100010000001101011 :
1A
1C
b0110111101110010011000100010000001101011 F
1M
1O
b0110111101110010011000100010000001101011 Q
1Y
1[
b0110111101110010011000100010000001101011 ]
1l
1x
#2735000000
0#
0/
10
04
05
0A
0M
0Y
0l
0x
#2740000000
1#
0%
0&
1*
b011000100010000001101011 ,
b11 -
1/
00
14
15
07
08
1A
0C
0D
1M
0O
0P
1T
b011000100010000001101011 V
b11 W
1Y
0[
0\
1`
b011000100010000001101011 b
b11 c
0e
0f
b0110111101110010011000100010000001101011 g
b0101 i
1k
1l
1n
b011000100010000001101011 q
b11 r
1x
1z
b011000100010000001101011 }
b11 !"
#2745000000
0#
0/
10
04
05
0A
0M
0Y
0l
0x
#2750000000
1#
1/
00
14
15
1A
1M
1Y
1l
1x
#2755000000
0#
0/
10
04
05
0A
0M
0Y
0l
0x
#2760000000
1#
1+
1/
00
14
15
1A
1M
1U
1Y
1a
1l
1o
1x
1{
#2765000000
0#
0/
10
04
05
0A
0M
0Y
0l
0x
#2770000000
1#
0+
b011000100110111101110010 ,
b10 -
1/
00
14
15
1A
1M
0U
b011000100110111101110010 V
b10 W
1Y
0a
b011000100110111101110010 b
b10 c
1f
b0110111101110010011000100110111101110010 g
b0010 i
1l
0o
b011000100110111101110010 q
b10 r
1x
0{
b011000100110111101110010 }
b10 !"
#2775000000
0#
0/
10
04
05
0A
0M
0Y
0l
0x
