tests/complex/vhlib/wave/work.streamslice_tc.vcd
$date
  Wed Jun 19 10:58:20 2019
$end
$version
  GHDL v0
$end
$timescale
  1 fs
$end
$scope module standard $end
$upscope $end
$scope module textio $end
$upscope $end
$scope module std_logic_1164 $end
$upscope $end
$scope module numeric_std $end
$upscope $end
$scope module math_real $end
$upscope $end
$scope module testcase_pkg $end
$var reg 1 ! test $end
$var reg 1 " tc_model_init $end
$upscope $end
$scope module simdatacomms_pkg $end
$upscope $end
$scope module streammonitor_pkg $end
$upscope $end
$scope module streamsource_pkg $end
$upscope $end
$scope module streamsink_pkg $end
$upscope $end
$scope module std_logic_misc $end
$upscope $end
$scope module stream_pkg $end
$upscope $end
$scope module clockgen_pkg $end
$upscope $end
$scope module streamslice_tc $end
$scope module tb $end
$var reg 1 # clk $end
$var reg 1 $ reset $end
$var reg 1 % a_valid $end
$var reg 1 & a_ready $end
$var reg 8 ' a_data[7:0] $end
$var reg 1 ( b_valid $end
$var reg 1 ) b_ready $end
$var reg 8 * b_data[7:0] $end
$scope module clkgen $end
$var reg 1 + clk $end
$var reg 1 , clk_n $end
$var reg 1 - reset $end
$var reg 1 . reset_n $end
$var reg 1 / sync $end
$var reg 1 0 clk_i $end
$upscope $end
$scope module a_source $end
$var reg 1 1 clk $end
$var reg 1 2 reset $end
$var reg 1 3 valid $end
$var reg 1 4 ready $end
$var reg 1 5 dvalid $end
$var reg 8 6 data[7:0] $end
$var reg 1 7 count[0:0] $end
$var reg 1 8 last $end
$var reg 1 9 ctrl[0:0] $end
$var reg 1 : x[0:0] $end
$var reg 1 ; y[0:0] $end
$var reg 1 < z[0:0] $end
$scope module monitor $end
$var reg 1 = clk $end
$var reg 1 > reset $end
$var reg 1 ? valid $end
$var reg 1 @ ready $end
$var reg 1 A dvalid $end
$var reg 8 B data[7:0] $end
$var reg 1 C count[0:0] $end
$var reg 1 D last $end
$var reg 1 E ctrl[0:0] $end
$var reg 1 F x[0:0] $end
$var reg 1 G y[0:0] $end
$var reg 1 H z[0:0] $end
$upscope $end
$upscope $end
$scope module uut $end
$var reg 1 I clk $end
$var reg 1 J reset $end
$var reg 1 K in_valid $end
$var reg 1 L in_ready $end
$var reg 8 M in_data[7:0] $end
$var reg 1 N out_valid $end
$var reg 1 O out_ready $end
$var reg 8 P out_data[7:0] $end
$var reg 1 Q in_ready_s $end
$var reg 1 R out_valid_s $end
$var reg 8 S saved_data[7:0] $end
$var reg 1 T saved_valid $end
$upscope $end
$scope module b_sink $end
$var reg 1 U clk $end
$var reg 1 V reset $end
$var reg 1 W valid $end
$var reg 1 X ready $end
$var reg 1 Y dvalid $end
$var reg 8 Z data[7:0] $end
$var reg 1 [ count[0:0] $end
$var reg 1 \ last $end
$var reg 1 ] ctrl[0:0] $end
$var reg 1 ^ x[0:0] $end
$var reg 1 _ y[0:0] $end
$var reg 1 ` z[0:0] $end
$scope module monitor $end
$var reg 1 a clk $end
$var reg 1 b reset $end
$var reg 1 c valid $end
$var reg 1 d ready $end
$var reg 1 e dvalid $end
$var reg 8 f data[7:0] $end
$var reg 1 g count[0:0] $end
$var reg 1 h last $end
$var reg 1 i ctrl[0:0] $end
$var reg 1 j x[0:0] $end
$var reg 1 k y[0:0] $end
$var reg 1 l z[0:0] $end
$upscope $end
$upscope $end
$upscope $end
$upscope $end
$enddefinitions $end
#0
1!
1"
0#
1$
U%
U&
bUUUUUUUU '
U(
U)
bUUUUUUUU *
0+
1,
1-
0.
0/
00
01
12
U3
U4
U5
bUUUUUUUU 6
bU 7
U8
bU 9
bU :
bU ;
bU <
0=
1>
U?
U@
UA
bUUUUUUUU B
bU C
UD
bU E
bU F
bU G
bU H
0I
1J
UK
UL
bUUUUUUUU M
UN
UO
bUUUUUUUU P
UQ
UR
bUUUUUUUU S
UT
0U
1V
UW
UX
1Y
bUUUUUUUU Z
b1 [
1\
b0 ]
b0 ^
b0 _
b0 `
0a
1b
Uc
Ud
1e
bUUUUUUUU f
b1 g
1h
b0 i
b0 j
b0 k
b0 l
#500000000
#600000000
#1000000000
1/
#2000000000
1#
0%
0&
0(
0)
1+
0,
0/
10
11
03
04
U5
bUUUUUUUU 6
bU 7
U8
bU 9
bU :
bU ;
bU <
1=
0?
0@
1I
0K
0L
0N
0O
0Q
0R
0T
1U
0W
0X
1a
0c
0d
#2005000000
0#
0+
1,
00
01
0=
0I
0U
0a
#2010000000
1#
1+
0,
10
11
1=
1I
1U
1a
#2015000000
0#
0+
1,
00
01
0=
0I
0U
0a
#2020000000
1#
1+
0,
10
11
1=
1I
1U
1a
#2025000000
0#
0+
1,
00
01
0=
0I
0U
0a
#2030000000
1#
1+
0,
10
11
1=
1I
1U
1a
#2035000000
0#
0+
1,
00
01
0=
0I
0U
0a
#2040000000
1#
1+
0,
10
11
1=
1I
1U
1a
#2045000000
0#
0+
1,
00
01
0=
0I
0U
0a
#2050000000
1#
1+
0,
10
11
1=
1I
1U
1a
#2055000000
0#
0+
1,
00
01
0=
0I
0U
0a
#2060000000
1#
1+
0,
10
11
1=
1I
1U
1a
#2065000000
0#
0+
1,
00
01
0=
0I
0U
0a
#2070000000
1#
1+
0,
10
11
1=
1I
1U
1a
#2075000000
0#
0+
1,
00
01
0=
0I
0U
0a
#2080000000
1#
1+
0,
10
11
1=
1I
1U
1a
#2085000000
0#
0+
1,
00
01
0=
0I
0U
0a
#2090000000
1#
1+
0,
10
11
1=
1I
1U
1a
#2095000000
0#
0+
1,
00
01
0=
0I
0U
0a
#2100000000
1#
0$
1+
0,
0-
1.
10
11
02
1=
0>
1I
0J
1U
0V
1a
0b
#2105000000
Z"
0#
0+
1,
00
01
0=
0I
0U
0a
#2110000000
1#
1%
1&
b01010100 '
1)
1+
0,
10
11
13
14
15
b01010100 6
b1 7
08
1=
1?
1@
1A
b01010100 B
b1 C
0D
1I
1K
1L
b01010100 M
1O
1Q
1U
1X
1a
1d
#2115000000
0#
0+
1,
00
01
0=
0I
0U
0a
#2120000000
1#
b01101000 '
1(
b01010100 *
1+
0,
10
11
b01101000 6
1=
b01101000 B
1I
b01101000 M
1N
b01010100 P
1R
1U
1W
b01010100 Z
1a
1c
b01010100 f
#2125000000
0#
0+
1,
00
01
0=
0I
0U
0a
#2130000000
1#
b01100101 '
b01101000 *
1+
0,
10
11
b01100101 6
1=
b01100101 B
1I
b01100101 M
b01101000 P
1U
b01101000 Z
1a
b01101000 f
#2135000000
0#
0+
1,
00
01
0=
0I
0U
0a
#2140000000
1#
b00100000 '
b01100101 *
1+
0,
10
11
b00100000 6
1=
b00100000 B
1I
b00100000 M
b01100101 P
1U
b01100101 Z
1a
b01100101 f
#2145000000
0#
0+
1,
00
01
0=
0I
0U
0a
#2150000000
1#
b01110001 '
b00100000 *
1+
0,
10
11
b01110001 6
1=
b01110001 B
1I
b01110001 M
b00100000 P
1U
b00100000 Z
1a
b00100000 f
#2155000000
0#
0+
1,
00
01
0=
0I
0U
0a
#2160000000
1#
b01110101 '
b01110001 *
1+
0,
10
11
b01110101 6
1=
b01110101 B
1I
b01110101 M
b01110001 P
1U
b01110001 Z
1a
b01110001 f
#2165000000
0#
0+
1,
00
01
0=
0I
0U
0a
#2170000000
1#
b01101001 '
b01110101 *
1+
0,
10
11
b01101001 6
1=
b01101001 B
1I
b01101001 M
b01110101 P
1U
b01110101 Z
1a
b01110101 f
#2175000000
0#
0+
1,
00
01
0=
0I
0U
0a
#2180000000
1#
b01100011 '
b01101001 *
1+
0,
10
11
b01100011 6
1=
b01100011 B
1I
b01100011 M
b01101001 P
1U
b01101001 Z
1a
b01101001 f
#2185000000
0#
0+
1,
00
01
0=
0I
0U
0a
#2190000000
1#
b01101011 '
b01100011 *
1+
0,
10
11
b01101011 6
1=
b01101011 B
1I
b01101011 M
b01100011 P
1U
b01100011 Z
1a
b01100011 f
#2195000000
0#
0+
1,
00
01
0=
0I
0U
0a
#2200000000
1#
b00100000 '
b01101011 *
1+
0,
10
11
b00100000 6
1=
b00100000 B
1I
b00100000 M
b01101011 P
1U
b01101011 Z
1a
b01101011 f
#2205000000
0#
0+
1,
00
01
0=
0I
0U
0a
#2210000000
1#
b01100010 '
0)
b00100000 *
1+
0,
10
11
b01100010 6
1=
b01100010 B
1I
b01100010 M
0O
b00100000 P
1U
0X
b00100000 Z
1a
0d
b00100000 f
#2215000000
0#
0+
1,
00
01
0=
0I
0U
0a
#2220000000
1#
0&
b01110010 '
1+
0,
10
11
04
b01110010 6
1=
0@
b01110010 B
1I
0L
b01110010 M
0Q
b01100010 S
1T
1U
1a
#2225000000
0#
0+
1,
00
01
0=
0I
0U
0a
#2230000000
1#
1+
0,
10
11
1=
1I
1U
1a
#2235000000
0#
0+
1,
00
01
0=
0I
0U
0a
#2240000000
1#
1+
0,
10
11
1=
1I
1U
1a
#2245000000
0#
0+
1,
00
01
0=
0I
0U
0a
#2250000000
1#
1+
0,
10
11
1=
1I
1U
1a
#2255000000
0#
0+
1,
00
01
0=
0I
0U
0a
#2260000000
1#
1+
0,
10
11
1=
1I
1U
1a
#2265000000
0#
0+
1,
00
01
0=
0I
0U
0a
#2270000000
1#
1+
0,
10
11
1=
1I
1U
1a
#2275000000
0#
0+
1,
00
01
0=
0I
0U
0a
#2280000000
1#
1+
0,
10
11
1=
1I
1U
1a
#2285000000
0#
0+
1,
00
01
0=
0I
0U
0a
#2290000000
1#
1+
0,
10
11
1=
1I
1U
1a
#2295000000
0#
0+
1,
00
01
0=
0I
0U
0a
#2300000000
1#
1+
0,
10
11
1=
1I
1U
1a
#2305000000
0#
0+
1,
00
01
0=
0I
0U
0a
#2310000000
1#
1)
1+
0,
10
11
1=
1I
1O
1U
1X
1a
1d
#2315000000
0#
0+
1,
00
01
0=
0I
0U
0a
#2320000000
1#
1&
b01100010 *
1+
0,
10
11
14
1=
1@
1I
1L
b01100010 P
1Q
0T
1U
b01100010 Z
1a
b01100010 f
#2325000000
0#
0+
1,
00
01
0=
0I
0U
0a
#2330000000
1#
b01101111 '
b01110010 *
1+
0,
10
11
b01101111 6
1=
b01101111 B
1I
b01101111 M
b01110010 P
1U
b01110010 Z
1a
b01110010 f
#2335000000
0#
0+
1,
00
01
0=
0I
0U
0a
#2340000000
1#
b01110111 '
b01101111 *
1+
0,
10
11
b01110111 6
1=
b01110111 B
1I
b01110111 M
b01101111 P
1U
b01101111 Z
1a
b01101111 f
#2345000000
0#
0+
1,
00
01
0=
0I
0U
0a
#2350000000
1#
b01101110 '
b01110111 *
1+
0,
10
11
b01101110 6
1=
b01101110 B
1I
b01101110 M
b01110111 P
1U
b01110111 Z
1a
b01110111 f
#2355000000
0#
0+
1,
00
01
0=
0I
0U
0a
#2360000000
1#
b00100000 '
b01101110 *
1+
0,
10
11
b00100000 6
1=
b00100000 B
1I
b00100000 M
b01101110 P
1U
b01101110 Z
1a
b01101110 f
#2365000000
0#
0+
1,
00
01
0=
0I
0U
0a
#2370000000
1#
b01100110 '
b00100000 *
1+
0,
10
11
b01100110 6
1=
b01100110 B
1I
b01100110 M
b00100000 P
1U
b00100000 Z
1a
b00100000 f
#2375000000
0#
0+
1,
00
01
0=
0I
0U
0a
#2380000000
1#
b01101111 '
b01100110 *
1+
0,
10
11
b01101111 6
1=
b01101111 B
1I
b01101111 M
b01100110 P
1U
b01100110 Z
1a
b01100110 f
#2385000000
0#
0+
1,
00
01
0=
0I
0U
0a
#2390000000
1#
b01111000 '
b01101111 *
1+
0,
10
11
b01111000 6
1=
b01111000 B
1I
b01111000 M
b01101111 P
1U
b01101111 Z
1a
b01101111 f
#2395000000
0#
0+
1,
00
01
0=
0I
0U
0a
#2400000000
1#
b00100000 '
b01111000 *
1+
0,
10
11
b00100000 6
1=
b00100000 B
1I
b00100000 M
b01111000 P
1U
b01111000 Z
1a
b01111000 f
#2405000000
0#
0+
1,
00
01
0=
0I
0U
0a
#2410000000
1#
b01101010 '
b00100000 *
1+
0,
10
11
b01101010 6
1=
b01101010 B
1I
b01101010 M
b00100000 P
1U
b00100000 Z
1a
b00100000 f
#2415000000
0#
0+
1,
00
01
0=
0I
0U
0a
#2420000000
1#
b01110101 '
b01101010 *
1+
0,
10
11
b01110101 6
1=
b01110101 B
1I
b01110101 M
b01101010 P
1U
b01101010 Z
1a
b01101010 f
#2425000000
0#
0+
1,
00
01
0=
0I
0U
0a
#2430000000
1#
b01101101 '
b01110101 *
1+
0,
10
11
b01101101 6
1=
b01101101 B
1I
b01101101 M
b01110101 P
1U
b01110101 Z
1a
b01110101 f
#2435000000
0#
0+
1,
00
01
0=
0I
0U
0a
#2440000000
1#
b01110000 '
b01101101 *
1+
0,
10
11
b01110000 6
1=
b01110000 B
1I
b01110000 M
b01101101 P
1U
b01101101 Z
1a
b01101101 f
#2445000000
0#
0+
1,
00
01
0=
0I
0U
0a
#2450000000
1#
b01110011 '
b01110000 *
1+
0,
10
11
b01110011 6
1=
b01110011 B
1I
b01110011 M
b01110000 P
1U
b01110000 Z
1a
b01110000 f
#2455000000
0#
0+
1,
00
01
0=
0I
0U
0a
#2460000000
1#
b00100000 '
b01110011 *
1+
0,
10
11
b00100000 6
1=
b00100000 B
1I
b00100000 M
b01110011 P
1U
b01110011 Z
1a
b01110011 f
#2465000000
0#
0+
1,
00
01
0=
0I
0U
0a
#2470000000
1#
b01101111 '
b00100000 *
1+
0,
10
11
b01101111 6
1=
b01101111 B
1I
b01101111 M
b00100000 P
1U
b00100000 Z
1a
b00100000 f
#2475000000
0#
0+
1,
00
01
0=
0I
0U
0a
#2480000000
1#
b01110110 '
b01101111 *
1+
0,
10
11
b01110110 6
1=
b01110110 B
1I
b01110110 M
b01101111 P
1U
b01101111 Z
1a
b01101111 f
#2485000000
0#
0+
1,
00
01
0=
0I
0U
0a
#2490000000
1#
b01100101 '
b01110110 *
1+
0,
10
11
b01100101 6
1=
b01100101 B
1I
b01100101 M
b01110110 P
1U
b01110110 Z
1a
b01110110 f
#2495000000
0#
0+
1,
00
01
0=
0I
0U
0a
#2500000000
1#
b01110010 '
b01100101 *
1+
0,
10
11
b01110010 6
1=
b01110010 B
1I
b01110010 M
b01100101 P
1U
b01100101 Z
1a
b01100101 f
#2505000000
0#
0+
1,
00
01
0=
0I
0U
0a
#2510000000
1#
b00100000 '
b01110010 *
1+
0,
10
11
b00100000 6
1=
b00100000 B
1I
b00100000 M
b01110010 P
1U
b01110010 Z
1a
b01110010 f
#2515000000
0#
0+
1,
00
01
0=
0I
0U
0a
#2520000000
1#
b01110100 '
b00100000 *
1+
0,
10
11
b01110100 6
1=
b01110100 B
1I
b01110100 M
b00100000 P
1U
b00100000 Z
1a
b00100000 f
#2525000000
0#
0+
1,
00
01
0=
0I
0U
0a
#2530000000
1#
b01101000 '
b01110100 *
1+
0,
10
11
b01101000 6
1=
b01101000 B
1I
b01101000 M
b01110100 P
1U
b01110100 Z
1a
b01110100 f
#2535000000
0#
0+
1,
00
01
0=
0I
0U
0a
#2540000000
1#
b01100101 '
b01101000 *
1+
0,
10
11
b01100101 6
1=
b01100101 B
1I
b01100101 M
b01101000 P
1U
b01101000 Z
1a
b01101000 f
#2545000000
0#
0+
1,
00
01
0=
0I
0U
0a
#2550000000
1#
b00100000 '
b01100101 *
1+
0,
10
11
b00100000 6
1=
b00100000 B
1I
b00100000 M
b01100101 P
1U
b01100101 Z
1a
b01100101 f
#2555000000
0#
0+
1,
00
01
0=
0I
0U
0a
#2560000000
1#
b01101100 '
b00100000 *
1+
0,
10
11
b01101100 6
1=
b01101100 B
1I
b01101100 M
b00100000 P
1U
b00100000 Z
1a
b00100000 f
#2565000000
0#
0+
1,
00
01
0=
0I
0U
0a
#2570000000
1#
b01100001 '
b01101100 *
1+
0,
10
11
b01100001 6
1=
b01100001 B
1I
b01100001 M
b01101100 P
1U
b01101100 Z
1a
b01101100 f
#2575000000
0#
0+
1,
00
01
0=
0I
0U
0a
#2580000000
1#
b01111010 '
b01100001 *
1+
0,
10
11
b01111010 6
1=
b01111010 B
1I
b01111010 M
b01100001 P
1U
b01100001 Z
1a
b01100001 f
#2585000000
0#
0+
1,
00
01
0=
0I
0U
0a
#2590000000
1#
b01111001 '
b01111010 *
1+
0,
10
11
b01111001 6
1=
b01111001 B
1I
b01111001 M
b01111010 P
1U
b01111010 Z
1a
b01111010 f
#2595000000
0#
0+
1,
00
01
0=
0I
0U
0a
#2600000000
1#
b00100000 '
b01111001 *
1+
0,
10
11
b00100000 6
1=
b00100000 B
1I
b00100000 M
b01111001 P
1U
b01111001 Z
1a
b01111001 f
#2605000000
0#
0+
1,
00
01
0=
0I
0U
0a
#2610000000
1#
b01100100 '
b00100000 *
1+
0,
10
11
b01100100 6
1=
b01100100 B
1I
b01100100 M
b00100000 P
1U
b00100000 Z
1a
b00100000 f
#2615000000
0#
0+
1,
00
01
0=
0I
0U
0a
#2620000000
1#
b01101111 '
b01100100 *
1+
0,
10
11
b01101111 6
1=
b01101111 B
1I
b01101111 M
b01100100 P
1U
b01100100 Z
1a
b01100100 f
#2625000000
0#
0+
1,
00
01
0=
0I
0U
0a
#2630000000
1#
b01100111 '
b01101111 *
1+
0,
10
11
b01100111 6
1=
b01100111 B
1I
b01100111 M
b01101111 P
1U
b01101111 Z
1a
b01101111 f
#2635000000
0#
0+
1,
00
01
0=
0I
0U
0a
#2640000000
1#
b00101110 '
b01100111 *
1+
0,
10
11
b00101110 6
18
1=
b00101110 B
1D
1I
b00101110 M
b01100111 P
1U
b01100111 Z
1a
b01100111 f
#2645000000
0#
0+
1,
00
01
0=
0I
0U
0a
#2650000000
1#
0%
b00101110 *
1+
0,
10
11
03
1=
0?
1I
0K
b00101110 P
1U
b00101110 Z
1a
b00101110 f
#2655000000
0#
0+
1,
00
01
0=
0I
0U
0a
#2660000000
1#
0(
1+
0,
10
11
1=
1I
0N
0R
1U
0W
1a
0c
