tests/complex/vhlib/wave/work.streamsync_tc.vcd
$date
  Wed Jun 19 10:58:20 2019
$end
$version
  GHDL v0
$end
$timescale
  1 fs
$end
$scope module standard $end
$upscope $end
$scope module textio $end
$upscope $end
$scope module std_logic_1164 $end
$upscope $end
$scope module numeric_std $end
$upscope $end
$scope module math_real $end
$upscope $end
$scope module testcase_pkg $end
$var reg 1 ! test $end
$var reg 1 " tc_model_init $end
$upscope $end
$scope module simdatacomms_pkg $end
$upscope $end
$scope module streammonitor_pkg $end
$upscope $end
$scope module streamsource_pkg $end
$upscope $end
$scope module streamsink_pkg $end
$upscope $end
$scope module std_logic_misc $end
$upscope $end
$scope module stream_pkg $end
$upscope $end
$scope module clockgen_pkg $end
$upscope $end
$scope module streamsync_tc $end
$scope module tb $end
$var reg 1 # clk $end
$var reg 1 $ reset $end
$var reg 1 % a_valid $end
$var reg 1 & a_ready $end
$var reg 8 ' a_data[7:0] $end
$var reg 1 ( a_x[0:0] $end
$var reg 1 ) a_y[0:0] $end
$var reg 1 * a_z[0:0] $end
$var reg 1 + a_advance_other $end
$var reg 1 , a_use_other $end
$var reg 1 - a_out_enable $end
$var reg 1 . b_valid $end
$var reg 1 / b_ready $end
$var reg 8 0 b_data[7:0] $end
$var reg 1 1 b_x[0:0] $end
$var reg 1 2 b_y[0:0] $end
$var reg 1 3 b_z[0:0] $end
$var reg 1 4 b_advance_other $end
$var reg 1 5 b_use_other $end
$var reg 1 6 b_out_enable $end
$var reg 1 7 c_valid $end
$var reg 1 8 c_ready $end
$var reg 8 9 c_data[7:0] $end
$var reg 1 : d_valid $end
$var reg 1 ; d_ready $end
$var reg 8 < d_data[7:0] $end
$scope module clkgen $end
$var reg 1 = clk $end
$var reg 1 > clk_n $end
$var reg 1 ? reset $end
$var reg 1 @ reset_n $end
$var reg 1 A sync $end
$var reg 1 B clk_i $end
$upscope $end
$scope module a_source $end
$var reg 1 C clk $end
$var reg 1 D reset $end
$var reg 1 E valid $end
$var reg 1 F ready $end
$var reg 1 G dvalid $end
$var reg 8 H data[7:0] $end
$var reg 1 I count[0:0] $end
$var reg 1 J last $end
$var reg 1 K ctrl[0:0] $end
$var reg 1 L x[0:0] $end
$var reg 1 M y[0:0] $end
$var reg 1 N z[0:0] $end
$scope module monitor $end
$var reg 1 O clk $end
$var reg 1 P reset $end
$var reg 1 Q valid $end
$var reg 1 R ready $end
$var reg 1 S dvalid $end
$var reg 8 T data[7:0] $end
$var reg 1 U count[0:0] $end
$var reg 1 V last $end
$var reg 1 W ctrl[0:0] $end
$var reg 1 X x[0:0] $end
$var reg 1 Y y[0:0] $end
$var reg 1 Z z[0:0] $end
$upscope $end
$upscope $end
$scope module b_source $end
$var reg 1 [ clk $end
$var reg 1 \ reset $end
$var reg 1 ] valid $end
$var reg 1 ^ ready $end
$var reg 1 _ dvalid $end
$var reg 8 ` data[7:0] $end
$var reg 1 a count[0:0] $end
$var reg 1 b last $end
$var reg 1 c ctrl[0:0] $end
$var reg 1 d x[0:0] $end
$var reg 1 e y[0:0] $end
$var reg 1 f z[0:0] $end
$scope module monitor $end
$var reg 1 g clk $end
$var reg 1 h reset $end
$var reg 1 i valid $end
$var reg 1 j ready $end
$var reg 1 k dvalid $end
$var reg 8 l data[7:0] $end
$var reg 1 m count[0:0] $end
$var reg 1 n last $end
$var reg 1 o ctrl[0:0] $end
$var reg 1 p x[0:0] $end
$var reg 1 q y[0:0] $end
$var reg 1 r z[0:0] $end
$upscope $end
$upscope $end
$scope module uut $end
$var reg 1 s clk $end
$var reg 1 t reset $end
$var reg 2 u in_valid[1:0] $end
$var reg 2 v in_ready[1:0] $end
$var reg 2 w in_advance[1:0] $end
$var reg 2 x in_use[1:0] $end
$var reg 2 y out_valid[1:0] $end
$var reg 2 z out_ready[1:0] $end
$var reg 2 { out_enable[1:0] $end
$var reg 1 | valid $end
$var reg 1 } ready $end
$var reg 2 !" out_accepted[1:0] $end
$var reg 2 "" out_done[1:0] $end
$scope module out_gen(0) $end
$upscope $end
$scope module out_gen(1) $end
$upscope $end
$upscope $end
$scope module c_sink $end
$var reg 1 #" clk $end
$var reg 1 $" reset $end
$var reg 1 %" valid $end
$var reg 1 &" ready $end
$var reg 1 '" dvalid $end
$var reg 8 (" data[7:0] $end
$var reg 1 )" count[0:0] $end
$var reg 1 *" last $end
$var reg 1 +" ctrl[0:0] $end
$var reg 1 ," x[0:0] $end
$var reg 1 -" y[0:0] $end
$var reg 1 ." z[0:0] $end
$scope module monitor $end
$var reg 1 /" clk $end
$var reg 1 0" reset $end
$var reg 1 1" valid $end
$var reg 1 2" ready $end
$var reg 1 3" dvalid $end
$var reg 8 4" data[7:0] $end
$var reg 1 5" count[0:0] $end
$var reg 1 6" last $end
$var reg 1 7" ctrl[0:0] $end
$var reg 1 8" x[0:0] $end
$var reg 1 9" y[0:0] $end
$var reg 1 :" z[0:0] $end
$upscope $end
$upscope $end
$scope module d_sink $end
$var reg 1 ;" clk $end
$var reg 1 <" reset $end
$var reg 1 =" valid $end
$var reg 1 >" ready $end
$var reg 1 ?" dvalid $end
$var reg 8 @" data[7:0] $end
$var reg 1 A" count[0:0] $end
$var reg 1 B" last $end
$var reg 1 C" ctrl[0:0] $end
$var reg 1 D" x[0:0] $end
$var reg 1 E" y[0:0] $end
$var reg 1 F" z[0:0] $end
$scope module monitor $end
$var reg 1 G" clk $end
$var reg 1 H" reset $end
$var reg 1 I" valid $end
$var reg 1 J" ready $end
$var reg 1 K" dvalid $end
$var reg 8 L" data[7:0] $end
$var reg 1 M" count[0:0] $end
$var reg 1 N" last $end
$var reg 1 O" ctrl[0:0] $end
$var reg 1 P" x[0:0] $end
$var reg 1 Q" y[0:0] $end
$var reg 1 R" z[0:0] $end
$upscope $end
$upscope $end
$upscope $end
$upscope $end
$enddefinitions $end
#0
1!
1"
0#
1$
U%
U&
bUUUUUUUU '
bU (
bU )
bU *
U+
U,
U-
U.
U/
bUUUUUUUU 0
bU 1
bU 2
bU 3
U4
U5
U6
U7
U8
bUUUUUUUU 9
U:
U;
bUUUUUUUU <
0=
1>
1?
0@
0A
0B
0C
1D
UE
UF
UG
bUUUUUUUU H
bU I
UJ
bU K
bU L
bU M
bU N
0O
1P
UQ
UR
US
bUUUUUUUU T
bU U
UV
bU W
bU X
bU Y
bU Z
0[
1\
U]
U^
U_
bUUUUUUUU `
bU a
Ub
bU c
bU d
bU e
bU f
0g
1h
Ui
Uj
Uk
bUUUUUUUU l
bU m
Un
bU o
bU p
bU q
bU r
0s
1t
bUU u
bUU v
bUU w
bUU x
bUU y
bUU z
bUU {
U|
U}
bUU !"
bUU ""
0#"
1$"
U%"
U&"
1'"
bUUUUUUUU ("
b1 )"
1*"
b0 +"
b0 ,"
b0 -"
b0 ."
0/"
10"
U1"
U2"
13"
bUUUUUUUU 4"
b1 5"
16"
b0 7"
b0 8"
b0 9"
b0 :"
0;"
1<"
U="
U>"
1?"
bUUUUUUUU @"
b1 A"
1B"
b0 C"
b0 D"
b0 E"
b0 F"
0G"
1H"
UI"
UJ"
1K"
bUUUUUUUU L"
b1 M"
1N"
b0 O"
b0 P"
b0 Q"
b0 R"
#500000000
#600000000
#1000000000
1A
#2000000000
1#
0%
0&
1+
1,
1-
0.
0/
14
15
16
07
08
0:
0;
1=
0>
0A
1B
1C
0E
0F
UG
bUUUUUUUU H
bU I
UJ
bU K
bU L
bU M
bU N
1O
0Q
0R
1[
0]
0^
U_
bUUUUUUUU `
bU a
Ub
bU c
bU d
bU e
bU f
1g
0i
0j
1s
b00 u
b00 v
b11 w
b11 x
b00 y
b00 z
b11 {
0|
0}
b00 !"
b00 ""
1#"
0%"
0&"
1/"
01"
02"
1;"
0="
0>"
1G"
0I"
0J"
#2005000000
0#
0=
1>
0B
0C
0O
0[
0g
0s
0#"
0/"
0;"
0G"
#2010000000
1#
1=
0>
1B
1C
1O
1[
1g
1s
1#"
1/"
1;"
1G"
#2015000000
0#
0=
1>
0B
0C
0O
0[
0g
0s
0#"
0/"
0;"
0G"
#2020000000
1#
1=
0>
1B
1C
1O
1[
1g
1s
1#"
1/"
1;"
1G"
#2025000000
0#
0=
1>
0B
0C
0O
0[
0g
0s
0#"
0/"
0;"
0G"
#2030000000
1#
1=
0>
1B
1C
1O
1[
1g
1s
1#"
1/"
1;"
1G"
#2035000000
0#
0=
1>
0B
0C
0O
0[
0g
0s
0#"
0/"
0;"
0G"
#2040000000
1#
1=
0>
1B
1C
1O
1[
1g
1s
1#"
1/"
1;"
1G"
#2045000000
0#
0=
1>
0B
0C
0O
0[
0g
0s
0#"
0/"
0;"
0G"
#2050000000
1#
1=
0>
1B
1C
1O
1[
1g
1s
1#"
1/"
1;"
1G"
#2055000000
0#
0=
1>
0B
0C
0O
0[
0g
0s
0#"
0/"
0;"
0G"
#2060000000
1#
1=
0>
1B
1C
1O
1[
1g
1s
1#"
1/"
1;"
1G"
#2065000000
0#
0=
1>
0B
0C
0O
0[
0g
0s
0#"
0/"
0;"
0G"
#2070000000
1#
1=
0>
1B
1C
1O
1[
1g
1s
1#"
1/"
1;"
1G"
#2075000000
0#
0=
1>
0B
0C
0O
0[
0g
0s
0#"
0/"
0;"
0G"
#2080000000
1#
1=
0>
1B
1C
1O
1[
1g
1s
1#"
1/"
1;"
1G"
#2085000000
0#
0=
1>
0B
0C
0O
0[
0g
0s
0#"
0/"
0;"
0G"
#2090000000
1#
1=
0>
1B
1C
1O
1[
1g
1s
1#"
1/"
1;"
1G"
#2095000000
0#
0=
1>
0B
0C
0O
0[
0g
0s
0#"
0/"
0;"
0G"
#2100000000
1#
0$
1=
0>
0?
1@
1B
1C
0D
1O
0P
1[
0\
1g
0h
1s
0t
1#"
0$"
1/"
00"
1;"
0<"
1G"
0H"
#2105000000
Z"
0#
0=
1>
0B
0C
0O
0[
0g
0s
0#"
0/"
0;"
0G"
#2110000000
1#
1%
b01010100 '
b1 (
b1 )
b1 *
1.
b01010100 0
b1 1
b1 2
b1 3
17
18
b01010100 9
1:
b01010100 <
1=
0>
1B
1C
1E
1G
b01010100 H
b1 I
0J
b1 L
b1 M
b1 N
1O
1Q
1S
b01010100 T
b1 U
0V
b1 X
b1 Y
b1 Z
1[
1]
1_
b01010100 `
b1 a
0b
b1 d
b1 e
b1 f
1g
1i
1k
b01010100 l
b1 m
0n
b1 p
b1 q
b1 r
1s
b11 u
b11 y
b01 z
1|
b01 ""
1#"
1%"
1&"
b01010100 ("
1/"
11"
12"
b01010100 4"
1;"
1="
b01010100 @"
1G"
1I"
b01010100 L"
#2115000000
0#
0=
1>
0B
0C
0O
0[
0g
0s
0#"
0/"
0;"
0G"
#2120000000
1#
07
08
1=
0>
1B
1C
1O
1[
1g
1s
b10 y
b00 z
b01 !"
1#"
0%"
0&"
1/"
01"
02"
1;"
1G"
#2125000000
0#
0=
1>
0B
0C
0O
0[
0g
0s
0#"
0/"
0;"
0G"
#2130000000
1#
1=
0>
1B
1C
1O
1[
1g
1s
1#"
1/"
1;"
1G"
#2135000000
0#
0=
1>
0B
0C
0O
0[
0g
0s
0#"
0/"
0;"
0G"
#2140000000
1#
1=
0>
1B
1C
1O
1[
1g
1s
1#"
1/"
1;"
1G"
#2145000000
0#
0=
1>
0B
0C
0O
0[
0g
0s
0#"
0/"
0;"
0G"
#2150000000
1#
1&
1/
1;
1=
0>
1B
1C
1F
1O
1R
1[
1^
1g
1j
1s
b11 v
b10 z
1}
b11 ""
1#"
1/"
1;"
1>"
1G"
1J"
#2155000000
0#
0=
1>
0B
0C
0O
0[
0g
0s
0#"
0/"
0;"
0G"
#2160000000
1#
0%
0&
0.
0/
07
0:
0;
1=
0>
1B
1C
0E
0F
1O
0Q
0R
1[
0]
0^
1g
0i
0j
1s
b00 u
b00 v
b00 y
b00 z
0|
0}
b00 !"
b00 ""
1#"
0%"
1/"
01"
1;"
0="
0>"
1G"
0I"
0J"
#2165000000
0#
0=
1>
0B
0C
0O
0[
0g
0s
0#"
0/"
0;"
0G"
#2170000000
1#
1.
b01101000 0
18
b01110100 9
b01001000 <
1=
0>
1B
1C
1O
1[
1]
b01101000 `
1g
1i
b01101000 l
1s
b10 u
b01 z
b01 ""
1#"
1&"
b01110100 ("
1/"
12"
b01110100 4"
1;"
b01001000 @"
1G"
b01001000 L"
#2175000000
0#
0=
1>
0B
0C
0O
0[
0g
0s
0#"
0/"
0;"
0G"
#2180000000
1#
1=
0>
1B
1C
1O
1[
1g
1s
1#"
1/"
1;"
1G"
#2185000000
0#
0=
1>
0B
0C
0O
0[
0g
0s
0#"
0/"
0;"
0G"
#2190000000
1#
1=
0>
1B
1C
1O
1[
1g
1s
1#"
1/"
1;"
1G"
#2195000000
0#
0=
1>
0B
0C
0O
0[
0g
0s
0#"
0/"
0;"
0G"
#2200000000
1#
1%
b01101000 '
17
b01101000 9
1:
b01101000 <
1=
0>
1B
1C
1E
b01101000 H
1O
1Q
b01101000 T
1[
1g
1s
b11 u
b11 y
1|
1#"
1%"
b01101000 ("
1/"
11"
b01101000 4"
1;"
1="
b01101000 @"
1G"
1I"
b01101000 L"
#2205000000
0#
0=
1>
0B
0C
0O
0[
0g
0s
0#"
0/"
0;"
0G"
#2210000000
1#
1&
1/
07
1;
1=
0>
1B
1C
1F
1O
1R
1[
1^
1g
1j
1s
b11 v
b10 y
b11 z
1}
b01 !"
b11 ""
1#"
0%"
1/"
01"
1;"
1>"
1G"
1J"
#2215000000
0#
0=
1>
0B
0C
0O
0[
0g
0s
0#"
0/"
0;"
0G"
#2220000000
1#
0&
b01100101 '
0/
b01100101 0
17
b01100101 9
0;
b01100101 <
1=
0>
1B
1C
0F
b01100101 H
1J
1O
0R
b01100101 T
1V
1[
0^
b01100101 `
1g
0j
b01100101 l
1s
b00 v
b11 y
b01 z
0}
b00 !"
b01 ""
1#"
1%"
b01100101 ("
1/"
11"
b01100101 4"
1;"
0>"
b01100101 @"
1G"
0J"
b01100101 L"
#2225000000
0#
0=
1>
0B
0C
0O
0[
0g
0s
0#"
0/"
0;"
0G"
#2230000000
1#
07
08
1=
0>
1B
1C
1O
1[
1g
1s
b10 y
b00 z
b01 !"
1#"
0%"
0&"
1/"
01"
02"
1;"
1G"
#2235000000
0#
0=
1>
0B
0C
0O
0[
0g
0s
0#"
0/"
0;"
0G"
#2240000000
1#
1=
0>
1B
1C
1O
1[
1g
1s
1#"
1/"
1;"
1G"
#2245000000
0#
0=
1>
0B
0C
0O
0[
0g
0s
0#"
0/"
0;"
0G"
#2250000000
1#
1=
0>
1B
1C
1O
1[
1g
1s
1#"
1/"
1;"
1G"
#2255000000
0#
0=
1>
0B
0C
0O
0[
0g
0s
0#"
0/"
0;"
0G"
#2260000000
1#
1=
0>
1B
1C
1O
1[
1g
1s
1#"
1/"
1;"
1G"
#2265000000
0#
0=
1>
0B
0C
0O
0[
0g
0s
0#"
0/"
0;"
0G"
#2270000000
1#
1&
1/
1;
1=
0>
1B
1C
1F
1O
1R
1[
1^
1g
1j
1s
b11 v
b10 z
1}
b11 ""
1#"
1/"
1;"
1>"
1G"
1J"
#2275000000
0#
0=
1>
0B
0C
0O
0[
0g
0s
0#"
0/"
0;"
0G"
#2280000000
1#
0&
b00100000 '
b0 (
0+
0/
b00100000 0
17
18
b00100000 9
0;
b00100000 <
1=
0>
1B
1C
0F
b00100000 H
0J
b0 L
1O
0R
b00100000 T
0V
b0 X
1[
0^
b00100000 `
1g
0j
b00100000 l
1s
b00 v
b01 w
b11 y
b01 z
0}
b00 !"
b01 ""
1#"
1%"
1&"
b00100000 ("
1/"
11"
12"
b00100000 4"
1;"
0>"
b00100000 @"
1G"
0J"
b00100000 L"
#2285000000
0#
0=
1>
0B
0C
0O
0[
0g
0s
0#"
0/"
0;"
0G"
#2290000000
1#
07
1=
0>
1B
1C
1O
1[
1g
1s
b10 y
b01 !"
1#"
0%"
1/"
01"
1;"
1G"
#2295000000
0#
0=
1>
0B
0C
0O
0[
0g
0s
0#"
0/"
0;"
0G"
#2300000000
1#
1=
0>
1B
1C
1O
1[
1g
1s
1#"
1/"
1;"
1G"
#2305000000
0#
0=
1>
0B
0C
0O
0[
0g
0s
0#"
0/"
0;"
0G"
#2310000000
1#
1=
0>
1B
1C
1O
1[
1g
1s
1#"
1/"
1;"
1G"
#2315000000
0#
0=
1>
0B
0C
0O
0[
0g
0s
0#"
0/"
0;"
0G"
#2320000000
1#
1=
0>
1B
1C
1O
1[
1g
1s
1#"
1/"
1;"
1G"
#2325000000
0#
0=
1>
0B
0C
0O
0[
0g
0s
0#"
0/"
0;"
0G"
#2330000000
1#
1&
1;
1=
0>
1B
1C
1F
1O
1R
1[
1g
1s
b01 v
b11 z
1}
b11 ""
1#"
1/"
1;"
1>"
1G"
1J"
#2335000000
0#
0=
1>
0B
0C
0O
0[
0g
0s
0#"
0/"
0;"
0G"
#2340000000
1#
0&
b01110001 '
17
b01110001 9
0;
1=
0>
1B
1C
0F
b01110001 H
1O
0R
b01110001 T
1[
1g
1s
b00 v
b11 y
b01 z
0}
b00 !"
b01 ""
1#"
1%"
b01110001 ("
1/"
11"
b01110001 4"
1;"
0>"
1G"
0J"
#2345000000
0#
0=
1>
0B
0C
0O
0[
0g
0s
0#"
0/"
0;"
0G"
#2350000000
1#
07
08
1=
0>
1B
1C
1O
1[
1g
1s
b10 y
b00 z
b01 !"
1#"
0%"
0&"
1/"
01"
02"
1;"
1G"
#2355000000
0#
0=
1>
0B
0C
0O
0[
0g
0s
0#"
0/"
0;"
0G"
#2360000000
1#
1=
0>
1B
1C
1O
1[
1g
1s
1#"
1/"
1;"
1G"
#2365000000
0#
0=
1>
0B
0C
0O
0[
0g
0s
0#"
0/"
0;"
0G"
#2370000000
1#
1&
1;
1=
0>
1B
1C
1F
1O
1R
1[
1g
1s
b01 v
b10 z
1}
b11 ""
1#"
1/"
1;"
1>"
1G"
1J"
#2375000000
0#
0=
1>
0B
0C
0O
0[
0g
0s
0#"
0/"
0;"
0G"
#2380000000
1#
0&
b01110101 '
17
18
b01110101 9
0;
1=
0>
1B
1C
0F
b01110101 H
1O
0R
b01110101 T
1[
1g
1s
b00 v
b11 y
b01 z
0}
b00 !"
b01 ""
1#"
1%"
1&"
b01110101 ("
1/"
11"
12"
b01110101 4"
1;"
0>"
1G"
0J"
#2385000000
0#
0=
1>
0B
0C
0O
0[
0g
0s
0#"
0/"
0;"
0G"
#2390000000
1#
07
08
1=
0>
1B
1C
1O
1[
1g
1s
b10 y
b00 z
b01 !"
1#"
0%"
0&"
1/"
01"
02"
1;"
1G"
#2395000000
0#
0=
1>
0B
0C
0O
0[
0g
0s
0#"
0/"
0;"
0G"
#2400000000
1#
1=
0>
1B
1C
1O
1[
1g
1s
1#"
1/"
1;"
1G"
#2405000000
0#
0=
1>
0B
0C
0O
0[
0g
0s
0#"
0/"
0;"
0G"
#2410000000
1#
1=
0>
1B
1C
1O
1[
1g
1s
1#"
1/"
1;"
1G"
#2415000000
0#
0=
1>
0B
0C
0O
0[
0g
0s
0#"
0/"
0;"
0G"
#2420000000
1#
1=
0>
1B
1C
1O
1[
1g
1s
1#"
1/"
1;"
1G"
#2425000000
0#
0=
1>
0B
0C
0O
0[
0g
0s
0#"
0/"
0;"
0G"
#2430000000
1#
1&
18
1;
1=
0>
1B
1C
1F
1O
1R
1[
1g
1s
b01 v
b11 z
1}
b11 ""
1#"
1&"
1/"
12"
1;"
1>"
1G"
1J"
#2435000000
0#
0=
1>
0B
0C
0O
0[
0g
0s
0#"
0/"
0;"
0G"
#2440000000
1#
0%
0&
1+
0/
07
0:
1=
0>
1B
1C
0E
0F
1O
0Q
0R
1[
0^
1g
0j
1s
b10 u
b00 v
b11 w
b00 y
0|
0}
b00 !"
1#"
0%"
1/"
01"
1;"
0="
1G"
0I"
#2445000000
0#
0=
1>
0B
0C
0O
0[
0g
0s
0#"
0/"
0;"
0G"
#2450000000
1#
1=
0>
1B
1C
1O
1[
1g
1s
1#"
1/"
1;"
1G"
#2455000000
0#
0=
1>
0B
0C
0O
0[
0g
0s
0#"
0/"
0;"
0G"
#2460000000
1#
1=
0>
1B
1C
1O
1[
1g
1s
1#"
1/"
1;"
1G"
#2465000000
0#
0=
1>
0B
0C
0O
0[
0g
0s
0#"
0/"
0;"
0G"
#2470000000
1#
1=
0>
1B
1C
1O
1[
1g
1s
1#"
1/"
1;"
1G"
#2475000000
0#
0=
1>
0B
0C
0O
0[
0g
0s
0#"
0/"
0;"
0G"
#2480000000
1#
1%
1&
b01101001 '
0+
17
b01101001 9
1:
1=
0>
1B
1C
1E
1F
b01101001 H
1O
1Q
1R
b01101001 T
1[
1g
1s
b11 u
b01 v
b01 w
b11 y
1|
1}
1#"
1%"
b01101001 ("
1/"
11"
b01101001 4"
1;"
1="
1G"
1I"
#2485000000
0#
0=
1>
0B
0C
0O
0[
0g
0s
0#"
0/"
0;"
0G"
#2490000000
1#
0%
0&
1+
0/
07
0:
1=
0>
1B
1C
0E
0F
1O
0Q
0R
1[
0^
1g
0j
1s
b10 u
b00 v
b11 w
b00 y
0|
0}
1#"
0%"
1/"
01"
1;"
0="
1G"
0I"
#2495000000
0#
0=
1>
0B
0C
0O
0[
0g
0s
0#"
0/"
0;"
0G"
#2500000000
1#
1=
0>
1B
1C
1O
1[
1g
1s
1#"
1/"
1;"
1G"
#2505000000
0#
0=
1>
0B
0C
0O
0[
0g
0s
0#"
0/"
0;"
0G"
#2510000000
1#
1%
1&
b01100011 '
0+
17
b01100011 9
1:
1=
0>
1B
1C
1E
1F
b01100011 H
1O
1Q
1R
b01100011 T
1[
1g
1s
b11 u
b01 v
b01 w
b11 y
1|
1}
1#"
1%"
b01100011 ("
1/"
11"
b01100011 4"
1;"
1="
1G"
1I"
#2515000000
0#
0=
1>
0B
0C
0O
0[
0g
0s
0#"
0/"
0;"
0G"
#2520000000
1#
0&
b01101011 '
08
b01101011 9
1=
0>
1B
1C
0F
b01101011 H
1O
0R
b01101011 T
1[
1g
1s
b00 v
b10 z
0}
b10 ""
1#"
0&"
b01101011 ("
1/"
02"
b01101011 4"
1;"
1G"
#2525000000
0#
0=
1>
0B
0C
0O
0[
0g
0s
0#"
0/"
0;"
0G"
#2530000000
1#
1&
18
0:
0;
1=
0>
1B
1C
1F
1O
1R
1[
1g
1s
b01 v
b01 y
b01 z
1}
b10 !"
b11 ""
1#"
1&"
1/"
12"
1;"
0="
0>"
1G"
0I"
0J"
#2535000000
0#
0=
1>
0B
0C
0O
0[
0g
0s
0#"
0/"
0;"
0G"
#2540000000
1#
0%
0&
1+
0/
07
0:
1=
0>
1B
1C
0E
0F
1O
0Q
0R
1[
0^
1g
0j
1s
b10 u
b00 v
b11 w
b00 y
0|
0}
b00 !"
b01 ""
1#"
0%"
1/"
01"
1;"
0="
1G"
0I"
#2545000000
0#
0=
1>
0B
0C
0O
0[
0g
0s
0#"
0/"
0;"
0G"
#2550000000
1#
1;
1=
0>
1B
1C
1O
1[
1g
1s
b11 z
b11 ""
1#"
1/"
1;"
1>"
1G"
1J"
#2555000000
0#
0=
1>
0B
0C
0O
0[
0g
0s
0#"
0/"
0;"
0G"
#2560000000
1#
1%
1&
b00100000 '
0+
17
b00100000 9
1:
1=
0>
1B
1C
1E
1F
b00100000 H
1O
1Q
1R
b00100000 T
1[
1g
1s
b11 u
b01 v
b01 w
b11 y
1|
1}
1#"
1%"
b00100000 ("
1/"
11"
b00100000 4"
1;"
1="
1G"
1I"
#2565000000
0#
0=
1>
0B
0C
0O
0[
0g
0s
0#"
0/"
0;"
0G"
#2570000000
1#
0%
0&
1+
0/
07
0:
1=
0>
1B
1C
0E
0F
1O
0Q
0R
1[
0^
1g
0j
1s
b10 u
b00 v
b11 w
b00 y
0|
0}
1#"
0%"
1/"
01"
1;"
0="
1G"
0I"
#2575000000
0#
0=
1>
0B
0C
0O
0[
0g
0s
0#"
0/"
0;"
0G"
#2580000000
1#
1=
0>
1B
1C
1O
1[
1g
1s
1#"
1/"
1;"
1G"
#2585000000
0#
0=
1>
0B
0C
0O
0[
0g
0s
0#"
0/"
0;"
0G"
#2590000000
1#
1=
0>
1B
1C
1O
1[
1g
1s
1#"
1/"
1;"
1G"
#2595000000
0#
0=
1>
0B
0C
0O
0[
0g
0s
0#"
0/"
0;"
0G"
#2600000000
1#
1=
0>
1B
1C
1O
1[
1g
1s
1#"
1/"
1;"
1G"
#2605000000
0#
0=
1>
0B
0C
0O
0[
0g
0s
0#"
0/"
0;"
0G"
#2610000000
1#
1%
1&
b01100010 '
0+
17
b01100010 9
1:
1=
0>
1B
1C
1E
1F
b01100010 H
1O
1Q
1R
b01100010 T
1[
1g
1s
b11 u
b01 v
b01 w
b11 y
1|
1}
1#"
1%"
b01100010 ("
1/"
11"
b01100010 4"
1;"
1="
1G"
1I"
#2615000000
0#
0=
1>
0B
0C
0O
0[
0g
0s
0#"
0/"
0;"
0G"
#2620000000
1#
0%
0&
1+
0/
07
08
0:
0;
1=
0>
1B
1C
0E
0F
1O
0Q
0R
1[
0^
1g
0j
1s
b10 u
b00 v
b11 w
b00 y
b00 z
0|
0}
b00 ""
1#"
0%"
0&"
1/"
01"
02"
1;"
0="
0>"
1G"
0I"
0J"
#2625000000
0#
0=
1>
0B
0C
0O
0[
0g
0s
0#"
0/"
0;"
0G"
#2630000000
1#
1%
b01110010 '
0+
17
b01110010 9
1:
1=
0>
1B
1C
1E
b01110010 H
1O
1Q
b01110010 T
1[
1g
1s
b11 u
b01 w
b11 y
1|
1#"
1%"
b01110010 ("
1/"
11"
b01110010 4"
1;"
1="
1G"
1I"
#2635000000
0#
0=
1>
0B
0C
0O
0[
0g
0s
0#"
0/"
0;"
0G"
#2640000000
1#
1=
0>
1B
1C
1O
1[
1g
1s
1#"
1/"
1;"
1G"
#2645000000
0#
0=
1>
0B
0C
0O
0[
0g
0s
0#"
0/"
0;"
0G"
#2650000000
1#
1=
0>
1B
1C
1O
1[
1g
1s
1#"
1/"
1;"
1G"
#2655000000
0#
0=
1>
0B
0C
0O
0[
0g
0s
0#"
0/"
0;"
0G"
#2660000000
1#
1&
18
1;
1=
0>
1B
1C
1F
1O
1R
1[
1g
1s
b01 v
b11 z
1}
b11 ""
1#"
1&"
1/"
12"
1;"
1>"
1G"
1J"
#2665000000
0#
0=
1>
0B
0C
0O
0[
0g
0s
0#"
0/"
0;"
0G"
#2670000000
1#
0%
0&
1+
0/
07
0:
0;
1=
0>
1B
1C
0E
0F
1O
0Q
0R
1[
0^
1g
0j
1s
b10 u
b00 v
b11 w
b00 y
b01 z
0|
0}
b01 ""
1#"
0%"
1/"
01"
1;"
0="
0>"
1G"
0I"
0J"
#2675000000
0#
0=
1>
0B
0C
0O
0[
0g
0s
0#"
0/"
0;"
0G"
#2680000000
1#
1=
0>
1B
1C
1O
1[
1g
1s
1#"
1/"
1;"
1G"
#2685000000
0#
0=
1>
0B
0C
0O
0[
0g
0s
0#"
0/"
0;"
0G"
#2690000000
1#
1=
0>
1B
1C
1O
1[
1g
1s
1#"
1/"
1;"
1G"
#2695000000
0#
0=
1>
0B
0C
0O
0[
0g
0s
0#"
0/"
0;"
0G"
#2700000000
1#
1=
0>
1B
1C
1O
1[
1g
1s
1#"
1/"
1;"
1G"
#2705000000
0#
0=
1>
0B
0C
0O
0[
0g
0s
0#"
0/"
0;"
0G"
#2710000000
1#
1;
1=
0>
1B
1C
1O
1[
1g
1s
b11 z
b11 ""
1#"
1/"
1;"
1>"
1G"
1J"
#2715000000
0#
0=
1>
0B
0C
0O
0[
0g
0s
0#"
0/"
0;"
0G"
#2720000000
1#
1%
1&
b01101111 '
0+
17
b01101111 9
1:
1=
0>
1B
1C
1E
1F
b01101111 H
1O
1Q
1R
b01101111 T
1[
1g
1s
b11 u
b01 v
b01 w
b11 y
1|
1}
1#"
1%"
b01101111 ("
1/"
11"
b01101111 4"
1;"
1="
1G"
1I"
#2725000000
0#
0=
1>
0B
0C
0O
0[
0g
0s
0#"
0/"
0;"
0G"
#2730000000
1#
0%
0&
1+
0/
07
0:
0;
1=
0>
1B
1C
0E
0F
1O
0Q
0R
1[
0^
1g
0j
1s
b10 u
b00 v
b11 w
b00 y
b01 z
0|
0}
b01 ""
1#"
0%"
1/"
01"
1;"
0="
0>"
1G"
0I"
0J"
#2735000000
0#
0=
1>
0B
0C
0O
0[
0g
0s
0#"
0/"
0;"
0G"
#2740000000
1#
1;
1=
0>
1B
1C
1O
1[
1g
1s
b11 z
b11 ""
1#"
1/"
1;"
1>"
1G"
1J"
#2745000000
0#
0=
1>
0B
0C
0O
0[
0g
0s
0#"
0/"
0;"
0G"
#2750000000
1#
1=
0>
1B
1C
1O
1[
1g
1s
1#"
1/"
1;"
1G"
#2755000000
0#
0=
1>
0B
0C
0O
0[
0g
0s
0#"
0/"
0;"
0G"
#2760000000
1#
1%
1&
b01110111 '
0+
17
b01110111 9
1:
1=
0>
1B
1C
1E
1F
b01110111 H
1O
1Q
1R
b01110111 T
1[
1g
1s
b11 u
b01 v
b01 w
b11 y
1|
1}
1#"
1%"
b01110111 ("
1/"
11"
b01110111 4"
1;"
1="
1G"
1I"
#2765000000
0#
0=
1>
0B
0C
0O
0[
0g
0s
0#"
0/"
0;"
0G"
#2770000000
1#
0%
0&
1+
0/
07
08
0:
1=
0>
1B
1C
0E
0F
1O
0Q
0R
1[
0^
1g
0j
1s
b10 u
b00 v
b11 w
b00 y
b10 z
0|
0}
b10 ""
1#"
0%"
0&"
1/"
01"
02"
1;"
0="
1G"
0I"
#2775000000
0#
0=
1>
0B
0C
0O
0[
0g
0s
0#"
0/"
0;"
0G"
#2780000000
1#
1=
0>
1B
1C
1O
1[
1g
1s
1#"
1/"
1;"
1G"
