tests/complex/vhlib/wave/work.streambuffer_200_tc.vcd
$date
  Wed Jun 19 10:58:19 2019
$end
$version
  GHDL v0
$end
$timescale
  1 fs
$end
$scope module standard $end
$upscope $end
$scope module textio $end
$upscope $end
$scope module std_logic_1164 $end
$upscope $end
$scope module numeric_std $end
$upscope $end
$scope module math_real $end
$upscope $end
$scope module testcase_pkg $end
$var reg 1 ! test $end
$var reg 1 " tc_model_init $end
$upscope $end
$scope module simdatacomms_pkg $end
$upscope $end
$scope module streammonitor_pkg $end
$upscope $end
$scope module streamsource_pkg $end
$upscope $end
$scope module streamsink_pkg $end
$upscope $end
$scope module std_logic_misc $end
$upscope $end
$scope module stream_pkg $end
$upscope $end
$scope module clockgen_pkg $end
$upscope $end
$scope module utilint_pkg $end
$upscope $end
$scope module utilram_pkg $end
$upscope $end
$scope module streambuffer_200_tc $end
$scope module tv $end
$upscope $end
$scope module tb $end
$var reg 1 # clk $end
$var reg 1 $ reset $end
$var reg 1 % a_valid $end
$var reg 1 & a_ready $end
$var reg 8 ' a_data[7:0] $end
$var reg 1 ( b_valid $end
$var reg 1 ) b_ready $end
$var reg 8 * b_data[7:0] $end
$scope module clkgen $end
$var reg 1 + clk $end
$var reg 1 , clk_n $end
$var reg 1 - reset $end
$var reg 1 . reset_n $end
$var reg 1 / sync $end
$var reg 1 0 clk_i $end
$upscope $end
$scope module a_source $end
$var reg 1 1 clk $end
$var reg 1 2 reset $end
$var reg 1 3 valid $end
$var reg 1 4 ready $end
$var reg 1 5 dvalid $end
$var reg 8 6 data[7:0] $end
$var reg 1 7 count[0:0] $end
$var reg 1 8 last $end
$var reg 1 9 ctrl[0:0] $end
$var reg 1 : x[0:0] $end
$var reg 1 ; y[0:0] $end
$var reg 1 < z[0:0] $end
$scope module monitor $end
$var reg 1 = clk $end
$var reg 1 > reset $end
$var reg 1 ? valid $end
$var reg 1 @ ready $end
$var reg 1 A dvalid $end
$var reg 8 B data[7:0] $end
$var reg 1 C count[0:0] $end
$var reg 1 D last $end
$var reg 1 E ctrl[0:0] $end
$var reg 1 F x[0:0] $end
$var reg 1 G y[0:0] $end
$var reg 1 H z[0:0] $end
$upscope $end
$upscope $end
$scope module uut $end
$var reg 1 I clk $end
$var reg 1 J reset $end
$var reg 1 K in_valid $end
$var reg 1 L in_ready $end
$var reg 8 M in_data[7:0] $end
$var reg 1 N out_valid $end
$var reg 1 O out_ready $end
$var reg 8 P out_data[7:0] $end
$var reg 1 Q ins_valid $end
$var reg 1 R ins_ready $end
$var reg 8 S ins_data[7:0] $end
$var reg 1 T outs_valid $end
$var reg 1 U outs_ready $end
$var reg 8 V outs_data[7:0] $end
$scope module input_slice_gen $end
$scope module slice_inst $end
$var reg 1 W clk $end
$var reg 1 X reset $end
$var reg 1 Y in_valid $end
$var reg 1 Z in_ready $end
$var reg 8 [ in_data[7:0] $end
$var reg 1 \ out_valid $end
$var reg 1 ] out_ready $end
$var reg 8 ^ out_data[7:0] $end
$var reg 1 _ in_ready_s $end
$var reg 1 ` out_valid_s $end
$var reg 8 a saved_data[7:0] $end
$var reg 1 b saved_valid $end
$upscope $end
$upscope $end
$scope module fifo_gen $end
$scope module slice_inst $end
$var reg 1 c in_clk $end
$var reg 1 d in_reset $end
$var reg 1 e in_valid $end
$var reg 1 f in_ready $end
$var reg 8 g in_data[7:0] $end
$var reg 9 h in_rptr[8:0] $end
$var reg 9 i in_wptr[8:0] $end
$var reg 1 j out_clk $end
$var reg 1 k out_reset $end
$var reg 1 l out_valid $end
$var reg 1 m out_ready $end
$var reg 8 n out_data[7:0] $end
$var reg 9 o out_rptr[8:0] $end
$var reg 9 p out_wptr[8:0] $end
$var reg 9 q in_rptr_s[8:0] $end
$var reg 9 r in_wptr_s[8:0] $end
$var reg 9 s out_rptr_s[8:0] $end
$var reg 9 t out_wptr_s[8:0] $end
$var reg 1 u in_full $end
$var reg 1 v in_next $end
$var reg 1 w out_nonempty $end
$var reg 1 x out_next $end
$var reg 8 y out_readdata[7:0] $end
$var reg 1 z out_readvalid $end
$var reg 8 { out_bufdata[7:0] $end
$var reg 1 | out_bufvalid $end
$scope module wptr_inst $end
$var reg 1 } a_clk $end
$var reg 1 !" a_reset $end
$var reg 1 "" a_increment $end
$var reg 9 #" a_counter[8:0] $end
$var reg 1 $" b_clk $end
$var reg 1 %" b_reset $end
$var reg 9 &" b_counter[8:0] $end
$var reg 9 '" a_counter_s[8:0] $end
$scope module no_xclk $end
$upscope $end
$upscope $end
$scope module ram_inst $end
$var reg 1 (" w_clk $end
$var reg 1 )" w_ena $end
$var reg 8 *" w_addr[7:0] $end
$var reg 8 +" w_data[7:0] $end
$var reg 1 ," r_clk $end
$var reg 1 -" r_ena $end
$var reg 8 ." r_addr[7:0] $end
$var reg 8 /" r_data[7:0] $end
$comment mem is not handled $end
$upscope $end
$scope module rptr_inst $end
$var reg 1 0" a_clk $end
$var reg 1 1" a_reset $end
$var reg 1 2" a_increment $end
$var reg 9 3" a_counter[8:0] $end
$var reg 1 4" b_clk $end
$var reg 1 5" b_reset $end
$var reg 9 6" b_counter[8:0] $end
$var reg 9 7" a_counter_s[8:0] $end
$scope module no_xclk $end
$upscope $end
$upscope $end
$upscope $end
$upscope $end
$scope module output_slice_gen $end
$scope module slice_inst $end
$var reg 1 8" clk $end
$var reg 1 9" reset $end
$var reg 1 :" in_valid $end
$var reg 1 ;" in_ready $end
$var reg 8 <" in_data[7:0] $end
$var reg 1 =" out_valid $end
$var reg 1 >" out_ready $end
$var reg 8 ?" out_data[7:0] $end
$var reg 1 @" in_ready_s $end
$var reg 1 A" out_valid_s $end
$var reg 8 B" saved_data[7:0] $end
$var reg 1 C" saved_valid $end
$upscope $end
$upscope $end
$upscope $end
$scope module b_sink $end
$var reg 1 D" clk $end
$var reg 1 E" reset $end
$var reg 1 F" valid $end
$var reg 1 G" ready $end
$var reg 1 H" dvalid $end
$var reg 8 I" data[7:0] $end
$var reg 1 J" count[0:0] $end
$var reg 1 K" last $end
$var reg 1 L" ctrl[0:0] $end
$var reg 1 M" x[0:0] $end
$var reg 1 N" y[0:0] $end
$var reg 1 O" z[0:0] $end
$scope module monitor $end
$var reg 1 P" clk $end
$var reg 1 Q" reset $end
$var reg 1 R" valid $end
$var reg 1 S" ready $end
$var reg 1 T" dvalid $end
$var reg 8 U" data[7:0] $end
$var reg 1 V" count[0:0] $end
$var reg 1 W" last $end
$var reg 1 X" ctrl[0:0] $end
$var reg 1 Y" x[0:0] $end
$var reg 1 Z" y[0:0] $end
$var reg 1 [" z[0:0] $end
$upscope $end
$upscope $end
$upscope $end
$upscope $end
$enddefinitions $end
#0
1!
1"
0#
1$
U%
U&
bUUUUUUUU '
U(
U)
bUUUUUUUU *
0+
1,
1-
0.
0/
00
01
12
U3
U4
U5
bUUUUUUUU 6
bU 7
U8
bU 9
bU :
bU ;
bU <
0=
1>
U?
U@
UA
bUUUUUUUU B
bU C
UD
bU E
bU F
bU G
bU H
0I
1J
UK
UL
bUUUUUUUU M
UN
UO
bUUUUUUUU P
UQ
UR
bUUUUUUUU S
UT
UU
bUUUUUUUU V
0W
1X
UY
UZ
bUUUUUUUU [
U\
U]
bUUUUUUUU ^
U_
U`
bUUUUUUUU a
Ub
0c
1d
Ue
Uf
bUUUUUUUU g
bUUUUUUUUU h
bUUUUUUUUU i
0j
1k
Ul
Um
bUUUUUUUU n
bUUUUUUUUU o
bUUUUUUUUU p
bUUUUUUUUU q
bUUUUUUUUU r
bUUUUUUUUU s
bUUUUUUUUU t
0u
Uv
0w
0x
bUUUUUUUU y
Uz
bUUUUUUUU {
U|
0}
1!"
U""
bUUUUUUUUU #"
0$"
1%"
bUUUUUUUUU &"
bUUUUUUUUU '"
0("
U)"
bUUUUUUUU *"
bUUUUUUUU +"
0,"
0-"
bUUUUUUUU ."
bUUUUUUUU /"
00"
11"
02"
bUUUUUUUUU 3"
04"
15"
bUUUUUUUUU 6"
bUUUUUUUUU 7"
08"
19"
U:"
U;"
bUUUUUUUU <"
U="
U>"
bUUUUUUUU ?"
U@"
UA"
bUUUUUUUU B"
UC"
0D"
1E"
UF"
UG"
1H"
bUUUUUUUU I"
b1 J"
1K"
b0 L"
b0 M"
b0 N"
b0 O"
0P"
1Q"
UR"
US"
1T"
bUUUUUUUU U"
b1 V"
1W"
b0 X"
b0 Y"
b0 Z"
b0 ["
#500000000
#600000000
#1000000000
1/
#2000000000
1#
0%
0&
0(
0)
1+
0,
0/
10
11
03
04
U5
bUUUUUUUU 6
bU 7
U8
bU 9
bU :
bU ;
bU <
1=
0?
0@
1I
0K
0L
0N
0O
0Q
0R
0T
0U
1W
0Y
0Z
0\
0]
0_
0`
0b
1c
0e
0f
b000000000 h
b000000000 i
1j
0l
0m
b000000000 o
b000000000 p
b000000000 q
b000000000 r
b000000000 s
b000000000 t
0v
0z
0|
1}
0""
b000000000 #"
1$"
b000000000 &"
b000000000 '"
1("
0)"
b00000000 *"
1,"
b00000000 ."
10"
b000000000 3"
14"
b000000000 6"
b000000000 7"
18"
0:"
0;"
0="
0>"
0@"
0A"
0C"
1D"
0F"
0G"
1P"
0R"
0S"
#2005000000
0#
0+
1,
00
01
0=
0I
0W
0c
0j
0}
0$"
0("
0,"
00"
04"
08"
0D"
0P"
#2010000000
1#
1+
0,
10
11
1=
1I
1W
1c
1j
1}
1$"
1("
1,"
10"
14"
18"
1D"
1P"
#2015000000
0#
0+
1,
00
01
0=
0I
0W
0c
0j
0}
0$"
0("
0,"
00"
04"
08"
0D"
0P"
#2020000000
1#
1+
0,
10
11
1=
1I
1W
1c
1j
1}
1$"
1("
1,"
10"
14"
18"
1D"
1P"
#2025000000
0#
0+
1,
00
01
0=
0I
0W
0c
0j
0}
0$"
0("
0,"
00"
04"
08"
0D"
0P"
#2030000000
1#
1+
0,
10
11
1=
1I
1W
1c
1j
1}
1$"
1("
1,"
10"
14"
18"
1D"
1P"
#2035000000
0#
0+
1,
00
01
0=
0I
0W
0c
0j
0}
0$"
0("
0,"
00"
04"
08"
0D"
0P"
#2040000000
1#
1+
0,
10
11
1=
1I
1W
1c
1j
1}
1$"
1("
1,"
10"
14"
18"
1D"
1P"
#2045000000
0#
0+
1,
00
01
0=
0I
0W
0c
0j
0}
0$"
0("
0,"
00"
04"
08"
0D"
0P"
#2050000000
1#
1+
0,
10
11
1=
1I
1W
1c
1j
1}
1$"
1("
1,"
10"
14"
18"
1D"
1P"
#2055000000
0#
0+
1,
00
01
0=
0I
0W
0c
0j
0}
0$"
0("
0,"
00"
04"
08"
0D"
0P"
#2060000000
1#
1+
0,
10
11
1=
1I
1W
1c
1j
1}
1$"
1("
1,"
10"
14"
18"
1D"
1P"
#2065000000
0#
0+
1,
00
01
0=
0I
0W
0c
0j
0}
0$"
0("
0,"
00"
04"
08"
0D"
0P"
#2070000000
1#
1+
0,
10
11
1=
1I
1W
1c
1j
1}
1$"
1("
1,"
10"
14"
18"
1D"
1P"
#2075000000
0#
0+
1,
00
01
0=
0I
0W
0c
0j
0}
0$"
0("
0,"
00"
04"
08"
0D"
0P"
#2080000000
1#
1+
0,
10
11
1=
1I
1W
1c
1j
1}
1$"
1("
1,"
10"
14"
18"
1D"
1P"
#2085000000
0#
0+
1,
00
01
0=
0I
0W
0c
0j
0}
0$"
0("
0,"
00"
04"
08"
0D"
0P"
#2090000000
1#
1+
0,
10
11
1=
1I
1W
1c
1j
1}
1$"
1("
1,"
10"
14"
18"
1D"
1P"
#2095000000
0#
0+
1,
00
01
0=
0I
0W
0c
0j
0}
0$"
0("
0,"
00"
04"
08"
0D"
0P"
#2100000000
1#
0$
1+
0,
0-
1.
10
11
02
1=
0>
1I
0J
1W
0X
1c
0d
1j
0k
1}
0!"
1$"
0%"
1("
1,"
10"
01"
14"
05"
18"
09"
1D"
0E"
1P"
0Q"
#2105000000
Z"
0#
0+
1,
00
01
0=
0I
0W
0c
0j
0}
0$"
0("
0,"
00"
04"
08"
0D"
0P"
#2110000000
1#
1%
1&
b01010100 '
1)
1+
0,
10
11
13
14
15
b01010100 6
b1 7
08
1=
1?
1@
1A
b01010100 B
b1 C
0D
1I
1K
1L
b01010100 M
1O
1U
1W
1Y
1Z
b01010100 [
1_
1c
1j
1m
1}
1$"
1("
1,"
10"
14"
18"
1;"
1>"
1@"
1D"
1G"
1P"
1S"
#2115000000
0#
0+
1,
00
01
0=
0I
0W
0c
0j
0}
0$"
0("
0,"
00"
04"
08"
0D"
0P"
#2120000000
1#
b01101000 '
1+
0,
10
11
b01101000 6
1=
b01101000 B
1I
b01101000 M
1Q
1R
b01010100 S
1W
b01101000 [
1\
1]
b01010100 ^
1`
1c
1e
1f
b01010100 g
1j
1v
1}
1""
1$"
1("
1)"
b01010100 +"
1,"
10"
14"
18"
1D"
1P"
#2125000000
0#
0+
1,
00
01
0=
0I
0W
0c
0j
0}
0$"
0("
0,"
00"
04"
08"
0D"
0P"
#2130000000
1#
b01100101 '
1+
0,
10
11
b01100101 6
1=
b01100101 B
1I
b01100101 M
b01101000 S
1W
b01100101 [
b01101000 ^
1c
b01101000 g
b000000001 i
1j
b000000001 p
b000000001 r
b000000001 t
1w
1x
1}
b000000001 #"
1$"
b000000001 &"
b000000001 '"
1("
b00000001 *"
b01101000 +"
1,"
1-"
10"
12"
14"
18"
1D"
1P"
#2135000000
0#
0+
1,
00
01
0=
0I
0W
0c
0j
0}
0$"
0("
0,"
00"
04"
08"
0D"
0P"
#2140000000
1#
b00100000 '
1+
0,
10
11
b00100000 6
1=
b00100000 B
1I
b00100000 M
b01100101 S
1T
b01010100 V
1W
b00100000 [
b01100101 ^
1c
b01100101 g
b000000001 h
b000000010 i
1j
1l
b01010100 n
b000000001 o
b000000010 p
b000000001 q
b000000010 r
b000000001 s
b000000010 t
b01010100 y
1z
1}
b000000010 #"
1$"
b000000010 &"
b000000010 '"
1("
b00000010 *"
b01100101 +"
1,"
b00000001 ."
b01010100 /"
10"
b000000001 3"
14"
b000000001 6"
b000000001 7"
18"
1:"
b01010100 <"
1D"
1P"
#2145000000
0#
0+
1,
00
01
0=
0I
0W
0c
0j
0}
0$"
0("
0,"
00"
04"
08"
0D"
0P"
#2150000000
1#
b01110001 '
1(
b01010100 *
1+
0,
10
11
b01110001 6
1=
b01110001 B
1I
b01110001 M
1N
b01010100 P
b00100000 S
b01101000 V
1W
b01110001 [
b00100000 ^
1c
b00100000 g
b000000010 h
b000000011 i
1j
b01101000 n
b000000010 o
b000000011 p
b000000010 q
b000000011 r
b000000010 s
b000000011 t
b01101000 y
b01010100 {
1}
b000000011 #"
1$"
b000000011 &"
b000000011 '"
1("
b00000011 *"
b00100000 +"
1,"
b00000010 ."
b01101000 /"
10"
b000000010 3"
14"
b000000010 6"
b000000010 7"
18"
b01101000 <"
1="
b01010100 ?"
1A"
1D"
1F"
b01010100 I"
1P"
1R"
b01010100 U"
#2155000000
0#
0+
1,
00
01
0=
0I
0W
0c
0j
0}
0$"
0("
0,"
00"
04"
08"
0D"
0P"
#2160000000
1#
b01110101 '
b01101000 *
1+
0,
10
11
b01110101 6
1=
b01110101 B
1I
b01110101 M
b01101000 P
b01110001 S
b01100101 V
1W
b01110101 [
b01110001 ^
1c
b01110001 g
b000000011 h
b000000100 i
1j
b01100101 n
b000000011 o
b000000100 p
b000000011 q
b000000100 r
b000000011 s
b000000100 t
b01100101 y
b01101000 {
1}
b000000100 #"
1$"
b000000100 &"
b000000100 '"
1("
b00000100 *"
b01110001 +"
1,"
b00000011 ."
b01100101 /"
10"
b000000011 3"
14"
b000000011 6"
b000000011 7"
18"
b01100101 <"
b01101000 ?"
1D"
b01101000 I"
1P"
b01101000 U"
#2165000000
0#
0+
1,
00
01
0=
0I
0W
0c
0j
0}
0$"
0("
0,"
00"
04"
08"
0D"
0P"
#2170000000
1#
b01101001 '
b01100101 *
1+
0,
10
11
b01101001 6
1=
b01101001 B
1I
b01101001 M
b01100101 P
b01110101 S
b00100000 V
1W
b01101001 [
b01110101 ^
1c
b01110101 g
b000000100 h
b000000101 i
1j
b00100000 n
b000000100 o
b000000101 p
b000000100 q
b000000101 r
b000000100 s
b000000101 t
b00100000 y
b01100101 {
1}
b000000101 #"
1$"
b000000101 &"
b000000101 '"
1("
b00000101 *"
b01110101 +"
1,"
b00000100 ."
b00100000 /"
10"
b000000100 3"
14"
b000000100 6"
b000000100 7"
18"
b00100000 <"
b01100101 ?"
1D"
b01100101 I"
1P"
b01100101 U"
#2175000000
0#
0+
1,
00
01
0=
0I
0W
0c
0j
0}
0$"
0("
0,"
00"
04"
08"
0D"
0P"
#2180000000
1#
b01100011 '
b00100000 *
1+
0,
10
11
b01100011 6
1=
b01100011 B
1I
b01100011 M
b00100000 P
b01101001 S
b01110001 V
1W
b01100011 [
b01101001 ^
1c
b01101001 g
b000000101 h
b000000110 i
1j
b01110001 n
b000000101 o
b000000110 p
b000000101 q
b000000110 r
b000000101 s
b000000110 t
b01110001 y
b00100000 {
1}
b000000110 #"
1$"
b000000110 &"
b000000110 '"
1("
b00000110 *"
b01101001 +"
1,"
b00000101 ."
b01110001 /"
10"
b000000101 3"
14"
b000000101 6"
b000000101 7"
18"
b01110001 <"
b00100000 ?"
1D"
b00100000 I"
1P"
b00100000 U"
#2185000000
0#
0+
1,
00
01
0=
0I
0W
0c
0j
0}
0$"
0("
0,"
00"
04"
08"
0D"
0P"
#2190000000
1#
b01101011 '
b01110001 *
1+
0,
10
11
b01101011 6
1=
b01101011 B
1I
b01101011 M
b01110001 P
b01100011 S
b01110101 V
1W
b01101011 [
b01100011 ^
1c
b01100011 g
b000000110 h
b000000111 i
1j
b01110101 n
b000000110 o
b000000111 p
b000000110 q
b000000111 r
b000000110 s
b000000111 t
b01110101 y
b01110001 {
1}
b000000111 #"
1$"
b000000111 &"
b000000111 '"
1("
b00000111 *"
b01100011 +"
1,"
b00000110 ."
b01110101 /"
10"
b000000110 3"
14"
b000000110 6"
b000000110 7"
18"
b01110101 <"
b01110001 ?"
1D"
b01110001 I"
1P"
b01110001 U"
#2195000000
0#
0+
1,
00
01
0=
0I
0W
0c
0j
0}
0$"
0("
0,"
00"
04"
08"
0D"
0P"
#2200000000
1#
b00100000 '
b01110101 *
1+
0,
10
11
b00100000 6
1=
b00100000 B
1I
b00100000 M
b01110101 P
b01101011 S
b01101001 V
1W
b00100000 [
b01101011 ^
1c
b01101011 g
b000000111 h
b000001000 i
1j
b01101001 n
b000000111 o
b000001000 p
b000000111 q
b000001000 r
b000000111 s
b000001000 t
b01101001 y
b01110101 {
1}
b000001000 #"
1$"
b000001000 &"
b000001000 '"
1("
b00001000 *"
b01101011 +"
1,"
b00000111 ."
b01101001 /"
10"
b000000111 3"
14"
b000000111 6"
b000000111 7"
18"
b01101001 <"
b01110101 ?"
1D"
b01110101 I"
1P"
b01110101 U"
#2205000000
0#
0+
1,
00
01
0=
0I
0W
0c
0j
0}
0$"
0("
0,"
00"
04"
08"
0D"
0P"
#2210000000
1#
b01100010 '
0)
b01101001 *
1+
0,
10
11
b01100010 6
1=
b01100010 B
1I
b01100010 M
0O
b01101001 P
b00100000 S
b01100011 V
1W
b01100010 [
b00100000 ^
1c
b00100000 g
b000001000 h
b000001001 i
1j
b01100011 n
b000001000 o
b000001001 p
b000001000 q
b000001001 r
b000001000 s
b000001001 t
b01100011 y
b01101001 {
1}
b000001001 #"
1$"
b000001001 &"
b000001001 '"
1("
b00001001 *"
b00100000 +"
1,"
b00001000 ."
b01100011 /"
10"
b000001000 3"
14"
b000001000 6"
b000001000 7"
18"
b01100011 <"
0>"
b01101001 ?"
1D"
0G"
b01101001 I"
1P"
0S"
b01101001 U"
#2215000000
0#
0+
1,
00
01
0=
0I
0W
0c
0j
0}
0$"
0("
0,"
00"
04"
08"
0D"
0P"
#2220000000
1#
b01110010 '
1+
0,
10
11
b01110010 6
1=
b01110010 B
1I
b01110010 M
b01100010 S
0U
b01101011 V
1W
b01110010 [
b01100010 ^
1c
b01100010 g
b000001001 h
b000001010 i
1j
0m
b01101011 n
b000001001 o
b000001010 p
b000001001 q
b000001010 r
b000001001 s
b000001010 t
0x
b01101011 y
b01100011 {
1}
b000001010 #"
1$"
b000001010 &"
b000001010 '"
1("
b00001010 *"
b01100010 +"
1,"
0-"
b00001001 ."
b01101011 /"
10"
02"
b000001001 3"
14"
b000001001 6"
b000001001 7"
18"
0;"
b01101011 <"
0@"
b01100011 B"
1C"
1D"
1P"
#2225000000
0#
0+
1,
00
01
0=
0I
0W
0c
0j
0}
0$"
0("
0,"
00"
04"
08"
0D"
0P"
#2230000000
1#
b01101111 '
1+
0,
10
11
b01101111 6
1=
b01101111 B
1I
b01101111 M
b01110010 S
1W
b01101111 [
b01110010 ^
1c
b01110010 g
b000001011 i
1j
b000001011 p
b000001011 r
b000001011 t
b00100000 y
0z
b01101011 {
1|
1}
b000001011 #"
1$"
b000001011 &"
b000001011 '"
1("
b00001011 *"
b01110010 +"
1,"
b00100000 /"
10"
14"
18"
1D"
1P"
#2235000000
0#
0+
1,
00
01
0=
0I
0W
0c
0j
0}
0$"
0("
0,"
00"
04"
08"
0D"
0P"
#2240000000
1#
b01110111 '
1+
0,
10
11
b01110111 6
1=
b01110111 B
1I
b01110111 M
b01101111 S
1W
b01110111 [
b01101111 ^
1c
b01101111 g
b000001100 i
1j
b000001100 p
b000001100 r
b000001100 t
1}
b000001100 #"
1$"
b000001100 &"
b000001100 '"
1("
b00001100 *"
b01101111 +"
1,"
10"
14"
18"
1D"
1P"
#2245000000
0#
0+
1,
00
01
0=
0I
0W
0c
0j
0}
0$"
0("
0,"
00"
04"
08"
0D"
0P"
#2250000000
1#
b01101110 '
1+
0,
10
11
b01101110 6
1=
b01101110 B
1I
b01101110 M
b01110111 S
1W
b01101110 [
b01110111 ^
1c
b01110111 g
b000001101 i
1j
b000001101 p
b000001101 r
b000001101 t
1}
b000001101 #"
1$"
b000001101 &"
b000001101 '"
1("
b00001101 *"
b01110111 +"
1,"
10"
14"
18"
1D"
1P"
#2255000000
0#
0+
1,
00
01
0=
0I
0W
0c
0j
0}
0$"
0("
0,"
00"
04"
08"
0D"
0P"
#2260000000
1#
b00100000 '
1+
0,
10
11
b00100000 6
1=
b00100000 B
1I
b00100000 M
b01101110 S
1W
b00100000 [
b01101110 ^
1c
b01101110 g
b000001110 i
1j
b000001110 p
b000001110 r
b000001110 t
1}
b000001110 #"
1$"
b000001110 &"
b000001110 '"
1("
b00001110 *"
b01101110 +"
1,"
10"
14"
18"
1D"
1P"
#2265000000
0#
0+
1,
00
01
0=
0I
0W
0c
0j
0}
0$"
0("
0,"
00"
04"
08"
0D"
0P"
#2270000000
1#
b01100110 '
1+
0,
10
11
b01100110 6
1=
b01100110 B
1I
b01100110 M
b00100000 S
1W
b01100110 [
b00100000 ^
1c
b00100000 g
b000001111 i
1j
b000001111 p
b000001111 r
b000001111 t
1}
b000001111 #"
1$"
b000001111 &"
b000001111 '"
1("
b00001111 *"
b00100000 +"
1,"
10"
14"
18"
1D"
1P"
#2275000000
0#
0+
1,
00
01
0=
0I
0W
0c
0j
0}
0$"
0("
0,"
00"
04"
08"
0D"
0P"
#2280000000
1#
b01101111 '
1+
0,
10
11
b01101111 6
1=
b01101111 B
1I
b01101111 M
b01100110 S
1W
b01101111 [
b01100110 ^
1c
b01100110 g
b000010000 i
1j
b000010000 p
b000010000 r
b000010000 t
1}
b000010000 #"
1$"
b000010000 &"
b000010000 '"
1("
b00010000 *"
b01100110 +"
1,"
10"
14"
18"
1D"
1P"
#2285000000
0#
0+
1,
00
01
0=
0I
0W
0c
0j
0}
0$"
0("
0,"
00"
04"
08"
0D"
0P"
#2290000000
1#
b01111000 '
1+
0,
10
11
b01111000 6
1=
b01111000 B
1I
b01111000 M
b01101111 S
1W
b01111000 [
b01101111 ^
1c
b01101111 g
b000010001 i
1j
b000010001 p
b000010001 r
b000010001 t
1}
b000010001 #"
1$"
b000010001 &"
b000010001 '"
1("
b00010001 *"
b01101111 +"
1,"
10"
14"
18"
1D"
1P"
#2295000000
0#
0+
1,
00
01
0=
0I
0W
0c
0j
0}
0$"
0("
0,"
00"
04"
08"
0D"
0P"
#2300000000
1#
b00100000 '
1+
0,
10
11
b00100000 6
1=
b00100000 B
1I
b00100000 M
b01111000 S
1W
b00100000 [
b01111000 ^
1c
b01111000 g
b000010010 i
1j
b000010010 p
b000010010 r
b000010010 t
1}
b000010010 #"
1$"
b000010010 &"
b000010010 '"
1("
b00010010 *"
b01111000 +"
1,"
10"
14"
18"
1D"
1P"
#2305000000
0#
0+
1,
00
01
0=
0I
0W
0c
0j
0}
0$"
0("
0,"
00"
04"
08"
0D"
0P"
#2310000000
1#
b01101010 '
1)
1+
0,
10
11
b01101010 6
1=
b01101010 B
1I
b01101010 M
1O
b00100000 S
1W
b01101010 [
b00100000 ^
1c
b00100000 g
b000010011 i
1j
b000010011 p
b000010011 r
b000010011 t
1}
b000010011 #"
1$"
b000010011 &"
b000010011 '"
1("
b00010011 *"
b00100000 +"
1,"
10"
14"
18"
1>"
1D"
1G"
1P"
1S"
#2315000000
0#
0+
1,
00
01
0=
0I
0W
0c
0j
0}
0$"
0("
0,"
00"
04"
08"
0D"
0P"
#2320000000
1#
b01110101 '
b01100011 *
1+
0,
10
11
b01110101 6
1=
b01110101 B
1I
b01110101 M
b01100011 P
b01101010 S
1U
1W
b01110101 [
b01101010 ^
1c
b01101010 g
b000010100 i
1j
1m
b000010100 p
b000010100 r
b000010100 t
1x
1}
b000010100 #"
1$"
b000010100 &"
b000010100 '"
1("
b00010100 *"
b01101010 +"
1,"
1-"
10"
12"
14"
18"
1;"
b01100011 ?"
1@"
0C"
1D"
b01100011 I"
1P"
b01100011 U"
#2325000000
0#
0+
1,
00
01
0=
0I
0W
0c
0j
0}
0$"
0("
0,"
00"
04"
08"
0D"
0P"
#2330000000
1#
b01101101 '
b01101011 *
1+
0,
10
11
b01101101 6
1=
b01101101 B
1I
b01101101 M
b01101011 P
b01110101 S
b00100000 V
1W
b01101101 [
b01110101 ^
1c
b01110101 g
b000001010 h
b000010101 i
1j
b00100000 n
b000001010 o
b000010101 p
b000001010 q
b000010101 r
b000001010 s
b000010101 t
1z
0|
1}
b000010101 #"
1$"
b000010101 &"
b000010101 '"
1("
b00010101 *"
b01110101 +"
1,"
b00001010 ."
10"
b000001010 3"
14"
b000001010 6"
b000001010 7"
18"
b00100000 <"
b01101011 ?"
1D"
b01101011 I"
1P"
b01101011 U"
#2335000000
0#
0+
1,
00
01
0=
0I
0W
0c
0j
0}
0$"
0("
0,"
00"
04"
08"
0D"
0P"
#2340000000
1#
b01110000 '
b00100000 *
1+
0,
10
11
b01110000 6
1=
b01110000 B
1I
b01110000 M
b00100000 P
b01101101 S
b01100010 V
1W
b01110000 [
b01101101 ^
1c
b01101101 g
b000001011 h
b000010110 i
1j
b01100010 n
b000001011 o
b000010110 p
b000001011 q
b000010110 r
b000001011 s
b000010110 t
b01100010 y
b00100000 {
1}
b000010110 #"
1$"
b000010110 &"
b000010110 '"
1("
b00010110 *"
b01101101 +"
1,"
b00001011 ."
b01100010 /"
10"
b000001011 3"
14"
b000001011 6"
b000001011 7"
18"
b01100010 <"
b00100000 ?"
1D"
b00100000 I"
1P"
b00100000 U"
#2345000000
0#
0+
1,
00
01
0=
0I
0W
0c
0j
0}
0$"
0("
0,"
00"
04"
08"
0D"
0P"
#2350000000
1#
b01110011 '
b01100010 *
1+
0,
10
11
b01110011 6
1=
b01110011 B
1I
b01110011 M
b01100010 P
b01110000 S
b01110010 V
1W
b01110011 [
b01110000 ^
1c
b01110000 g
b000001100 h
b000010111 i
1j
b01110010 n
b000001100 o
b000010111 p
b000001100 q
b000010111 r
b000001100 s
b000010111 t
b01110010 y
b01100010 {
1}
b000010111 #"
1$"
b000010111 &"
b000010111 '"
1("
b00010111 *"
b01110000 +"
1,"
b00001100 ."
b01110010 /"
10"
b000001100 3"
14"
b000001100 6"
b000001100 7"
18"
b01110010 <"
b01100010 ?"
1D"
b01100010 I"
1P"
b01100010 U"
#2355000000
0#
0+
1,
00
01
0=
0I
0W
0c
0j
0}
0$"
0("
0,"
00"
04"
08"
0D"
0P"
#2360000000
1#
b00100000 '
b01110010 *
1+
0,
10
11
b00100000 6
1=
b00100000 B
1I
b00100000 M
b01110010 P
b01110011 S
b01101111 V
1W
b00100000 [
b01110011 ^
1c
b01110011 g
b000001101 h
b000011000 i
1j
b01101111 n
b000001101 o
b000011000 p
b000001101 q
b000011000 r
b000001101 s
b000011000 t
b01101111 y
b01110010 {
1}
b000011000 #"
1$"
b000011000 &"
b000011000 '"
1("
b00011000 *"
b01110011 +"
1,"
b00001101 ."
b01101111 /"
10"
b000001101 3"
14"
b000001101 6"
b000001101 7"
18"
b01101111 <"
b01110010 ?"
1D"
b01110010 I"
1P"
b01110010 U"
#2365000000
0#
0+
1,
00
01
0=
0I
0W
0c
0j
0}
0$"
0("
0,"
00"
04"
08"
0D"
0P"
#2370000000
1#
b01101111 '
b01101111 *
1+
0,
10
11
b01101111 6
1=
b01101111 B
1I
b01101111 M
b01101111 P
b00100000 S
b01110111 V
1W
b01101111 [
b00100000 ^
1c
b00100000 g
b000001110 h
b000011001 i
1j
b01110111 n
b000001110 o
b000011001 p
b000001110 q
b000011001 r
b000001110 s
b000011001 t
b01110111 y
b01101111 {
1}
b000011001 #"
1$"
b000011001 &"
b000011001 '"
1("
b00011001 *"
b00100000 +"
1,"
b00001110 ."
b01110111 /"
10"
b000001110 3"
14"
b000001110 6"
b000001110 7"
18"
b01110111 <"
b01101111 ?"
1D"
b01101111 I"
1P"
b01101111 U"
