tests/complex/vhlib/wave/work.streampipelinebarrel_tc.vcd
$date
  Wed Jun 19 10:58:20 2019
$end
$version
  GHDL v0
$end
$timescale
  1 fs
$end
$scope module standard $end
$upscope $end
$scope module textio $end
$upscope $end
$scope module std_logic_1164 $end
$upscope $end
$scope module numeric_std $end
$upscope $end
$scope module math_real $end
$upscope $end
$scope module testcase_pkg $end
$var reg 1 ! test $end
$var reg 1 " tc_model_init $end
$upscope $end
$scope module simdatacomms_pkg $end
$upscope $end
$scope module streammonitor_pkg $end
$upscope $end
$scope module streamsource_pkg $end
$upscope $end
$scope module streamsink_pkg $end
$upscope $end
$scope module std_logic_misc $end
$upscope $end
$scope module stream_pkg $end
$upscope $end
$scope module clockgen_pkg $end
$upscope $end
$scope module utilint_pkg $end
$upscope $end
$scope module utilmisc_pkg $end
$upscope $end
$scope module utilram_pkg $end
$upscope $end
$scope module streampipelinebarrel_tc $end
$scope module uut $end
$var reg 1 # clk $end
$var reg 1 $ reset $end
$var reg 1 % a_valid $end
$var reg 1 & a_ready $end
$var reg 12 ' a_data[11:0] $end
$var reg 1 ( b_valid $end
$var reg 1 ) b_ready $end
$var reg 64 * b_data[63:0] $end
$var reg 12 + pipe_input[11:0] $end
$var reg 64 , pipe_output[63:0] $end
$scope module clkgen $end
$var reg 1 - clk $end
$var reg 1 . clk_n $end
$var reg 1 / reset $end
$var reg 1 0 reset_n $end
$var reg 1 1 sync $end
$var reg 1 2 clk_i $end
$upscope $end
$scope module a_source $end
$var reg 1 3 clk $end
$var reg 1 4 reset $end
$var reg 1 5 valid $end
$var reg 1 6 ready $end
$var reg 1 7 dvalid $end
$var reg 12 8 data[11:0] $end
$var reg 1 9 count[0:0] $end
$var reg 1 : last $end
$var reg 1 ; ctrl[0:0] $end
$var reg 1 < x[0:0] $end
$var reg 1 = y[0:0] $end
$var reg 1 > z[0:0] $end
$scope module monitor $end
$var reg 1 ? clk $end
$var reg 1 @ reset $end
$var reg 1 A valid $end
$var reg 1 B ready $end
$var reg 1 C dvalid $end
$var reg 12 D data[11:0] $end
$var reg 1 E count[0:0] $end
$var reg 1 F last $end
$var reg 1 G ctrl[0:0] $end
$var reg 1 H x[0:0] $end
$var reg 1 I y[0:0] $end
$var reg 1 J z[0:0] $end
$upscope $end
$upscope $end
$scope module ctrl $end
$var reg 1 K clk $end
$var reg 1 L reset $end
$var reg 1 M in_valid $end
$var reg 1 N in_ready $end
$var reg 12 O in_data[11:0] $end
$var reg 1 P out_valid $end
$var reg 1 Q out_ready $end
$var reg 64 R out_data[63:0] $end
$var reg 1 S pipe_stall $end
$var reg 1 T pipe_insert $end
$var reg 1 U pipe_delete $end
$var reg 4 V pipe_valid[0:3] $end
$var reg 12 W pipe_input[11:0] $end
$var reg 64 X pipe_output[63:0] $end
$var reg 1 Y ins_valid $end
$var reg 1 Z ins_ready $end
$var reg 12 [ ins_data[11:0] $end
$var reg 4 \ pipe_valid_s[0:3] $end
$var reg 1 ] rate_limiter $end
$var reg 4 ^ fifo_reserved[3:0] $end
$var reg 1 _ fifo_push $end
$var reg 1 ` out_valid_s $end
$scope module no_input_slice_gen $end
$upscope $end
$scope module output_buffer_inst $end
$var reg 1 a clk $end
$var reg 1 b reset $end
$var reg 1 c in_valid $end
$var reg 1 d in_ready $end
$var reg 64 e in_data[63:0] $end
$var reg 1 f out_valid $end
$var reg 1 g out_ready $end
$var reg 64 h out_data[63:0] $end
$var reg 1 i ins_valid $end
$var reg 1 j ins_ready $end
$var reg 64 k ins_data[63:0] $end
$var reg 1 l outs_valid $end
$var reg 1 m outs_ready $end
$var reg 64 n outs_data[63:0] $end
$scope module input_slice_gen $end
$scope module slice_inst $end
$var reg 1 o clk $end
$var reg 1 p reset $end
$var reg 1 q in_valid $end
$var reg 1 r in_ready $end
$var reg 64 s in_data[63:0] $end
$var reg 1 t out_valid $end
$var reg 1 u out_ready $end
$var reg 64 v out_data[63:0] $end
$var reg 1 w in_ready_s $end
$var reg 1 x out_valid_s $end
$var reg 64 y saved_data[63:0] $end
$var reg 1 z saved_valid $end
$upscope $end
$upscope $end
$scope module fifo_gen $end
$scope module slice_inst $end
$var reg 1 { in_clk $end
$var reg 1 | in_reset $end
$var reg 1 } in_valid $end
$var reg 1 !" in_ready $end
$var reg 64 "" in_data[63:0] $end
$var reg 3 #" in_rptr[2:0] $end
$var reg 3 $" in_wptr[2:0] $end
$var reg 1 %" out_clk $end
$var reg 1 &" out_reset $end
$var reg 1 '" out_valid $end
$var reg 1 (" out_ready $end
$var reg 64 )" out_data[63:0] $end
$var reg 3 *" out_rptr[2:0] $end
$var reg 3 +" out_wptr[2:0] $end
$var reg 3 ," in_rptr_s[2:0] $end
$var reg 3 -" in_wptr_s[2:0] $end
$var reg 3 ." out_rptr_s[2:0] $end
$var reg 3 /" out_wptr_s[2:0] $end
$var reg 1 0" in_full $end
$var reg 1 1" in_next $end
$var reg 1 2" out_nonempty $end
$var reg 1 3" out_next $end
$var reg 64 4" out_readdata[63:0] $end
$var reg 1 5" out_readvalid $end
$var reg 64 6" out_bufdata[63:0] $end
$var reg 1 7" out_bufvalid $end
$scope module wptr_inst $end
$var reg 1 8" a_clk $end
$var reg 1 9" a_reset $end
$var reg 1 :" a_increment $end
$var reg 3 ;" a_counter[2:0] $end
$var reg 1 <" b_clk $end
$var reg 1 =" b_reset $end
$var reg 3 >" b_counter[2:0] $end
$var reg 3 ?" a_counter_s[2:0] $end
$scope module no_xclk $end
$upscope $end
$upscope $end
$scope module ram_inst $end
$var reg 1 @" w_clk $end
$var reg 1 A" w_ena $end
$var reg 2 B" w_addr[1:0] $end
$var reg 64 C" w_data[63:0] $end
$var reg 1 D" r_clk $end
$var reg 1 E" r_ena $end
$var reg 2 F" r_addr[1:0] $end
$var reg 64 G" r_data[63:0] $end
$comment mem is not handled $end
$upscope $end
$scope module rptr_inst $end
$var reg 1 H" a_clk $end
$var reg 1 I" a_reset $end
$var reg 1 J" a_increment $end
$var reg 3 K" a_counter[2:0] $end
$var reg 1 L" b_clk $end
$var reg 1 M" b_reset $end
$var reg 3 N" b_counter[2:0] $end
$var reg 3 O" a_counter_s[2:0] $end
$scope module no_xclk $end
$upscope $end
$upscope $end
$upscope $end
$upscope $end
$scope module output_slice_gen $end
$scope module slice_inst $end
$var reg 1 P" clk $end
$var reg 1 Q" reset $end
$var reg 1 R" in_valid $end
$var reg 1 S" in_ready $end
$var reg 64 T" in_data[63:0] $end
$var reg 1 U" out_valid $end
$var reg 1 V" out_ready $end
$var reg 64 W" out_data[63:0] $end
$var reg 1 X" in_ready_s $end
$var reg 1 Y" out_valid_s $end
$var reg 64 Z" saved_data[63:0] $end
$var reg 1 [" saved_valid $end
$upscope $end
$upscope $end
$upscope $end
$upscope $end
$scope module uut_rotate_left $end
$var reg 1 \" clk $end
$var reg 1 ]" reset $end
$var reg 8 ^" in_data[7:0] $end
$var reg 1 _" in_ctrl[0:0] $end
$var reg 4 `" in_amount[3:0] $end
$var reg 8 a" out_data[7:0] $end
$var reg 1 b" out_ctrl[0:0] $end
$comment stage_r is not handled $end
$upscope $end
$scope module uut_shift_left $end
$var reg 1 c" clk $end
$var reg 1 d" reset $end
$var reg 8 e" in_data[7:0] $end
$var reg 1 f" in_ctrl[0:0] $end
$var reg 4 g" in_amount[3:0] $end
$var reg 8 h" out_data[7:0] $end
$var reg 1 i" out_ctrl[0:0] $end
$comment stage_r is not handled $end
$upscope $end
$scope module uut_arithmetic_left $end
$var reg 1 j" clk $end
$var reg 1 k" reset $end
$var reg 8 l" in_data[7:0] $end
$var reg 1 m" in_ctrl[0:0] $end
$var reg 4 n" in_amount[3:0] $end
$var reg 8 o" out_data[7:0] $end
$var reg 1 p" out_ctrl[0:0] $end
$comment stage_r is not handled $end
$upscope $end
$scope module uut_arithmetic_left_multi $end
$var reg 1 q" clk $end
$var reg 1 r" reset $end
$var reg 8 s" in_data[7:0] $end
$var reg 1 t" in_ctrl[0:0] $end
$var reg 4 u" in_amount[3:0] $end
$var reg 8 v" out_data[7:0] $end
$var reg 1 w" out_ctrl[0:0] $end
$comment stage_r is not handled $end
$upscope $end
$scope module uut_rotate_right $end
$var reg 1 x" clk $end
$var reg 1 y" reset $end
$var reg 8 z" in_data[7:0] $end
$var reg 1 {" in_ctrl[0:0] $end
$var reg 4 |" in_amount[3:0] $end
$var reg 8 }" out_data[7:0] $end
$var reg 1 !# out_ctrl[0:0] $end
$comment stage_r is not handled $end
$upscope $end
$scope module uut_shift_right $end
$var reg 1 "# clk $end
$var reg 1 ## reset $end
$var reg 8 $# in_data[7:0] $end
$var reg 1 %# in_ctrl[0:0] $end
$var reg 4 &# in_amount[3:0] $end
$var reg 8 '# out_data[7:0] $end
$var reg 1 (# out_ctrl[0:0] $end
$comment stage_r is not handled $end
$upscope $end
$scope module uut_arithmetic_right $end
$var reg 1 )# clk $end
$var reg 1 *# reset $end
$var reg 8 +# in_data[7:0] $end
$var reg 1 ,# in_ctrl[0:0] $end
$var reg 4 -# in_amount[3:0] $end
$var reg 8 .# out_data[7:0] $end
$var reg 1 /# out_ctrl[0:0] $end
$comment stage_r is not handled $end
$upscope $end
$scope module uut_arithmetic_right_multi $end
$var reg 1 0# clk $end
$var reg 1 1# reset $end
$var reg 8 2# in_data[7:0] $end
$var reg 1 3# in_ctrl[0:0] $end
$var reg 4 4# in_amount[3:0] $end
$var reg 8 5# out_data[7:0] $end
$var reg 1 6# out_ctrl[0:0] $end
$comment stage_r is not handled $end
$upscope $end
$scope module b_sink $end
$var reg 1 7# clk $end
$var reg 1 8# reset $end
$var reg 1 9# valid $end
$var reg 1 :# ready $end
$var reg 1 ;# dvalid $end
$var reg 64 <# data[63:0] $end
$var reg 1 =# count[0:0] $end
$var reg 1 ># last $end
$var reg 1 ?# ctrl[0:0] $end
$var reg 1 @# x[0:0] $end
$var reg 1 A# y[0:0] $end
$var reg 1 B# z[0:0] $end
$scope module monitor $end
$var reg 1 C# clk $end
$var reg 1 D# reset $end
$var reg 1 E# valid $end
$var reg 1 F# ready $end
$var reg 1 G# dvalid $end
$var reg 64 H# data[63:0] $end
$var reg 1 I# count[0:0] $end
$var reg 1 J# last $end
$var reg 1 K# ctrl[0:0] $end
$var reg 1 L# x[0:0] $end
$var reg 1 M# y[0:0] $end
$var reg 1 N# z[0:0] $end
$upscope $end
$upscope $end
$upscope $end
$upscope $end
$enddefinitions $end
#0
1!
1"
0#
1$
U%
U&
bUUUUUUUUUUUU '
U(
U)
bUUUUUUUUUUUUUUUUUUUUUUUUUUUUUUUUUUUUUUUUUUUUUUUUUUUUUUUUUUUUUUUU *
bUUUUUUUUUUUU +
bUUUUUUUUUUUUUUUUUUUUUUUUUUUUUUUUUUUUUUUUUUUUUUUUUUUUUUUUUUUUUUUU ,
0-
1.
1/
00
01
02
03
14
U5
U6
U7
bUUUUUUUUUUUU 8
bU 9
U:
bU ;
bU <
bU =
bU >
0?
1@
UA
UB
UC
bUUUUUUUUUUUU D
bU E
UF
bU G
bU H
bU I
bU J
0K
1L
UM
UN
bUUUUUUUUUUUU O
UP
UQ
bUUUUUUUUUUUUUUUUUUUUUUUUUUUUUUUUUUUUUUUUUUUUUUUUUUUUUUUUUUUUUUUU R
0S
0T
0U
bUUUU V
bUUUUUUUUUUUU W
bUUUUUUUUUUUUUUUUUUUUUUUUUUUUUUUUUUUUUUUUUUUUUUUUUUUUUUUUUUUUUUUU X
UY
UZ
bUUUUUUUUUUUU [
bUUUU \
0]
bUUUU ^
U_
U`
0a
1b
Uc
Ud
bUUUUUUUUUUUUUUUUUUUUUUUUUUUUUUUUUUUUUUUUUUUUUUUUUUUUUUUUUUUUUUUU e
Uf
Ug
bUUUUUUUUUUUUUUUUUUUUUUUUUUUUUUUUUUUUUUUUUUUUUUUUUUUUUUUUUUUUUUUU h
Ui
Uj
bUUUUUUUUUUUUUUUUUUUUUUUUUUUUUUUUUUUUUUUUUUUUUUUUUUUUUUUUUUUUUUUU k
Ul
Um
bUUUUUUUUUUUUUUUUUUUUUUUUUUUUUUUUUUUUUUUUUUUUUUUUUUUUUUUUUUUUUUUU n
0o
1p
Uq
Ur
bUUUUUUUUUUUUUUUUUUUUUUUUUUUUUUUUUUUUUUUUUUUUUUUUUUUUUUUUUUUUUUUU s
Ut
Uu
bUUUUUUUUUUUUUUUUUUUUUUUUUUUUUUUUUUUUUUUUUUUUUUUUUUUUUUUUUUUUUUUU v
Uw
Ux
bUUUUUUUUUUUUUUUUUUUUUUUUUUUUUUUUUUUUUUUUUUUUUUUUUUUUUUUUUUUUUUUU y
Uz
0{
1|
U}
U!"
bUUUUUUUUUUUUUUUUUUUUUUUUUUUUUUUUUUUUUUUUUUUUUUUUUUUUUUUUUUUUUUUU ""
bUUU #"
bUUU $"
0%"
1&"
U'"
U("
bUUUUUUUUUUUUUUUUUUUUUUUUUUUUUUUUUUUUUUUUUUUUUUUUUUUUUUUUUUUUUUUU )"
bUUU *"
bUUU +"
bUUU ,"
bUUU -"
bUUU ."
bUUU /"
00"
U1"
02"
03"
bUUUUUUUUUUUUUUUUUUUUUUUUUUUUUUUUUUUUUUUUUUUUUUUUUUUUUUUUUUUUUUUU 4"
U5"
bUUUUUUUUUUUUUUUUUUUUUUUUUUUUUUUUUUUUUUUUUUUUUUUUUUUUUUUUUUUUUUUU 6"
U7"
08"
19"
U:"
bUUU ;"
0<"
1="
bUUU >"
bUUU ?"
0@"
UA"
bUU B"
bUUUUUUUUUUUUUUUUUUUUUUUUUUUUUUUUUUUUUUUUUUUUUUUUUUUUUUUUUUUUUUUU C"
0D"
0E"
bUU F"
bUUUUUUUUUUUUUUUUUUUUUUUUUUUUUUUUUUUUUUUUUUUUUUUUUUUUUUUUUUUUUUUU G"
0H"
1I"
0J"
bUUU K"
0L"
1M"
bUUU N"
bUUU O"
0P"
1Q"
UR"
US"
bUUUUUUUUUUUUUUUUUUUUUUUUUUUUUUUUUUUUUUUUUUUUUUUUUUUUUUUUUUUUUUUU T"
UU"
UV"
bUUUUUUUUUUUUUUUUUUUUUUUUUUUUUUUUUUUUUUUUUUUUUUUUUUUUUUUUUUUUUUUU W"
UX"
UY"
bUUUUUUUUUUUUUUUUUUUUUUUUUUUUUUUUUUUUUUUUUUUUUUUUUUUUUUUUUUUUUUUU Z"
U["
0\"
1]"
bUUUUUUUU ^"
b0 _"
bUUUU `"
bUUUUUUUU a"
bU b"
0c"
1d"
bUUUUUUUU e"
b0 f"
bUUUU g"
bUUUUUUUU h"
bU i"
0j"
1k"
bUUUUUUUU l"
b0 m"
bUUUU n"
bUUUUUUUU o"
bU p"
0q"
1r"
bUUUUUUUU s"
b0 t"
bUUUU u"
bUUUUUUUU v"
bU w"
0x"
1y"
bUUUUUUUU z"
b0 {"
bUUUU |"
bUUUUUUUU }"
bU !#
0"#
1##
bUUUUUUUU $#
b0 %#
bUUUU &#
bUUUUUUUU '#
bU (#
0)#
1*#
bUUUUUUUU +#
b0 ,#
bUUUU -#
bUUUUUUUU .#
bU /#
00#
11#
bUUUUUUUU 2#
b0 3#
bUUUU 4#
bUUUUUUUU 5#
bU 6#
07#
18#
U9#
U:#
1;#
bUUUUUUUUUUUUUUUUUUUUUUUUUUUUUUUUUUUUUUUUUUUUUUUUUUUUUUUUUUUUUUUU <#
b1 =#
1>#
b0 ?#
b0 @#
b0 A#
b0 B#
0C#
1D#
UE#
UF#
1G#
bUUUUUUUUUUUUUUUUUUUUUUUUUUUUUUUUUUUUUUUUUUUUUUUUUUUUUUUUUUUUUUUU H#
b1 I#
1J#
b0 K#
b0 L#
b0 M#
b0 N#
#500000000
#600000000
#1000000000
11
#2000000000
1#
0%
0&
0(
0)
1-
0.
01
12
13
05
06
U7
bUUUUUUUUUUUU 8
bU 9
U:
bU ;
bU <
bU =
bU >
1?
0A
0B
1K
0M
0N
0P
0Q
b0000 V
0Y
0Z
b0000 \
b0000 ^
0_
0`
1a
0c
0d
0f
0g
0i
0j
0l
0m
1o
0q
0r
0t
0u
0w
0x
0z
1{
0}
0!"
b000 #"
b000 $"
1%"
0'"
0("
b000 *"
b000 +"
b000 ,"
b000 -"
b000 ."
b000 /"
01"
05"
07"
18"
0:"
b000 ;"
1<"
b000 >"
b000 ?"
1@"
0A"
b00 B"
1D"
b00 F"
1H"
b000 K"
1L"
b000 N"
b000 O"
1P"
0R"
0S"
0U"
0V"
0X"
0Y"
0["
1\"
1c"
1j"
1q"
1x"
1"#
1)#
10#
17#
09#
0:#
1C#
0E#
0F#
#2005000000
0#
0-
1.
02
03
0?
0K
0a
0o
0{
0%"
08"
0<"
0@"
0D"
0H"
0L"
0P"
0\"
0c"
0j"
0q"
0x"
0"#
0)#
00#
07#
0C#
#2010000000
1#
1-
0.
12
13
1?
1K
1a
1o
1{
1%"
18"
1<"
1@"
1D"
1H"
1L"
1P"
1\"
1c"
1j"
1q"
1x"
1"#
1)#
10#
17#
1C#
#2015000000
0#
0-
1.
02
03
0?
0K
0a
0o
0{
0%"
08"
0<"
0@"
0D"
0H"
0L"
0P"
0\"
0c"
0j"
0q"
0x"
0"#
0)#
00#
07#
0C#
#2020000000
1#
1-
0.
12
13
1?
1K
1a
1o
1{
1%"
18"
1<"
1@"
1D"
1H"
1L"
1P"
1\"
b0 b"
1c"
b0 i"
1j"
b0 p"
1q"
b0 w"
1x"
b0 !#
1"#
b0 (#
1)#
b0 /#
10#
b0 6#
17#
1C#
#2025000000
0#
0-
1.
02
03
0?
0K
0a
0o
0{
0%"
08"
0<"
0@"
0D"
0H"
0L"
0P"
0\"
0c"
0j"
0q"
0x"
0"#
0)#
00#
07#
0C#
#2030000000
1#
1-
0.
12
13
1?
1K
1a
1o
1{
1%"
18"
1<"
1@"
1D"
1H"
1L"
1P"
1\"
1c"
1j"
1q"
1x"
1"#
1)#
10#
17#
1C#
#2035000000
0#
0-
1.
02
03
0?
0K
0a
0o
0{
0%"
08"
0<"
0@"
0D"
0H"
0L"
0P"
0\"
0c"
0j"
0q"
0x"
0"#
0)#
00#
07#
0C#
#2040000000
1#
1-
0.
12
13
1?
1K
1a
1o
1{
1%"
18"
1<"
1@"
1D"
1H"
1L"
1P"
1\"
1c"
1j"
1q"
1x"
1"#
1)#
10#
17#
1C#
#2045000000
0#
0-
1.
02
03
0?
0K
0a
0o
0{
0%"
08"
0<"
0@"
0D"
0H"
0L"
0P"
0\"
0c"
0j"
0q"
0x"
0"#
0)#
00#
07#
0C#
#2050000000
1#
1-
0.
12
13
1?
1K
1a
1o
1{
1%"
18"
1<"
1@"
1D"
1H"
1L"
1P"
1\"
1c"
1j"
1q"
1x"
1"#
1)#
10#
17#
1C#
#2055000000
0#
0-
1.
02
03
0?
0K
0a
0o
0{
0%"
08"
0<"
0@"
0D"
0H"
0L"
0P"
0\"
0c"
0j"
0q"
0x"
0"#
0)#
00#
07#
0C#
#2060000000
1#
1-
0.
12
13
1?
1K
1a
1o
1{
1%"
18"
1<"
1@"
1D"
1H"
1L"
1P"
1\"
1c"
1j"
1q"
1x"
1"#
1)#
10#
17#
1C#
#2065000000
0#
0-
1.
02
03
0?
0K
0a
0o
0{
0%"
08"
0<"
0@"
0D"
0H"
0L"
0P"
0\"
0c"
0j"
0q"
0x"
0"#
0)#
00#
07#
0C#
#2070000000
1#
1-
0.
12
13
1?
1K
1a
1o
1{
1%"
18"
1<"
1@"
1D"
1H"
1L"
1P"
1\"
1c"
1j"
1q"
1x"
1"#
1)#
10#
17#
1C#
#2075000000
0#
0-
1.
02
03
0?
0K
0a
0o
0{
0%"
08"
0<"
0@"
0D"
0H"
0L"
0P"
0\"
0c"
0j"
0q"
0x"
0"#
0)#
00#
07#
0C#
#2080000000
1#
1-
0.
12
13
1?
1K
1a
1o
1{
1%"
18"
1<"
1@"
1D"
1H"
1L"
1P"
1\"
1c"
1j"
1q"
1x"
1"#
1)#
10#
17#
1C#
#2085000000
0#
0-
1.
02
03
0?
0K
0a
0o
0{
0%"
08"
0<"
0@"
0D"
0H"
0L"
0P"
0\"
0c"
0j"
0q"
0x"
0"#
0)#
00#
07#
0C#
#2090000000
1#
1-
0.
12
13
1?
1K
1a
1o
1{
1%"
18"
1<"
1@"
1D"
1H"
1L"
1P"
1\"
1c"
1j"
1q"
1x"
1"#
1)#
10#
17#
1C#
#2095000000
0#
0-
1.
02
03
0?
0K
0a
0o
0{
0%"
08"
0<"
0@"
0D"
0H"
0L"
0P"
0\"
0c"
0j"
0q"
0x"
0"#
0)#
00#
07#
0C#
#2100000000
1#
0$
1-
0.
0/
10
12
13
04
1?
0@
1K
0L
1a
0b
1o
0p
1{
0|
1%"
0&"
18"
09"
1<"
0="
1@"
1D"
1H"
0I"
1L"
0M"
1P"
0Q"
1\"
0]"
1c"
0d"
1j"
0k"
1q"
0r"
1x"
0y"
1"#
0##
1)#
0*#
10#
01#
17#
08#
1C#
0D#
#2105000000
Z"
0#
0-
1.
02
03
0?
0K
0a
0o
0{
0%"
08"
0<"
0@"
0D"
0H"
0L"
0P"
0\"
0c"
0j"
0q"
0x"
0"#
0)#
00#
07#
0C#
#2110000000
1#
1%
1&
b000001010011 '
1)
b000001010011 +
1-
0.
12
13
15
16
17
b000001010011 8
b1 9
0:
1?
1A
1B
1C
b000001010011 D
b1 E
0F
1K
1M
1N
b000001010011 O
1Q
b1000 V
b000001010011 W
1Y
1Z
b000001010011 [
b1000 \
1a
1d
1g
1m
1o
1r
1w
1{
1%"
1("
18"
1<"
1@"
1D"
1H"
1L"
1P"
1S"
1V"
1X"
1\"
b01010011 ^"
b0000 `"
1c"
b01010011 e"
b0000 g"
1j"
b01010011 l"
b0000 n"
1q"
b01010011 s"
b0000 u"
1x"
b01010011 z"
b0000 |"
1"#
b01010011 $#
b0000 &#
1)#
b01010011 +#
b0000 -#
10#
b01010011 2#
b0000 4#
17#
1:#
1C#
1F#
#2115000000
0#
0-
1.
02
03
0?
0K
0a
0o
0{
0%"
08"
0<"
0@"
0D"
0H"
0L"
0P"
0\"
0c"
0j"
0q"
0x"
0"#
0)#
00#
07#
0C#
#2120000000
1#
b000101010011 '
b000101010011 +
1-
0.
12
13
b000101010011 8
1?
b000101010011 D
1K
b000101010011 O
b1100 V
b000101010011 W
b000101010011 [
b1100 \
b0001 ^
1a
1o
1{
1%"
18"
1<"
1@"
1D"
1H"
1L"
1P"
1\"
b0001 `"
1c"
b0001 g"
1j"
b0001 n"
1q"
b0001 u"
1x"
b0001 |"
1"#
b0001 &#
1)#
b0001 -#
10#
b0001 4#
17#
1C#
#2125000000
0#
0-
1.
02
03
0?
0K
0a
0o
0{
0%"
08"
0<"
0@"
0D"
0H"
0L"
0P"
0\"
0c"
0j"
0q"
0x"
0"#
0)#
00#
07#
0C#
#2130000000
1#
b001001010011 '
b001001010011 +
1-
0.
12
13
b001001010011 8
1?
b001001010011 D
1K
b001001010011 O
b1110 V
b001001010011 W
b001001010011 [
b1110 \
b0010 ^
1a
1o
1{
1%"
18"
1<"
1@"
1D"
1H"
1L"
1P"
1\"
b0010 `"
1c"
b0010 g"
1j"
b0010 n"
1q"
b0010 u"
1x"
b0010 |"
1"#
b0010 &#
1)#
b0010 -#
10#
b0010 4#
17#
1C#
#2135000000
0#
0-
1.
02
03
0?
0K
0a
0o
0{
0%"
08"
0<"
0@"
0D"
0H"
0L"
0P"
0\"
0c"
0j"
0q"
0x"
0"#
0)#
00#
07#
0C#
#2140000000
1#
b001101010011 '
b001101010011 +
b0X0X00XX0X0X00XX0X0X00XX0X0X00XX0X0X00XX0X0X00XX0X0X00XX0X0X00XX ,
1-
0.
12
13
b001101010011 8
1?
b001101010011 D
1K
b001101010011 O
b1111 V
b001101010011 W
b0X0X00XX0X0X00XX0X0X00XX0X0X00XX0X0X00XX0X0X00XX0X0X00XX0X0X00XX X
b001101010011 [
b1111 \
b0011 ^
1_
1a
1c
b0X0X00XX0X0X00XX0X0X00XX0X0X00XX0X0X00XX0X0X00XX0X0X00XX0X0X00XX e
1o
1q
b0X0X00XX0X0X00XX0X0X00XX0X0X00XX0X0X00XX0X0X00XX0X0X00XX0X0X00XX s
1{
1%"
18"
1<"
1@"
1D"
1H"
1L"
1P"
1\"
b0011 `"
b0X0X00XX a"
1c"
b0011 g"
b0X0X00XX h"
1j"
b0011 n"
b0X0X00XX o"
1q"
b0011 u"
b0X0X00XX v"
1x"
b0011 |"
b0X0X00XX }"
1"#
b0011 &#
b0X0X00XX '#
1)#
b0011 -#
b0X0X00XX .#
10#
b0011 4#
b0X0X00XX 5#
17#
1C#
#2145000000
0#
0-
1.
02
03
0?
0K
0a
0o
0{
0%"
08"
0<"
0@"
0D"
0H"
0L"
0P"
0\"
0c"
0j"
0q"
0x"
0"#
0)#
00#
07#
0C#
#2150000000
1#
b010001010011 '
b010001010011 +
b000X0X0000X0X00X00X0X00XX0X0X00X0X00XX00X0X00XX0X0X00XX0X0X00XX0 ,
1-
0.
12
13
b010001010011 8
1?
b010001010011 D
1K
b010001010011 O
b010001010011 W
b000X0X0000X0X00X00X0X00XX0X0X00X0X00XX00X0X00XX0X0X00XX0X0X00XX0 X
b010001010011 [
b0100 ^
1a
b000X0X0000X0X00X00X0X00XX0X0X00X0X00XX00X0X00XX0X0X00XX0X0X00XX0 e
1i
1j
b0X0X00XX0X0X00XX0X0X00XX0X0X00XX0X0X00XX0X0X00XX0X0X00XX0X0X00XX k
1o
b000X0X0000X0X00X00X0X00XX0X0X00X0X00XX00X0X00XX0X0X00XX0X0X00XX0 s
1t
1u
b0X0X00XX0X0X00XX0X0X00XX0X0X00XX0X0X00XX0X0X00XX0X0X00XX0X0X00XX v
1x
1{
1}
1!"
b0X0X00XX0X0X00XX0X0X00XX0X0X00XX0X0X00XX0X0X00XX0X0X00XX0X0X00XX ""
1%"
11"
18"
1:"
1<"
1@"
1A"
b0X0X00XX0X0X00XX0X0X00XX0X0X00XX0X0X00XX0X0X00XX0X0X00XX0X0X00XX C"
1D"
1H"
1L"
1P"
1\"
b0100 `"
bX0X00XX0 a"
1c"
b0100 g"
bX0X00XX0 h"
1j"
b0100 n"
bX0X00XX0 o"
1q"
b0100 u"
b0X00XX00 v"
1x"
b0100 |"
bX0X0X00X }"
1"#
b0100 &#
b00X0X00X '#
1)#
b0100 -#
b00X0X00X .#
10#
b0100 4#
b000X0X00 5#
17#
1C#
#2155000000
0#
0-
1.
02
03
0?
0K
0a
0o
0{
0%"
08"
0<"
0@"
0D"
0H"
0L"
0P"
0\"
0c"
0j"
0q"
0x"
0"#
0)#
00#
07#
0C#
#2160000000
1#
b011001010011 '
b011001010011 +
b00000X0X000X0X00000X0X00XX0X0X0000XX00000X00XX000X00XX000X00XX0X ,
1-
0.
12
13
b011001010011 8
1?
b011001010011 D
1K
b011001010011 O
b011001010011 W
b00000X0X000X0X00000X0X00XX0X0X0000XX00000X00XX000X00XX000X00XX0X X
b011001010011 [
b0101 ^
1a
b00000X0X000X0X00000X0X00XX0X0X0000XX00000X00XX000X00XX000X00XX0X e
b000X0X0000X0X00X00X0X00XX0X0X00X0X00XX00X0X00XX0X0X00XX0X0X00XX0 k
1o
b00000X0X000X0X00000X0X00XX0X0X0000XX00000X00XX000X00XX000X00XX0X s
b000X0X0000X0X00X00X0X00XX0X0X00X0X00XX00X0X00XX0X0X00XX0X0X00XX0 v
1{
b000X0X0000X0X00X00X0X00XX0X0X00X0X00XX00X0X00XX0X0X00XX0X0X00XX0 ""
b001 $"
1%"
b001 +"
b001 -"
b001 /"
12"
13"
18"
b001 ;"
1<"
b001 >"
b001 ?"
1@"
b01 B"
b000X0X0000X0X00X00X0X00XX0X0X00X0X00XX00X0X00XX0X0X00XX0X0X00XX0 C"
1D"
1E"
1H"
1J"
1L"
1P"
1\"
b0110 `"
b0X00XX0X a"
1c"
b0110 g"
b0X00XX00 h"
1j"
b0110 n"
b0X00XX00 o"
1q"
b0110 u"
b00XX0000 v"
1x"
b0110 |"
bXX0X0X00 }"
1"#
b0110 &#
b000X0X00 '#
1)#
b0110 -#
b000X0X00 .#
10#
b0110 4#
b00000X0X 5#
17#
1C#
#2165000000
0#
0-
1.
02
03
0?
0K
0a
0o
0{
0%"
08"
0<"
0@"
0D"
0H"
0L"
0P"
0\"
0c"
0j"
0q"
0x"
0"#
0)#
00#
07#
0C#
