tests/complex/vhlib/wave/work.streamfifo_increase_tc.vcd
$date
  Wed Jun 19 10:58:20 2019
$end
$version
  GHDL v0
$end
$timescale
  1 fs
$end
$scope module standard $end
$upscope $end
$scope module textio $end
$upscope $end
$scope module std_logic_1164 $end
$upscope $end
$scope module numeric_std $end
$upscope $end
$scope module math_real $end
$upscope $end
$scope module testcase_pkg $end
$var reg 1 ! test $end
$var reg 1 " tc_model_init $end
$upscope $end
$scope module simdatacomms_pkg $end
$upscope $end
$scope module streammonitor_pkg $end
$upscope $end
$scope module streamsource_pkg $end
$upscope $end
$scope module streamsink_pkg $end
$upscope $end
$scope module std_logic_misc $end
$upscope $end
$scope module stream_pkg $end
$upscope $end
$scope module clockgen_pkg $end
$upscope $end
$scope module utilint_pkg $end
$upscope $end
$scope module utilram_pkg $end
$upscope $end
$scope module streamfifo_increase_tc $end
$scope module tv $end
$upscope $end
$scope module tb $end
$var reg 1 # in_clk $end
$var reg 1 $ in_reset $end
$var reg 1 % out_clk $end
$var reg 1 & out_reset $end
$var reg 1 ' a_valid $end
$var reg 1 ( a_ready $end
$var reg 8 ) a_data[7:0] $end
$var reg 1 * b_valid $end
$var reg 1 + b_ready $end
$var reg 8 , b_data[7:0] $end
$scope module clkgen_in $end
$var reg 1 - clk $end
$var reg 1 . clk_n $end
$var reg 1 / reset $end
$var reg 1 0 reset_n $end
$var reg 1 1 sync $end
$var reg 1 2 clk_i $end
$upscope $end
$scope module clkgen_out $end
$var reg 1 3 clk $end
$var reg 1 4 clk_n $end
$var reg 1 5 reset $end
$var reg 1 6 reset_n $end
$var reg 1 7 sync $end
$var reg 1 8 clk_i $end
$upscope $end
$scope module a_source $end
$var reg 1 9 clk $end
$var reg 1 : reset $end
$var reg 1 ; valid $end
$var reg 1 < ready $end
$var reg 1 = dvalid $end
$var reg 8 > data[7:0] $end
$var reg 1 ? count[0:0] $end
$var reg 1 @ last $end
$var reg 1 A ctrl[0:0] $end
$var reg 1 B x[0:0] $end
$var reg 1 C y[0:0] $end
$var reg 1 D z[0:0] $end
$scope module monitor $end
$var reg 1 E clk $end
$var reg 1 F reset $end
$var reg 1 G valid $end
$var reg 1 H ready $end
$var reg 1 I dvalid $end
$var reg 8 J data[7:0] $end
$var reg 1 K count[0:0] $end
$var reg 1 L last $end
$var reg 1 M ctrl[0:0] $end
$var reg 1 N x[0:0] $end
$var reg 1 O y[0:0] $end
$var reg 1 P z[0:0] $end
$upscope $end
$upscope $end
$scope module uut $end
$var reg 1 Q in_clk $end
$var reg 1 R in_reset $end
$var reg 1 S in_valid $end
$var reg 1 T in_ready $end
$var reg 8 U in_data[7:0] $end
$var reg 6 V in_rptr[5:0] $end
$var reg 6 W in_wptr[5:0] $end
$var reg 1 X out_clk $end
$var reg 1 Y out_reset $end
$var reg 1 Z out_valid $end
$var reg 1 [ out_ready $end
$var reg 8 \ out_data[7:0] $end
$var reg 6 ] out_rptr[5:0] $end
$var reg 6 ^ out_wptr[5:0] $end
$var reg 6 _ in_rptr_s[5:0] $end
$var reg 6 ` in_wptr_s[5:0] $end
$var reg 6 a out_rptr_s[5:0] $end
$var reg 6 b out_wptr_s[5:0] $end
$var reg 1 c in_full $end
$var reg 1 d in_next $end
$var reg 1 e out_nonempty $end
$var reg 1 f out_next $end
$var reg 8 g out_readdata[7:0] $end
$var reg 1 h out_readvalid $end
$var reg 8 i out_bufdata[7:0] $end
$var reg 1 j out_bufvalid $end
$scope module wptr_inst $end
$var reg 1 k a_clk $end
$var reg 1 l a_reset $end
$var reg 1 m a_increment $end
$var reg 6 n a_counter[5:0] $end
$var reg 1 o b_clk $end
$var reg 1 p b_reset $end
$var reg 6 q b_counter[5:0] $end
$var reg 6 r a_counter_s[5:0] $end
$scope module with_xclk $end
$var reg 6 s a_gray[5:0] $end
$comment b_gray is not handled $end
$upscope $end
$upscope $end
$scope module ram_inst $end
$var reg 1 t w_clk $end
$var reg 1 u w_ena $end
$var reg 5 v w_addr[4:0] $end
$var reg 8 w w_data[7:0] $end
$var reg 1 x r_clk $end
$var reg 1 y r_ena $end
$var reg 5 z r_addr[4:0] $end
$var reg 8 { r_data[7:0] $end
$comment mem is not handled $end
$upscope $end
$scope module rptr_inst $end
$var reg 1 | a_clk $end
$var reg 1 } a_reset $end
$var reg 1 !" a_increment $end
$var reg 6 "" a_counter[5:0] $end
$var reg 1 #" b_clk $end
$var reg 1 $" b_reset $end
$var reg 6 %" b_counter[5:0] $end
$var reg 6 &" a_counter_s[5:0] $end
$scope module with_xclk $end
$var reg 6 '" a_gray[5:0] $end
$comment b_gray is not handled $end
$upscope $end
$upscope $end
$upscope $end
$scope module b_sink $end
$var reg 1 (" clk $end
$var reg 1 )" reset $end
$var reg 1 *" valid $end
$var reg 1 +" ready $end
$var reg 1 ," dvalid $end
$var reg 8 -" data[7:0] $end
$var reg 1 ." count[0:0] $end
$var reg 1 /" last $end
$var reg 1 0" ctrl[0:0] $end
$var reg 1 1" x[0:0] $end
$var reg 1 2" y[0:0] $end
$var reg 1 3" z[0:0] $end
$scope module monitor $end
$var reg 1 4" clk $end
$var reg 1 5" reset $end
$var reg 1 6" valid $end
$var reg 1 7" ready $end
$var reg 1 8" dvalid $end
$var reg 8 9" data[7:0] $end
$var reg 1 :" count[0:0] $end
$var reg 1 ;" last $end
$var reg 1 <" ctrl[0:0] $end
$var reg 1 =" x[0:0] $end
$var reg 1 >" y[0:0] $end
$var reg 1 ?" z[0:0] $end
$upscope $end
$upscope $end
$upscope $end
$upscope $end
$enddefinitions $end
#0
1!
1"
0#
1$
0%
1&
U'
U(
bUUUUUUUU )
U*
U+
bUUUUUUUU ,
0-
1.
1/
00
01
02
03
14
15
06
07
08
09
1:
U;
U<
U=
bUUUUUUUU >
bU ?
U@
bU A
bU B
bU C
bU D
0E
1F
UG
UH
UI
bUUUUUUUU J
bU K
UL
bU M
bU N
bU O
bU P
0Q
1R
US
UT
bUUUUUUUU U
bUUUUUU V
bUUUUUU W
0X
1Y
UZ
U[
bUUUUUUUU \
bUUUUUU ]
bUUUUUU ^
bUUUUUU _
bUUUUUU `
bUUUUUU a
bUUUUUU b
0c
Ud
0e
0f
bUUUUUUUU g
Uh
bUUUUUUUU i
Uj
0k
1l
Um
bUUUUUU n
0o
1p
bUUUUUU q
bUUUUUU r
bUUUUUU s
0t
Uu
bUUUUU v
bUUUUUUUU w
0x
0y
bUUUUU z
bUUUUUUUU {
0|
1}
0!"
bUUUUUU ""
0#"
1$"
bUUUUUU %"
bUUUUUU &"
bUUUUUU '"
0("
1)"
U*"
U+"
1,"
bUUUUUUUU -"
b1 ."
1/"
b0 0"
b0 1"
b0 2"
b0 3"
04"
15"
U6"
U7"
18"
bUUUUUUUU 9"
b1 :"
1;"
b0 <"
b0 ="
b0 >"
b0 ?"
#500000000
#600000000
#1000000000
11
17
#2000000000
1#
1%
0'
0(
0*
0+
1-
0.
01
12
13
04
07
18
19
0;
0<
U=
bUUUUUUUU >
bU ?
U@
bU A
bU B
bU C
bU D
1E
0G
0H
1Q
0S
0T
b000000 V
b000000 W
1X
0Z
0[
b000000 ]
b000000 ^
b000000 _
b000000 `
b000000 a
b000000 b
0d
0h
0j
1k
0m
b000000 n
1o
b000000 q
b000000 r
b000000 s
1t
0u
b00000 v
1x
b00000 z
1|
b000000 ""
1#"
b000000 %"
b000000 &"
b000000 '"
1("
0*"
0+"
14"
06"
07"
#2001100000
0%
03
14
08
0X
0o
0x
0|
0("
04"
#2002200000
1%
13
04
18
1X
1o
1x
1|
1("
14"
#2003300000
0%
03
14
08
0X
0o
0x
0|
0("
04"
#2004400000
1%
13
04
18
1X
1o
1x
1|
1("
14"
#2005000000
0#
0-
1.
02
09
0E
0Q
0k
0t
0#"
#2005500000
0%
03
14
08
0X
0o
0x
0|
0("
04"
#2006600000
1%
13
04
18
1X
1o
1x
1|
1("
14"
#2007700000
0%
03
14
08
0X
0o
0x
0|
0("
04"
#2008800000
1%
13
04
18
1X
1o
1x
1|
1("
14"
#2009900000
0%
03
14
08
0X
0o
0x
0|
0("
04"
#2010000000
1#
1-
0.
12
19
1E
1Q
1k
1t
1#"
#2011000000
1%
13
04
18
1X
1o
1x
1|
1("
14"
#2012100000
0%
03
14
08
0X
0o
0x
0|
0("
04"
#2013200000
1%
13
04
18
1X
1o
1x
1|
1("
14"
#2014300000
0%
03
14
08
0X
0o
0x
0|
0("
04"
#2015000000
0#
0-
1.
02
09
0E
0Q
0k
0t
0#"
#2015400000
1%
13
04
18
1X
1o
1x
1|
1("
14"
#2016500000
0%
03
14
08
0X
0o
0x
0|
0("
04"
#2017600000
1%
13
04
18
1X
1o
1x
1|
1("
14"
#2018700000
0%
03
14
08
0X
0o
0x
0|
0("
04"
#2019800000
1%
13
04
18
1X
1o
1x
1|
1("
14"
#2020000000
1#
1-
0.
12
19
1E
1Q
1k
1t
1#"
#2020900000
0%
03
14
08
0X
0o
0x
0|
0("
04"
#2022000000
1%
0&
13
04
05
16
18
1X
0Y
1o
0p
1x
1|
0}
1("
0)"
14"
05"
#2023100000
0%
03
14
08
0X
0o
0x
0|
0("
04"
#2024200000
1%
13
04
18
1X
1o
1x
1|
1("
14"
#2025000000
0#
0-
1.
02
09
0E
0Q
0k
0t
0#"
#2025300000
0%
03
14
08
0X
0o
0x
0|
0("
04"
#2026400000
1%
13
04
18
1X
1o
1x
1|
1("
14"
#2027500000
0%
03
14
08
0X
0o
0x
0|
0("
04"
#2028600000
1%
13
04
18
1X
1o
1x
1|
1("
14"
#2029700000
0%
03
14
08
0X
0o
0x
0|
0("
04"
#2030000000
1#
1-
0.
12
19
1E
1Q
1k
1t
1#"
#2030800000
1%
13
04
18
1X
1o
1x
1|
1("
14"
#2031900000
0%
03
14
08
0X
0o
0x
0|
0("
04"
#2033000000
1%
13
04
18
1X
1o
1x
1|
1("
14"
#2034100000
0%
03
14
08
0X
0o
0x
0|
0("
04"
#2035000000
0#
0-
1.
02
09
0E
0Q
0k
0t
0#"
#2035200000
1%
13
04
18
1X
1o
1x
1|
1("
14"
#2036300000
0%
03
14
08
0X
0o
0x
0|
0("
04"
#2037400000
1%
13
04
18
1X
1o
1x
1|
1("
14"
#2038500000
0%
03
14
08
0X
0o
0x
0|
0("
04"
#2039600000
1%
13
04
18
1X
1o
1x
1|
1("
14"
#2040000000
1#
1-
0.
12
19
1E
1Q
1k
1t
1#"
#2040700000
0%
03
14
08
0X
0o
0x
0|
0("
04"
#2041800000
1%
13
04
18
1X
1o
1x
1|
1("
14"
#2042900000
0%
03
14
08
0X
0o
0x
0|
0("
04"
#2044000000
1%
13
04
18
1X
1o
1x
1|
1("
14"
#2045000000
0#
0-
1.
02
09
0E
0Q
0k
0t
0#"
#2045100000
0%
03
14
08
0X
0o
0x
0|
0("
04"
#2046200000
1%
13
04
18
1X
1o
1x
1|
1("
14"
#2047300000
0%
03
14
08
0X
0o
0x
0|
0("
04"
#2048400000
1%
13
04
18
1X
1o
1x
1|
1("
14"
#2049500000
0%
03
14
08
0X
0o
0x
0|
0("
04"
#2050000000
1#
1-
0.
12
19
1E
1Q
1k
1t
1#"
#2050600000
1%
13
04
18
1X
1o
1x
1|
1("
14"
#2051700000
0%
03
14
08
0X
0o
0x
0|
0("
04"
#2052800000
1%
13
04
18
1X
1o
1x
1|
1("
14"
#2053900000
0%
03
14
08
0X
0o
0x
0|
0("
04"
#2055000000
0#
1%
0-
1.
02
13
04
18
09
0E
0Q
1X
0k
1o
0t
1x
1|
0#"
1("
14"
#2056100000
0%
03
14
08
0X
0o
0x
0|
0("
04"
#2057200000
1%
13
04
18
1X
1o
1x
1|
1("
14"
#2058300000
0%
03
14
08
0X
0o
0x
0|
0("
04"
#2059400000
1%
13
04
18
1X
1o
1x
1|
1("
14"
#2060000000
1#
1-
0.
12
19
1E
1Q
1k
1t
1#"
#2060500000
0%
03
14
08
0X
0o
0x
0|
0("
04"
#2061600000
1%
13
04
18
1X
1o
1x
1|
1("
14"
#2062700000
0%
03
14
08
0X
0o
0x
0|
0("
04"
#2063800000
1%
13
04
18
1X
1o
1x
1|
1("
14"
#2064900000
0%
03
14
08
0X
0o
0x
0|
0("
04"
#2065000000
0#
0-
1.
02
09
0E
0Q
0k
0t
0#"
#2066000000
1%
13
04
18
1X
1o
1x
1|
1("
14"
#2067100000
0%
03
14
08
0X
0o
0x
0|
0("
04"
#2068200000
1%
13
04
18
1X
1o
1x
1|
1("
14"
#2069300000
0%
03
14
08
0X
0o
0x
0|
0("
04"
#2070000000
1#
1-
0.
12
19
1E
1Q
1k
1t
1#"
#2070400000
1%
13
04
18
1X
1o
1x
1|
1("
14"
#2071500000
0%
03
14
08
0X
0o
0x
0|
0("
04"
#2072600000
1%
13
04
18
1X
1o
1x
1|
1("
14"
#2073700000
0%
03
14
08
0X
0o
0x
0|
0("
04"
#2074800000
1%
13
04
18
1X
1o
1x
1|
1("
14"
#2075000000
0#
0-
1.
02
09
0E
0Q
0k
0t
0#"
#2075900000
0%
03
14
08
0X
0o
0x
0|
0("
04"
#2077000000
1%
13
04
18
1X
1o
1x
1|
1("
14"
#2078100000
0%
03
14
08
0X
0o
0x
0|
0("
04"
#2079200000
1%
13
04
18
1X
1o
1x
1|
1("
14"
#2080000000
1#
1-
0.
12
19
1E
1Q
1k
1t
1#"
#2080300000
0%
03
14
08
0X
0o
0x
0|
0("
04"
#2081400000
1%
13
04
18
1X
1o
1x
1|
1("
14"
#2082500000
0%
03
14
08
0X
0o
0x
0|
0("
04"
#2083600000
1%
13
04
18
1X
1o
1x
1|
1("
14"
#2084700000
0%
03
14
08
0X
0o
0x
0|
0("
04"
#2085000000
0#
0-
1.
02
09
0E
0Q
0k
0t
0#"
#2085800000
1%
13
04
18
1X
1o
1x
1|
1("
14"
#2086900000
0%
03
14
08
0X
0o
0x
0|
0("
04"
#2088000000
1%
13
04
18
1X
1o
1x
1|
1("
14"
#2089100000
0%
03
14
08
0X
0o
0x
0|
0("
04"
#2090000000
1#
1-
0.
12
19
1E
1Q
1k
1t
1#"
#2090200000
1%
13
04
18
1X
1o
1x
1|
1("
14"
#2091300000
0%
03
14
08
0X
0o
0x
0|
0("
04"
#2092400000
1%
13
04
18
1X
1o
1x
1|
1("
14"
#2093500000
0%
03
14
08
0X
0o
0x
0|
0("
04"
#2094600000
1%
13
04
18
1X
1o
1x
1|
1("
14"
#2095000000
0#
0-
1.
02
09
0E
0Q
0k
0t
0#"
#2095700000
0%
03
14
08
0X
0o
0x
0|
0("
04"
#2096800000
1%
13
04
18
1X
1o
1x
1|
1("
14"
#2097900000
0%
03
14
08
0X
0o
0x
0|
0("
04"
#2099000000
1%
13
04
18
1X
1o
1x
1|
1("
14"
#2100000000
1#
0$
1-
0.
0/
10
12
19
0:
1E
0F
1Q
0R
1k
0l
1t
1#"
0$"
#2100100000
0%
03
14
08
0X
0o
0x
0|
0("
04"
#2101200000
1%
13
04
18
1X
1o
1x
1|
1("
14"
#2102300000
0%
03
14
08
0X
0o
0x
0|
0("
04"
#2103400000
1%
13
04
18
1X
1o
1x
1|
1("
14"
#2104500000
0%
03
14
08
0X
0o
0x
0|
0("
04"
#2105000000
Z"
0#
0-
1.
02
09
0E
0Q
0k
0t
0#"
#2105600000
1%
1+
13
04
18
1X
1[
1o
1x
1|
1("
1+"
14"
17"
#2106700000
0%
03
14
08
0X
0o
0x
0|
0("
04"
#2107800000
1%
13
04
18
1X
1o
1x
1|
1("
14"
#2108900000
0%
03
14
08
0X
0o
0x
0|
0("
04"
#2110000000
1#
1%
1'
1(
b01010100 )
1-
0.
12
13
04
18
19
1;
1<
1=
b01010100 >
b1 ?
0@
1E
1G
1H
1I
b01010100 J
b1 K
0L
1Q
1S
1T
b01010100 U
1X
1d
1k
1m
1o
1t
1u
b01010100 w
1x
1|
1#"
1("
14"
#2111100000
0%
03
14
08
0X
0o
0x
0|
0("
04"
#2112200000
1%
13
04
18
1X
1o
1x
1|
1("
14"
#2113300000
0%
03
14
08
0X
0o
0x
0|
0("
04"
#2114400000
1%
13
04
18
1X
1o
1x
1|
1("
14"
#2115000000
0#
0-
1.
02
09
0E
0Q
0k
0t
0#"
#2115500000
0%
03
14
08
0X
0o
0x
0|
0("
04"
#2116600000
1%
13
04
18
1X
1o
1x
1|
1("
14"
#2117700000
0%
03
14
08
0X
0o
0x
0|
0("
04"
#2118800000
1%
13
04
18
1X
1o
1x
1|
1("
14"
#2119900000
0%
03
14
08
0X
0o
0x
0|
0("
04"
#2120000000
1#
b01101000 )
1-
0.
12
19
b01101000 >
1E
b01101000 J
1Q
b01101000 U
b000001 W
b000001 `
1k
b000001 n
b000001 r
1t
b00001 v
b01101000 w
1#"
#2121000000
1%
b01010100 ,
13
04
18
1X
b01010100 \
b01010100 g
1o
1x
b01010100 {
1|
1("
b01010100 -"
14"
b01010100 9"
#2122100000
0%
03
14
08
0X
0o
0x
0|
0("
04"
#2123200000
1%
13
04
18
1X
1o
1x
1|
1("
14"
#2124300000
0%
03
14
08
0X
0o
0x
0|
0("
04"
#2125000000
0#
0-
1.
02
09
0E
0Q
0k
0t
0#"
#2125400000
1%
13
04
18
1X
1o
1x
1|
1("
14"
#2126500000
0%
03
14
08
0X
0o
0x
0|
0("
04"
#2127600000
1%
13
04
18
1X
1o
1x
1|
1("
14"
#2128700000
0%
03
14
08
0X
0o
0x
0|
0("
04"
#2129800000
1%
13
04
18
1X
1o
1x
1|
1("
14"
#2130000000
1#
b01100101 )
1-
0.
12
19
b01100101 >
1E
b01100101 J
1Q
b01100101 U
b000010 W
b000010 `
1k
b000010 n
b000010 r
b000001 s
1t
b00010 v
b01100101 w
1#"
#2130900000
0%
03
14
08
0X
0o
0x
0|
0("
04"
#2132000000
1%
13
04
18
1X
1o
1x
1|
1("
14"
#2133100000
0%
03
14
08
0X
0o
0x
0|
0("
04"
#2134200000
1%
13
04
18
1X
b000001 ^
b000001 b
1e
1f
1o
b000001 q
1x
1y
1|
1!"
1("
14"
#2135000000
0#
0-
1.
02
09
0E
0Q
0k
0t
0#"
#2135300000
0%
03
14
08
0X
0o
0x
0|
0("
04"
#2136400000
1%
1*
13
04
18
1X
1Z
b000001 ]
b000001 a
0e
0f
1h
1o
1x
0y
b00001 z
1|
0!"
b000001 ""
b000001 &"
1("
1*"
14"
16"
#2137500000
0%
03
14
08
0X
0o
0x
0|
0("
04"
#2138600000
1%
0*
b01101000 ,
13
04
18
1X
0Z
b01101000 \
b01101000 g
0h
b01010100 i
1o
1x
b01101000 {
1|
b000001 '"
1("
0*"
b01101000 -"
14"
06"
b01101000 9"
#2139700000
0%
03
14
08
0X
0o
0x
0|
0("
04"
#2140000000
1#
b00100000 )
1-
0.
12
19
b00100000 >
1E
b00100000 J
1Q
b00100000 U
b000011 W
b000011 `
1k
b000011 n
b000011 r
b000011 s
1t
b00011 v
b00100000 w
1#"
#2140800000
1%
13
04
18
1X
1o
1x
1|
1("
14"
#2141900000
0%
03
14
08
0X
0o
0x
0|
0("
04"
#2143000000
1%
13
04
18
1X
b000010 ^
b000010 b
1e
1f
1o
b000010 q
1x
1y
1|
1!"
1("
14"
#2144100000
0%
03
14
08
0X
0o
0x
0|
0("
04"
#2145000000
0#
0-
1.
02
09
0E
0Q
0k
0t
0#"
#2145200000
1%
1*
13
04
18
1X
1Z
b000010 ]
b000010 a
0e
0f
1h
1o
1x
0y
b00010 z
1|
0!"
b000010 ""
b000010 &"
1("
1*"
14"
16"
#2146300000
0%
03
14
08
0X
0o
0x
0|
0("
04"
#2147400000
1%
0*
b01100101 ,
13
04
18
1X
0Z
b01100101 \
b01100101 g
0h
b01101000 i
1o
1x
b01100101 {
1|
b000011 '"
1("
0*"
b01100101 -"
14"
06"
b01100101 9"
#2148500000
0%
03
14
08
0X
0o
0x
0|
0("
04"
#2149600000
1%
13
04
18
1X
1o
1x
1|
1("
14"
#2150000000
1#
b01110001 )
1-
0.
12
19
b01110001 >
1E
b01110001 J
1Q
b01110001 U
b000001 V
b000100 W
b000001 _
b000100 `
1k
b000100 n
b000100 r
b000010 s
1t
b00100 v
b01110001 w
1#"
b000001 %"
#2150700000
0%
03
14
08
0X
0o
0x
0|
0("
04"
#2151800000
1%
13
04
18
1X
1o
1x
1|
1("
14"
#2152900000
0%
03
14
08
0X
0o
0x
0|
0("
04"
#2154000000
1%
13
04
18
1X
b000011 ^
b000011 b
1e
1f
1o
b000011 q
1x
1y
1|
1!"
1("
14"
#2155000000
0#
0-
1.
02
09
0E
0Q
0k
0t
0#"
#2155100000
0%
03
14
08
0X
0o
0x
0|
0("
04"
#2156200000
1%
1*
13
04
18
1X
1Z
b000011 ]
b000011 a
0e
0f
1h
1o
1x
0y
b00011 z
1|
0!"
b000011 ""
b000011 &"
1("
1*"
14"
16"
#2157300000
0%
03
14
08
0X
0o
0x
0|
0("
04"
#2158400000
1%
0*
b00100000 ,
13
04
18
1X
0Z
b00100000 \
b00100000 g
0h
b01100101 i
1o
1x
b00100000 {
1|
b000010 '"
1("
0*"
b00100000 -"
14"
06"
b00100000 9"
#2159500000
0%
03
14
08
0X
0o
0x
0|
0("
04"
#2160000000
1#
b01110101 )
1-
0.
12
19
b01110101 >
1E
b01110101 J
1Q
b01110101 U
b000010 V
b000101 W
b000010 _
b000101 `
1k
b000101 n
b000101 r
b000110 s
1t
b00101 v
b01110101 w
1#"
b000010 %"
#2160600000
1%
13
04
18
1X
1o
1x
1|
1("
14"
#2161700000
0%
03
14
08
0X
0o
0x
0|
0("
04"
#2162800000
1%
13
04
18
1X
b000100 ^
b000100 b
1e
1f
1o
b000100 q
1x
1y
1|
1!"
1("
14"
#2163900000
0%
03
14
08
0X
0o
0x
0|
0("
04"
#2165000000
0#
1%
1*
0-
1.
02
13
04
18
09
0E
0Q
1X
1Z
b000100 ]
b000100 a
0e
0f
1h
0k
1o
0t
1x
0y
b00100 z
1|
0!"
b000100 ""
0#"
b000100 &"
1("
1*"
14"
16"
#2166100000
0%
03
14
08
0X
0o
0x
0|
0("
04"
#2167200000
1%
0*
b01110001 ,
13
04
18
1X
0Z
b01110001 \
b01110001 g
0h
b00100000 i
1o
1x
b01110001 {
1|
b000110 '"
1("
0*"
b01110001 -"
14"
06"
b01110001 9"
#2168300000
0%
03
14
08
0X
0o
0x
0|
0("
04"
#2169400000
1%
13
04
18
1X
1o
1x
1|
1("
14"
#2170000000
1#
b01101001 )
1-
0.
12
19
b01101001 >
1E
b01101001 J
1Q
b01101001 U
b000011 V
b000110 W
b000011 _
b000110 `
1k
b000110 n
b000110 r
b000111 s
1t
b00110 v
b01101001 w
1#"
b000011 %"
#2170500000
0%
03
14
08
0X
0o
0x
0|
0("
04"
#2171600000
1%
13
04
18
1X
1o
1x
1|
1("
14"
#2172700000
0%
03
14
08
0X
0o
0x
0|
0("
04"
#2173800000
1%
13
04
18
1X
b000101 ^
b000101 b
1e
1f
1o
b000101 q
1x
1y
1|
1!"
1("
14"
#2174900000
0%
03
14
08
0X
0o
0x
0|
0("
04"
#2175000000
0#
0-
1.
02
09
0E
0Q
0k
0t
0#"
#2176000000
1%
1*
13
04
18
1X
1Z
b000101 ]
b000101 a
0e
0f
1h
1o
1x
0y
b00101 z
1|
0!"
b000101 ""
b000101 &"
1("
1*"
14"
16"
#2177100000
0%
03
14
08
0X
0o
0x
0|
0("
04"
#2178200000
1%
0*
b01110101 ,
13
04
18
1X
0Z
b01110101 \
b01110101 g
0h
b01110001 i
1o
1x
b01110101 {
1|
b000111 '"
1("
0*"
b01110101 -"
14"
06"
b01110101 9"
#2179300000
0%
03
14
08
0X
0o
0x
0|
0("
04"
#2180000000
1#
b01100011 )
1-
0.
12
19
b01100011 >
1E
b01100011 J
1Q
b01100011 U
b000100 V
b000111 W
b000100 _
b000111 `
1k
b000111 n
b000111 r
b000101 s
1t
b00111 v
b01100011 w
1#"
b000100 %"
#2180400000
1%
13
04
18
1X
1o
1x
1|
1("
14"
#2181500000
0%
03
14
08
0X
0o
0x
0|
0("
04"
#2182600000
1%
13
04
18
1X
b000110 ^
b000110 b
1e
1f
1o
b000110 q
1x
1y
1|
1!"
1("
14"
#2183700000
0%
03
14
08
0X
0o
0x
0|
0("
04"
#2184800000
1%
1*
13
04
18
1X
1Z
b000110 ]
b000110 a
0e
0f
1h
1o
1x
0y
b00110 z
1|
0!"
b000110 ""
b000110 &"
1("
1*"
14"
16"
#2185000000
0#
0-
1.
02
09
0E
0Q
0k
0t
0#"
#2185900000
0%
03
14
08
0X
0o
0x
0|
0("
04"
#2187000000
1%
0*
b01101001 ,
13
04
18
1X
0Z
b01101001 \
b01101001 g
0h
b01110101 i
1o
1x
b01101001 {
1|
b000101 '"
1("
0*"
b01101001 -"
14"
06"
b01101001 9"
#2188100000
0%
03
14
08
0X
0o
0x
0|
0("
04"
#2189200000
1%
13
04
18
1X
1o
1x
1|
1("
14"
#2190000000
1#
b01101011 )
1-
0.
12
19
b01101011 >
1E
b01101011 J
1Q
b01101011 U
b000101 V
b001000 W
b000101 _
b001000 `
1k
b001000 n
b001000 r
b000100 s
1t
b01000 v
b01101011 w
1#"
b000101 %"
#2190300000
0%
03
14
08
0X
0o
0x
0|
0("
04"
#2191400000
1%
13
04
18
1X
1o
1x
1|
1("
14"
#2192500000
0%
03
14
08
0X
0o
0x
0|
0("
04"
#2193600000
1%
13
04
18
1X
b000111 ^
b000111 b
1e
1f
1o
b000111 q
1x
1y
1|
1!"
1("
14"
#2194700000
0%
03
14
08
0X
0o
0x
0|
0("
04"
#2195000000
0#
0-
1.
02
09
0E
0Q
0k
0t
0#"
#2195800000
1%
1*
13
04
18
1X
1Z
b000111 ]
b000111 a
0e
0f
1h
1o
1x
0y
b00111 z
1|
0!"
b000111 ""
b000111 &"
1("
1*"
14"
16"
#2196900000
0%
03
14
08
0X
0o
0x
0|
0("
04"
#2198000000
1%
0*
b01100011 ,
13
04
18
1X
0Z
b01100011 \
b01100011 g
0h
b01101001 i
1o
1x
b01100011 {
1|
b000100 '"
1("
0*"
b01100011 -"
14"
06"
b01100011 9"
#2199100000
0%
03
14
08
0X
0o
0x
0|
0("
04"
#2200000000
1#
b00100000 )
1-
0.
12
19
b00100000 >
1E
b00100000 J
1Q
b00100000 U
b000110 V
b001001 W
b000110 _
b001001 `
1k
b001001 n
b001001 r
b001100 s
1t
b01001 v
b00100000 w
1#"
b000110 %"
#2200200000
1%
13
04
18
1X
1o
1x
1|
1("
14"
#2201300000
0%
03
14
08
0X
0o
0x
0|
0("
04"
#2202400000
1%
13
04
18
1X
b001000 ^
b001000 b
1e
1f
1o
b001000 q
1x
1y
1|
1!"
1("
14"
#2203500000
0%
03
14
08
0X
0o
0x
0|
0("
04"
#2204600000
1%
1*
13
04
18
1X
1Z
b001000 ]
b001000 a
0e
0f
1h
1o
1x
0y
b01000 z
1|
0!"
b001000 ""
b001000 &"
1("
1*"
14"
16"
#2205000000
0#
0-
1.
02
09
0E
0Q
0k
0t
0#"
#2205700000
0%
03
14
08
0X
0o
0x
0|
0("
04"
#2206800000
1%
0*
0+
b01101011 ,
13
04
18
1X
0Z
0[
b01101011 \
b01101011 g
0h
b01100011 i
1o
1x
b01101011 {
1|
b001100 '"
1("
0*"
0+"
b01101011 -"
14"
06"
07"
b01101011 9"
#2207900000
0%
03
14
08
0X
0o
0x
0|
0("
04"
#2209000000
1%
13
04
18
1X
1o
1x
1|
1("
14"
#2210000000
1#
b01100010 )
1-
0.
12
19
b01100010 >
1E
b01100010 J
1Q
b01100010 U
b000111 V
b001010 W
b000111 _
b001010 `
1k
b001010 n
b001010 r
b001101 s
1t
b01010 v
b01100010 w
1#"
b000111 %"
#2210100000
0%
03
14
08
0X
0o
0x
0|
0("
04"
#2211200000
1%
13
04
18
1X
1o
1x
1|
1("
14"
#2212300000
0%
03
14
08
0X
0o
0x
0|
0("
04"
#2213400000
1%
13
04
18
1X
b001001 ^
b001001 b
1e
1f
1o
b001001 q
1x
1y
1|
1!"
1("
14"
#2214500000
0%
03
14
08
0X
0o
0x
0|
0("
04"
#2215000000
0#
0-
1.
02
09
0E
0Q
0k
0t
0#"
#2215600000
1%
1*
13
04
18
1X
1Z
b001001 ]
b001001 a
0e
0f
1h
1o
1x
0y
b01001 z
1|
0!"
b001001 ""
b001001 &"
1("
1*"
14"
16"
#2216700000
0%
03
14
08
0X
0o
0x
0|
0("
04"
#2217800000
1%
13
04
18
1X
b00100000 g
0h
b01101011 i
1j
1o
1x
b00100000 {
1|
b001101 '"
1("
14"
#2218900000
0%
03
14
08
0X
0o
0x
0|
0("
04"
#2220000000
1#
1%
b01110010 )
1-
0.
12
13
04
18
19
b01110010 >
1E
b01110010 J
1Q
b01110010 U
b001000 V
b001011 W
1X
b001000 _
b001011 `
1k
b001011 n
1o
b001011 r
b001111 s
1t
b01011 v
b01110010 w
1x
1|
1#"
b001000 %"
1("
14"
#2221100000
0%
03
14
08
0X
0o
0x
0|
0("
04"
#2222200000
1%
13
04
18
1X
1o
1x
1|
1("
14"
#2223300000
0%
03
14
08
0X
0o
0x
0|
0("
04"
#2224400000
1%
13
04
18
1X
b001010 ^
b001010 b
1e
1o
b001010 q
1x
1|
1("
14"
#2225000000
0#
0-
1.
02
09
0E
0Q
0k
0t
0#"
#2225500000
0%
03
14
08
0X
0o
0x
0|
0("
04"
#2226600000
1%
13
04
18
1X
1o
1x
1|
1("
14"
#2227700000
0%
03
14
08
0X
0o
0x
0|
0("
04"
#2228800000
1%
13
04
18
1X
1o
1x
1|
1("
14"
#2229900000
0%
03
14
08
0X
0o
0x
0|
0("
04"
