tests/complex/vhlib/wave/work.streamnormalizer_tc.vcd
$date
  Wed Jun 19 10:58:20 2019
$end
$version
  GHDL v0
$end
$timescale
  1 fs
$end
$scope module standard $end
$upscope $end
$scope module textio $end
$upscope $end
$scope module std_logic_1164 $end
$upscope $end
$scope module numeric_std $end
$upscope $end
$scope module math_real $end
$upscope $end
$scope module testcase_pkg $end
$var reg 1 ! test $end
$var reg 1 " tc_model_init $end
$upscope $end
$scope module simdatacomms_pkg $end
$upscope $end
$scope module streammonitor_pkg $end
$upscope $end
$scope module streamsource_pkg $end
$upscope $end
$scope module streamsink_pkg $end
$upscope $end
$scope module std_logic_misc $end
$upscope $end
$scope module utilint_pkg $end
$upscope $end
$scope module stream_pkg $end
$upscope $end
$scope module clockgen_pkg $end
$upscope $end
$scope module streamnormalizer_tc $end
$scope module tb $end
$var reg 1 # clk $end
$var reg 1 $ reset $end
$var reg 1 % a_valid $end
$var reg 1 & a_ready $end
$var reg 1 ' a_dvalid $end
$var reg 32 ( a_data[31:0] $end
$var reg 3 ) a_count[2:0] $end
$var reg 1 * a_last $end
$var reg 1 + b_valid $end
$var reg 1 , b_ready $end
$var reg 1 - o_valid $end
$var reg 1 . o_ready $end
$var reg 1 / r_valid $end
$var reg 1 0 r_ready $end
$var reg 1 1 bor_dvalid $end
$var reg 32 2 bor_data[31:0] $end
$var reg 3 3 bor_req_count[2:0] $end
$var reg 3 4 bor_count[2:0] $end
$var reg 1 5 bor_last $end
$scope module clkgen $end
$var reg 1 6 clk $end
$var reg 1 7 clk_n $end
$var reg 1 8 reset $end
$var reg 1 9 reset_n $end
$var reg 1 : sync $end
$var reg 1 ; clk_i $end
$upscope $end
$scope module a_source $end
$var reg 1 < clk $end
$var reg 1 = reset $end
$var reg 1 > valid $end
$var reg 1 ? ready $end
$var reg 1 @ dvalid $end
$var reg 32 A data[31:0] $end
$var reg 3 B count[2:0] $end
$var reg 1 C last $end
$var reg 1 D ctrl[0:0] $end
$var reg 1 E x[0:0] $end
$var reg 1 F y[0:0] $end
$var reg 1 G z[0:0] $end
$scope module monitor $end
$var reg 1 H clk $end
$var reg 1 I reset $end
$var reg 1 J valid $end
$var reg 1 K ready $end
$var reg 1 L dvalid $end
$var reg 32 M data[31:0] $end
$var reg 3 N count[2:0] $end
$var reg 1 O last $end
$var reg 1 P ctrl[0:0] $end
$var reg 1 Q x[0:0] $end
$var reg 1 R y[0:0] $end
$var reg 1 S z[0:0] $end
$upscope $end
$upscope $end
$scope module r_source $end
$var reg 1 T clk $end
$var reg 1 U reset $end
$var reg 1 V valid $end
$var reg 1 W ready $end
$var reg 1 X dvalid $end
$var reg 3 Y data[2:0] $end
$var reg 1 Z count[0:0] $end
$var reg 1 [ last $end
$var reg 1 \ ctrl[0:0] $end
$var reg 1 ] x[0:0] $end
$var reg 1 ^ y[0:0] $end
$var reg 1 _ z[0:0] $end
$scope module monitor $end
$var reg 1 ` clk $end
$var reg 1 a reset $end
$var reg 1 b valid $end
$var reg 1 c ready $end
$var reg 1 d dvalid $end
$var reg 3 e data[2:0] $end
$var reg 1 f count[0:0] $end
$var reg 1 g last $end
$var reg 1 h ctrl[0:0] $end
$var reg 1 i x[0:0] $end
$var reg 1 j y[0:0] $end
$var reg 1 k z[0:0] $end
$upscope $end
$upscope $end
$scope module uut $end
$var reg 1 l clk $end
$var reg 1 m reset $end
$var reg 1 n in_valid $end
$var reg 1 o in_ready $end
$var reg 1 p in_dvalid $end
$var reg 32 q in_data[31:0] $end
$var reg 3 r in_count[2:0] $end
$var reg 1 s in_last $end
$var reg 3 t req_count[2:0] $end
$var reg 1 u out_valid $end
$var reg 1 v out_ready $end
$var reg 1 w out_dvalid $end
$var reg 32 x out_data[31:0] $end
$var reg 3 y out_count[2:0] $end
$var reg 1 z out_last $end
$comment fifo is not handled $end
$var reg 5 { read_ptr[4:0] $end
$var reg 5 | write_ptr[4:0] $end
$var reg 5 } fifo_count[4:0] $end
$var reg 5 !" fifo_avail[4:0] $end
$var reg 5 "" write_ptr_add[4:0] $end
$var reg 16 #" fifo_we[15:0] $end
$comment fifo_wdata is not handled $end
$var reg 5 $" read_ptr_add[4:0] $end
$var reg 1 %" in_ready_i $end
$upscope $end
$scope module bor_sync $end
$var reg 1 &" clk $end
$var reg 1 '" reset $end
$var reg 2 (" in_valid[1:0] $end
$var reg 2 )" in_ready[1:0] $end
$var reg 2 *" in_advance[1:0] $end
$var reg 2 +" in_use[1:0] $end
$var reg 1 ," out_valid[0:0] $end
$var reg 1 -" out_ready[0:0] $end
$var reg 1 ." out_enable[0:0] $end
$var reg 1 /" valid $end
$var reg 1 0" ready $end
$var reg 1 1" out_accepted[0:0] $end
$var reg 1 2" out_done[0:0] $end
$scope module out_gen(0) $end
$upscope $end
$upscope $end
$scope module b_sink $end
$var reg 1 3" clk $end
$var reg 1 4" reset $end
$var reg 1 5" valid $end
$var reg 1 6" ready $end
$var reg 1 7" dvalid $end
$var reg 32 8" data[31:0] $end
$var reg 3 9" count[2:0] $end
$var reg 1 :" last $end
$var reg 1 ;" ctrl[0:0] $end
$var reg 1 <" x[0:0] $end
$var reg 1 =" y[0:0] $end
$var reg 1 >" z[0:0] $end
$scope module monitor $end
$var reg 1 ?" clk $end
$var reg 1 @" reset $end
$var reg 1 A" valid $end
$var reg 1 B" ready $end
$var reg 1 C" dvalid $end
$var reg 32 D" data[31:0] $end
$var reg 3 E" count[2:0] $end
$var reg 1 F" last $end
$var reg 1 G" ctrl[0:0] $end
$var reg 1 H" x[0:0] $end
$var reg 1 I" y[0:0] $end
$var reg 1 J" z[0:0] $end
$upscope $end
$upscope $end
$upscope $end
$upscope $end
$enddefinitions $end
#0
1!
1"
0#
1$
U%
0&
U'
bUUUUUUUUUUUUUUUUUUUUUUUUUUUUUUUU (
bUUU )
U*
U+
U,
1-
U.
U/
U0
U1
bUUUUUUUUUUUUUUUUUUUUUUUUUUUUUUUU 2
bUUU 3
bUUU 4
05
06
17
18
09
0:
0;
0<
1=
U>
0?
U@
bUUUUUUUUUUUUUUUUUUUUUUUUUUUUUUUU A
bUUU B
UC
bU D
bU E
bU F
bU G
0H
1I
UJ
0K
UL
bUUUUUUUUUUUUUUUUUUUUUUUUUUUUUUUU M
bUUU N
UO
bU P
bU Q
bU R
bU S
0T
1U
UV
UW
UX
bUUU Y
bU Z
U[
bU \
bU ]
bU ^
bU _
0`
1a
Ub
Uc
Ud
bUUU e
bU f
Ug
bU h
bU i
bU j
bU k
0l
1m
Un
0o
Up
bUUUUUUUUUUUUUUUUUUUUUUUUUUUUUUUU q
bUUU r
Us
bUUU t
1u
Uv
Uw
bUUUUUUUUUUUUUUUUUUUUUUUUUUUUUUUU x
bUUU y
0z
bUUUUU {
bUUUUU |
bXXXXX }
bXXXXX !"
b00000 ""
b0000000000000000 #"
b00000 $"
0%"
0&"
1'"
bU1 ("
bUU )"
b11 *"
b11 +"
bU ,"
bU -"
b1 ."
U/"
U0"
bU 1"
bU 2"
03"
14"
U5"
U6"
U7"
bUUUUUUUUUUUUUUUUUUUUUUUUUUUUUUUU 8"
bUUU 9"
0:"
b0 ;"
b0 <"
b0 ="
b0 >"
0?"
1@"
UA"
UB"
UC"
bUUUUUUUUUUUUUUUUUUUUUUUUUUUUUUUU D"
bUUU E"
0F"
b0 G"
b0 H"
b0 I"
b0 J"
#500000000
#600000000
#1000000000
1:
#2000000000
1#
0%
1&
0+
0,
0.
0/
00
16
07
0:
1;
1<
0>
1?
1H
0J
1K
1T
0V
0W
UX
bUUU Y
bU Z
U[
bU \
bU ]
bU ^
bU _
1`
0b
0c
1l
0n
1o
0v
b00000 {
b00000 |
b00000 }
b10000 !"
1%"
1&"
b01 ("
b00 )"
b0 ,"
b0 -"
0/"
00"
b0 1"
b0 2"
13"
05"
06"
1?"
0A"
0B"
#2005000000
0#
06
17
0;
0<
0H
0T
0`
0l
0&"
03"
0?"
#2010000000
1#
16
07
1;
1<
1H
1T
1`
1l
1&"
13"
1?"
#2015000000
0#
06
17
0;
0<
0H
0T
0`
0l
0&"
03"
0?"
#2020000000
1#
16
07
1;
1<
1H
1T
1`
1l
1&"
13"
1?"
#2025000000
0#
06
17
0;
0<
0H
0T
0`
0l
0&"
03"
0?"
#2030000000
1#
16
07
1;
1<
1H
1T
1`
1l
1&"
13"
1?"
#2035000000
0#
06
17
0;
0<
0H
0T
0`
0l
0&"
03"
0?"
#2040000000
1#
16
07
1;
1<
1H
1T
1`
1l
1&"
13"
1?"
#2045000000
0#
06
17
0;
0<
0H
0T
0`
0l
0&"
03"
0?"
#2050000000
1#
16
07
1;
1<
1H
1T
1`
1l
1&"
13"
1?"
#2055000000
0#
06
17
0;
0<
0H
0T
0`
0l
0&"
03"
0?"
#2060000000
1#
16
07
1;
1<
1H
1T
1`
1l
1&"
13"
1?"
#2065000000
0#
06
17
0;
0<
0H
0T
0`
0l
0&"
03"
0?"
#2070000000
1#
16
07
1;
1<
1H
1T
1`
1l
1&"
13"
1?"
#2075000000
0#
06
17
0;
0<
0H
0T
0`
0l
0&"
03"
0?"
#2080000000
1#
16
07
1;
1<
1H
1T
1`
1l
1&"
13"
1?"
#2085000000
0#
06
17
0;
0<
0H
0T
0`
0l
0&"
03"
0?"
#2090000000
1#
16
07
1;
1<
1H
1T
1`
1l
1&"
13"
1?"
#2095000000
0#
06
17
0;
0<
0H
0T
0`
0l
0&"
03"
0?"
#2100000000
1#
0$
16
07
08
19
1;
1<
0=
1H
0I
1T
0U
1`
0a
1l
0m
1&"
0'"
13"
04"
1?"
0@"
#2105000000
Z"
0#
06
17
0;
0<
0H
0T
0`
0l
0&"
03"
0?"
#2110000000
1#
1%
1'
b00100000011001010110100001010100 (
b100 )
0*
1+
1/
01
b000 3
b000 4
16
07
1;
1<
1>
1@
b00100000011001010110100001010100 A
b100 B
0C
1H
1J
1L
b00100000011001010110100001010100 M
b100 N
0O
1T
1V
1X
b000 Y
b1 Z
0[
1`
1b
1d
b000 e
b1 f
0g
1l
1n
1p
b00100000011001010110100001010100 q
b100 r
0s
b000 t
0w
b000 y
b00100 ""
b0000000000001111 #"
1&"
b11 ("
b1 ,"
1/"
13"
15"
07"
b000 9"
1?"
1A"
0C"
b000 E"
#2115000000
0#
06
17
0;
0<
0H
0T
0`
0l
0&"
03"
0?"
#2120000000
1#
0%
16
07
1;
1<
0>
1H
0J
1T
1`
1l
0n
bUUUUUUUUUUUUUUUUUUUUUUUUUUUUUUUU x
b00100 |
b00100 }
b01100 !"
b00000 ""
b0000000000000000 #"
1&"
13"
1?"
#2125000000
0#
06
17
0;
0<
0H
0T
0`
0l
0&"
03"
0?"
#2130000000
1#
1,
1.
10
16
07
1;
1<
1H
1T
1W
1`
1c
1l
1v
bUUUUUUUUUUUUUUUUUUUUUUUUUUUUUUUU x
1&"
b11 )"
b1 -"
10"
b1 2"
13"
16"
1?"
1B"
#2135000000
0#
06
17
0;
0<
0H
0T
0`
0l
0&"
03"
0?"
#2140000000
1#
0,
0.
00
11
bUUUUUUUUUUUUUUUUUUUUUUUU01010100 2
b001 3
b001 4
16
07
1;
1<
1H
1T
0W
b001 Y
1`
0c
b001 e
1l
b001 t
0v
1w
bUUUUUUUUUUUUUUUUUUUUUUUU01010100 x
b001 y
b00000 $"
1&"
b00 )"
b0 -"
00"
b0 2"
13"
06"
17"
bUUUUUUUUUUUUUUUUUUUUUUUU01010100 8"
b001 9"
1?"
0B"
1C"
bUUUUUUUUUUUUUUUUUUUUUUUU01010100 D"
b001 E"
#2145000000
0#
06
17
0;
0<
0H
0T
0`
0l
0&"
03"
0?"
#2150000000
1#
16
07
1;
1<
1H
1T
1`
1l
1&"
13"
1?"
#2155000000
0#
06
17
0;
0<
0H
0T
0`
0l
0&"
03"
0?"
#2160000000
1#
1%
0'
bUUUUUUUUUUUUUUUUUUUUUUUUUUUUUUUU (
bUUU )
16
07
1;
1<
1>
0@
bUUUUUUUUUUUUUUUUUUUUUUUUUUUUUUUU A
bUUU B
1H
1J
0L
bUUUUUUUUUUUUUUUUUUUUUUUUUUUUUUUU M
bUUU N
1T
1`
1l
1n
0p
bUUUUUUUUUUUUUUUUUUUUUUUUUUUUUUUU q
bUUU r
b0000000011110000 #"
1&"
13"
1?"
#2165000000
0#
06
17
0;
0<
0H
0T
0`
0l
0&"
03"
0?"
#2170000000
1#
1'
bUUUUUUUUUUUUUUUUUUUUUUUU01110001 (
b001 )
16
07
1;
1<
1@
bUUUUUUUUUUUUUUUUUUUUUUUU01110001 A
b001 B
1H
1L
bUUUUUUUUUUUUUUUUUUUUUUUU01110001 M
b001 N
1T
1`
1l
1p
bUUUUUUUUUUUUUUUUUUUUUUUU01110001 q
b001 r
bUUUUUUUUUUUUUUUUUUUUUUUU01010100 x
b00001 ""
1&"
13"
1?"
#2175000000
0#
06
17
0;
0<
0H
0T
0`
0l
0&"
03"
0?"
#2180000000
1#
bUUUUUUUUUUUUUUUU0110100101110101 (
b010 )
16
07
1;
1<
bUUUUUUUUUUUUUUUU0110100101110101 A
b010 B
1H
bUUUUUUUUUUUUUUUU0110100101110101 M
b010 N
1T
1`
1l
bUUUUUUUUUUUUUUUU0110100101110101 q
b010 r
bUUUUUUUUUUUUUUUUUUUUUUUU01010100 x
b00101 |
b00101 }
b01011 !"
b00010 ""
b0000000111100000 #"
1&"
13"
1?"
#2185000000
0#
06
17
0;
0<
0H
0T
0`
0l
0&"
03"
0?"
#2190000000
1#
bUUUUUUUUUUUUUUUU0110101101100011 (
1,
1.
10
16
07
1;
1<
bUUUUUUUUUUUUUUUU0110101101100011 A
1H
bUUUUUUUUUUUUUUUU0110101101100011 M
1T
1W
1`
1c
1l
bUUUUUUUUUUUUUUUU0110101101100011 q
1v
bUUUUUUUUUUUUUUUUUUUUUUUU01010100 x
b00111 |
b00111 }
b01001 !"
b0000011110000000 #"
b00001 $"
1&"
b11 )"
b1 -"
10"
b1 2"
13"
16"
1?"
1B"
#2195000000
0#
06
17
0;
0<
0H
0T
0`
0l
0&"
03"
0?"
#2200000000
1#
b01101111011100100110001000100000 (
b100 )
bUUUUUUUUUUUUUUUU0110010101101000 2
b010 3
b010 4
16
07
1;
1<
b01101111011100100110001000100000 A
b100 B
1H
b01101111011100100110001000100000 M
b100 N
1T
b010 Y
1`
b010 e
1l
b01101111011100100110001000100000 q
b100 r
b010 t
bUUUUUUUUUUUUUUUU0110010101101000 x
b010 y
b00001 {
b01001 |
b01000 }
b01000 !"
b00100 ""
b0001111000000000 #"
b00010 $"
1&"
13"
bUUUUUUUUUUUUUUUU0110010101101000 8"
b010 9"
1?"
bUUUUUUUUUUUUUUUU0110010101101000 D"
b010 E"
#2205000000
0#
06
17
0;
0<
0H
0T
0`
0l
0&"
03"
0?"
#2210000000
1#
0%
0,
0.
00
bUUUUUUUU011101010111000100100000 2
b011 3
b011 4
16
07
1;
1<
0>
1H
0J
1T
0W
b011 Y
1`
0c
b011 e
1l
0n
b011 t
0v
bUUUUUUUU011101010111000100100000 x
b011 y
b00011 {
b01101 |
b01010 }
b00110 !"
b00000 ""
b0000000000000000 #"
b00000 $"
1&"
b00 )"
b0 -"
00"
b0 2"
13"
06"
bUUUUUUUU011101010111000100100000 8"
b011 9"
1?"
0B"
bUUUUUUUU011101010111000100100000 D"
b011 E"
#2215000000
0#
06
17
0;
0<
0H
0T
0`
0l
0&"
03"
0?"
#2220000000
1#
16
07
1;
1<
1H
1T
1`
1l
1&"
13"
1?"
#2225000000
0#
06
17
0;
0<
0H
0T
0`
0l
0&"
03"
0?"
#2230000000
1#
16
07
1;
1<
1H
1T
1`
1l
1&"
13"
1?"
#2235000000
0#
06
17
0;
0<
0H
0T
0`
0l
0&"
03"
0?"
#2240000000
1#
16
07
1;
1<
1H
1T
1`
1l
1&"
13"
1?"
#2245000000
0#
06
17
0;
0<
0H
0T
0`
0l
0&"
03"
0?"
#2250000000
1#
1%
0'
bUUUUUUUUUUUUUUUUUUUUUUUUUUUUUUUU (
bUUU )
1,
1.
10
16
07
1;
1<
1>
0@
bUUUUUUUUUUUUUUUUUUUUUUUUUUUUUUUU A
bUUU B
1H
1J
0L
bUUUUUUUUUUUUUUUUUUUUUUUUUUUUUUUU M
bUUU N
1T
1W
1`
1c
1l
1n
0p
bUUUUUUUUUUUUUUUUUUUUUUUUUUUUUUUU q
bUUU r
1v
bUUUUUUUU011101010111000100100000 x
b1110000000000001 #"
b00011 $"
1&"
b11 )"
b1 -"
10"
b1 2"
13"
16"
1?"
1B"
#2255000000
0#
06
17
0;
0<
0H
0T
0`
0l
0&"
03"
0?"
#2260000000
1#
0%
b00100000011010110110001101101001 2
b100 3
b100 4
16
07
1;
1<
0>
1H
0J
1T
b100 Y
1`
b100 e
1l
0n
b100 t
b00100000011010110110001101101001 x
b100 y
b00110 {
b00111 }
b01001 !"
b0000000000000000 #"
b00100 $"
1&"
13"
b00100000011010110110001101101001 8"
b100 9"
1?"
b00100000011010110110001101101001 D"
b100 E"
#2265000000
0#
06
17
0;
0<
0H
0T
0`
0l
0&"
03"
0?"
#2270000000
1#
0,
0.
00
01
bUUUUUUUUUUUUUUUUUUUUUUUUUUUUUUUU 2
b000 3
b000 4
16
07
1;
1<
1H
1T
0W
b000 Y
1`
0c
b000 e
1l
b000 t
0v
0w
bUUUUUUUUUUUUUUUUUUUUUUUUUUUUUUUU x
b000 y
b01010 {
b00011 }
b01101 !"
b00000 $"
1&"
b00 )"
b0 -"
00"
b0 2"
13"
06"
07"
bUUUUUUUUUUUUUUUUUUUUUUUUUUUUUUUU 8"
b000 9"
1?"
0B"
0C"
bUUUUUUUUUUUUUUUUUUUUUUUUUUUUUUUU D"
b000 E"
#2275000000
0#
06
17
0;
0<
0H
0T
0`
0l
0&"
03"
0?"
#2280000000
1#
1%
1,
1.
10
16
07
1;
1<
1>
1H
1J
1T
1W
1`
1c
1l
1n
1v
bUUUUUUUUUUUUUUUUUUUUUUUUUUUUUUUU x
b1110000000000001 #"
1&"
b11 )"
b1 -"
10"
b1 2"
13"
16"
1?"
1B"
#2285000000
0#
06
17
0;
0<
0H
0T
0`
0l
0&"
03"
0?"
#2290000000
1#
1'
b01100110001000000110111001110111 (
b100 )
0,
0.
00
11
bUUUUUUUUUUUUUUUUUUUUUUUU01100010 2
b001 3
b001 4
16
07
1;
1<
1@
b01100110001000000110111001110111 A
b100 B
1H
1L
b01100110001000000110111001110111 M
b100 N
1T
0W
b001 Y
1`
0c
b001 e
1l
1p
b01100110001000000110111001110111 q
b100 r
b001 t
0v
1w
bUUUUUUUUUUUUUUUUUUUUUUUU01100010 x
b001 y
b00100 ""
b00000 $"
1&"
b00 )"
b0 -"
00"
b0 2"
13"
06"
17"
bUUUUUUUUUUUUUUUUUUUUUUUU01100010 8"
b001 9"
1?"
0B"
1C"
bUUUUUUUUUUUUUUUUUUUUUUUU01100010 D"
b001 E"
#2295000000
0#
06
17
0;
0<
0H
0T
0`
0l
0&"
03"
0?"
#2300000000
1#
0%
1,
1.
10
16
07
1;
1<
0>
1H
0J
1T
1W
1`
1c
1l
0n
1v
bUUUUUUUUUUUUUUUUUUUUUUUU01100010 x
b10001 |
b00111 }
b01001 !"
b00000 ""
b0000000000000000 #"
b00001 $"
1&"
b11 )"
b1 -"
10"
b1 2"
13"
16"
1?"
1B"
#2305000000
0#
06
17
0;
0<
0H
0T
0`
0l
0&"
03"
0?"
#2310000000
1#
0,
0.
00
bUUUUUUUUUUUUUUUU0110111101110010 2
b010 3
b010 4
16
07
1;
1<
1H
1T
0W
b010 Y
1`
0c
b010 e
1l
b010 t
0v
bUUUUUUUUUUUUUUUU0110111101110010 x
b010 y
b01011 {
b00110 }
b01010 !"
b00000 $"
1&"
b00 )"
b0 -"
00"
b0 2"
13"
06"
bUUUUUUUUUUUUUUUU0110111101110010 8"
b010 9"
1?"
0B"
bUUUUUUUUUUUUUUUU0110111101110010 D"
b010 E"
#2315000000
0#
06
17
0;
0<
0H
0T
0`
0l
0&"
03"
0?"
#2320000000
1#
1%
bUUUUUUUU001000000111100001101111 (
b011 )
16
07
1;
1<
1>
bUUUUUUUU001000000111100001101111 A
b011 B
1H
1J
bUUUUUUUU001000000111100001101111 M
b011 N
1T
1`
1l
1n
bUUUUUUUU001000000111100001101111 q
b011 r
b00011 ""
b0000000000011110 #"
1&"
13"
1?"
#2325000000
0#
06
17
0;
0<
0H
0T
0`
0l
0&"
03"
0?"
#2330000000
1#
0%
16
07
1;
1<
0>
1H
0J
1T
1`
1l
0n
bUUUUUUUUUUUUUUUU0110111101110010 x
b10100 |
b01001 }
b00111 !"
b00000 ""
b0000000000000000 #"
1&"
13"
1?"
#2335000000
0#
06
17
0;
0<
0H
0T
0`
0l
0&"
03"
0?"
#2340000000
1#
1,
1.
10
16
07
1;
1<
1H
1T
1W
1`
1c
1l
1v
bUUUUUUUUUUUUUUUU0110111101110010 x
b00010 $"
1&"
b11 )"
b1 -"
10"
b1 2"
13"
16"
1?"
1B"
#2345000000
0#
06
17
0;
0<
0H
0T
0`
0l
0&"
03"
0?"
#2350000000
1#
0,
0.
00
bUUUUUUUU001000000110111001110111 2
b011 3
b011 4
16
07
1;
1<
1H
1T
0W
b011 Y
1`
0c
b011 e
1l
b011 t
0v
bUUUUUUUU001000000110111001110111 x
b011 y
b01101 {
b00111 }
b01001 !"
b00000 $"
1&"
b00 )"
b0 -"
00"
b0 2"
13"
06"
bUUUUUUUU001000000110111001110111 8"
b011 9"
1?"
0B"
bUUUUUUUU001000000110111001110111 D"
b011 E"
#2355000000
0#
06
17
0;
0<
0H
0T
0`
0l
0&"
03"
0?"
#2360000000
1#
16
07
1;
1<
1H
1T
1`
1l
1&"
13"
1?"
#2365000000
0#
06
17
0;
0<
0H
0T
0`
0l
0&"
03"
0?"
#2370000000
1#
1%
bUUUUUUUUUUUUUUUU0111010101101010 (
b010 )
16
07
1;
1<
1>
bUUUUUUUUUUUUUUUU0111010101101010 A
b010 B
1H
1J
bUUUUUUUUUUUUUUUU0111010101101010 M
b010 N
1T
1`
1l
1n
bUUUUUUUUUUUUUUUU0111010101101010 q
b010 r
b00010 ""
b0000000011110000 #"
1&"
13"
1?"
#2375000000
0#
06
17
0;
0<
0H
0T
0`
0l
0&"
03"
0?"
#2380000000
1#
0%
1,
1.
10
16
07
1;
1<
0>
1H
0J
1T
1W
1`
1c
1l
0n
1v
bUUUUUUUU001000000110111001110111 x
b10110 |
b01001 }
b00111 !"
b00000 ""
b0000000000000000 #"
b00011 $"
1&"
b11 )"
b1 -"
10"
b1 2"
13"
16"
1?"
1B"
#2385000000
0#
06
17
0;
0<
0H
0T
0`
0l
0&"
03"
0?"
#2390000000
1#
1%
bUUUUUUUUUUUUUUUUUUUUUUUU01101101 (
b001 )
b00100000011110000110111101100110 2
b100 3
b100 4
16
07
1;
1<
1>
bUUUUUUUUUUUUUUUUUUUUUUUU01101101 A
b001 B
1H
1J
bUUUUUUUUUUUUUUUUUUUUUUUU01101101 M
b001 N
1T
b100 Y
1`
b100 e
1l
1n
bUUUUUUUUUUUUUUUUUUUUUUUU01101101 q
b001 r
b100 t
b00100000011110000110111101100110 x
b100 y
b10000 {
b00110 }
b01010 !"
b00001 ""
b0000001111000000 #"
b00100 $"
1&"
13"
b00100000011110000110111101100110 8"
b100 9"
1?"
b00100000011110000110111101100110 D"
b100 E"
#2395000000
0#
06
17
0;
0<
0H
0T
0`
0l
0&"
03"
0?"
#2400000000
1#
0%
01
bUUUUUUUUUUUUUUUUUUUUUUUUUUUUUUUU 2
b000 3
b000 4
16
07
1;
1<
0>
1H
0J
1T
b000 Y
1`
b000 e
1l
0n
b000 t
0w
bUUUUUUUUUUUUUUUUUUUUUUUUUUUUUUUU x
b000 y
b10100 {
b10111 |
b00011 }
b01101 !"
b00000 ""
b0000000000000000 #"
b00000 $"
1&"
13"
07"
bUUUUUUUUUUUUUUUUUUUUUUUUUUUUUUUU 8"
b000 9"
1?"
0C"
bUUUUUUUUUUUUUUUUUUUUUUUUUUUUUUUU D"
b000 E"
#2405000000
0#
06
17
0;
0<
0H
0T
0`
0l
0&"
03"
0?"
#2410000000
1#
0,
0.
00
11
bUUUUUUUUUUUUUUUUUUUUUUUU01101010 2
b001 3
b001 4
16
07
1;
1<
1H
1T
0W
b001 Y
1`
0c
b001 e
1l
b001 t
0v
1w
bUUUUUUUUUUUUUUUUUUUUUUUU01101010 x
b001 y
b00000 $"
1&"
b00 )"
b0 -"
00"
b0 2"
13"
06"
17"
bUUUUUUUUUUUUUUUUUUUUUUUU01101010 8"
b001 9"
1?"
0B"
1C"
bUUUUUUUUUUUUUUUUUUUUUUUU01101010 D"
b001 E"
#2415000000
0#
06
17
0;
0<
0H
0T
0`
0l
0&"
03"
0?"
#2420000000
1#
16
07
1;
1<
1H
1T
1`
1l
1&"
13"
1?"
#2425000000
0#
06
17
0;
0<
0H
0T
0`
0l
0&"
03"
0?"
#2430000000
1#
16
07
1;
1<
1H
1T
1`
1l
1&"
13"
1?"
#2435000000
0#
06
17
0;
0<
0H
0T
0`
0l
0&"
03"
0?"
#2440000000
1#
16
07
1;
1<
1H
1T
1`
1l
1&"
13"
1?"
#2445000000
0#
06
17
0;
0<
0H
0T
0`
0l
0&"
03"
0?"
#2450000000
1#
1%
b01101111001000000111001101110000 (
b100 )
1,
1.
10
16
07
1;
1<
1>
b01101111001000000111001101110000 A
b100 B
1H
1J
b01101111001000000111001101110000 M
b100 N
1T
1W
1`
1c
1l
1n
b01101111001000000111001101110000 q
b100 r
1v
bUUUUUUUUUUUUUUUUUUUUUUUU01101010 x
b00100 ""
b0000011110000000 #"
b00001 $"
1&"
b11 )"
b1 -"
10"
b1 2"
13"
16"
1?"
1B"
#2455000000
0#
06
17
0;
0<
0H
0T
0`
0l
0&"
03"
0?"
#2460000000
1#
0%
bUUUUUUUUUUUUUUUU0110110101110101 2
b010 3
b010 4
16
07
1;
1<
0>
1H
0J
1T
b010 Y
1`
b010 e
1l
0n
b010 t
bUUUUUUUUUUUUUUUU0110110101110101 x
b010 y
b10101 {
b11011 |
b00110 }
b01010 !"
b00000 ""
b0000000000000000 #"
b00010 $"
1&"
13"
bUUUUUUUUUUUUUUUU0110110101110101 8"
b010 9"
1?"
bUUUUUUUUUUUUUUUU0110110101110101 D"
b010 E"
#2465000000
0#
06
17
0;
0<
0H
0T
0`
0l
0&"
03"
0?"
#2470000000
1#
0,
0.
00
bUUUUUUUU001000000111001101110000 2
b011 3
b011 4
16
07
1;
1<
1H
1T
0W
b011 Y
1`
0c
b011 e
1l
b011 t
0v
bUUUUUUUU001000000111001101110000 x
b011 y
b10111 {
b00100 }
b01100 !"
b00000 $"
1&"
b00 )"
b0 -"
00"
b0 2"
13"
06"
bUUUUUUUU001000000111001101110000 8"
b011 9"
1?"
0B"
bUUUUUUUU001000000111001101110000 D"
b011 E"
#2475000000
0#
06
17
0;
0<
0H
0T
0`
0l
0&"
03"
0?"
#2480000000
1#
16
07
1;
1<
1H
1T
1`
1l
1&"
13"
1?"
#2485000000
0#
06
17
0;
0<
0H
0T
0`
0l
0&"
03"
0?"
#2490000000
1#
1%
bUUUUUUUU011100100110010101110110 (
b011 )
16
07
1;
1<
1>
bUUUUUUUU011100100110010101110110 A
b011 B
1H
1J
bUUUUUUUU011100100110010101110110 M
b011 N
1T
1`
1l
1n
bUUUUUUUU011100100110010101110110 q
b011 r
b00011 ""
b0111100000000000 #"
1&"
13"
1?"
#2495000000
0#
06
17
0;
0<
0H
0T
0`
0l
0&"
03"
0?"
#2500000000
1#
0%
1,
1.
10
16
07
1;
1<
0>
1H
0J
1T
1W
1`
1c
1l
0n
1v
bUUUUUUUU001000000111001101110000 x
b11110 |
b00111 }
b01001 !"
b00000 ""
b0000000000000000 #"
b00011 $"
1&"
b11 )"
b1 -"
10"
b1 2"
13"
16"
1?"
1B"
#2505000000
0#
06
17
0;
0<
0H
0T
0`
0l
0&"
03"
0?"
#2510000000
1#
0,
0.
00
b01110010011001010111011001101111 2
b100 3
b100 4
16
07
1;
1<
1H
1T
0W
b100 Y
1`
0c
b100 e
1l
b100 t
0v
b01110010011001010111011001101111 x
b100 y
b11010 {
b00100 }
b01100 !"
b00000 $"
1&"
b00 )"
b0 -"
00"
b0 2"
13"
06"
b01110010011001010111011001101111 8"
b100 9"
1?"
0B"
b01110010011001010111011001101111 D"
b100 E"
#2515000000
0#
06
17
0;
0<
0H
0T
0`
0l
0&"
03"
0?"
#2520000000
1#
16
07
1;
1<
1H
1T
1`
1l
1&"
13"
1?"
#2525000000
0#
06
17
0;
0<
0H
0T
0`
0l
0&"
03"
0?"
#2530000000
1#
16
07
1;
1<
1H
1T
1`
1l
1&"
13"
1?"
#2535000000
0#
06
17
0;
0<
0H
0T
0`
0l
0&"
03"
0?"
#2540000000
1#
1%
0'
bUUUUUUUUUUUUUUUUUUUUUUUUUUUUUUUU (
bUUU )
16
07
1;
1<
1>
0@
bUUUUUUUUUUUUUUUUUUUUUUUUUUUUUUUU A
bUUU B
1H
1J
0L
bUUUUUUUUUUUUUUUUUUUUUUUUUUUUUUUU M
bUUU N
1T
1`
1l
1n
0p
bUUUUUUUUUUUUUUUUUUUUUUUUUUUUUUUU q
bUUU r
b1100000000000011 #"
1&"
13"
1?"
#2545000000
0#
06
17
0;
0<
0H
0T
0`
0l
0&"
03"
0?"
#2550000000
1#
1,
1.
10
16
07
1;
1<
1H
1T
1W
1`
1c
1l
1v
b00100 $"
1&"
b11 )"
b1 -"
10"
b1 2"
13"
16"
1?"
1B"
#2555000000
0#
06
17
0;
0<
0H
0T
0`
0l
0&"
03"
0?"
